69 191
1 34
43 48
13 55
4 41
30 41
41 63
49 63
38 67
46 67
8 50
16 47
9 51
36 61
52 58
0 32
40 66
37 48
43 63
38 63
58 63
22 41
48 64
63 67
48 67
7 41
31 60
37 41
41 52
50 64
37 38
36 50
47 63
13 48
37 51
3 40
2 32
23 46
1 31
24 62
31 38
52 67
25 63
37 44
11 41
10 51
16 60
53 54
52 60
43 52
42 52
62 68
42 67
45 54
44 66
41 64
19 49
30 32
31 37
30 55
37 47
43 46
46 52
12 55
39 54
22 62
44 52
33 54
48 63
30 46
54 59
31 47
43 64
30 67
38 66
14 47
30 48
34 47
42 63
54 67
40 67
28 68
47 52
49 52
5 46
50 63
17 51
30 62
34 37
6 48
51 63
46 63
12 46
36 51
67 68
40 64
37 50
18 58
55 67
4 44
0 31
30 36
50 52
15 58
6 46
60 63
34 38
37 43
26 64
21 61
52 61
54 66
30 31
2 34
42 64
64 67
28 38
44 67
31 43
34 60
11 55
36 47
34 43
40 52
37 46
36 58
27 63
37 67
23 62
54 56
9 47
47 64
40 43
30 34
43 67
25 52
7 49
40 49
54 65
51 52
37 62
62 67
61 64
32 43
14 58
8 49
15 51
36 60
26 52
17 60
29 54
38 64
44 63
32 37
30 37
61 67
37 60
36 43
61 63
36 38
35 54
58 64
21 60
44 64
36 49
38 52
3 41
18 60
48 52
30 38
27 64
50 67
19 61
49 64
24 48
10 50
37 58
60 64
37 55
42 66
55 68
5 41
54 57
40 44
43 66
40 63
20 61
49 67
46 64
20 51
51 64
37 61
