140 620
62 64
74 106
95 101
49 116
50 122
106 111
67 137
74 116
73 82
129 139
95 138
78 86
6 72
103 122
127 133
67 74
105 131
122 137
97 137
78 98
121 138
62 97
67 118
87 107
85 87
69 116
75 97
81 86
80 116
99 103
118 129
104 122
74 127
81 104
96 136
73 93
106 112
81 139
130 139
112 121
74 130
97 130
110 124
16 75
34 114
85 118
96 114
68 91
30 113
87 96
34 108
94 101
91 101
42 119
70 77
70 81
96 104
68 97
39 116
30 61
62 138
117 139
111 136
103 104
64 86
79 120
27 110
5 70
114 122
61 86
111 137
96 130
47 119
91 122
70 72
62 117
119 124
66 104
44 120
131 136
97 101
61 87
12 81
74 97
72 113
15 79
29 81
67 130
81 124
52 127
109 122
74 85
64 67
31 85
108 131
110 112
62 131
87 118
121 135
111 124
68 87
73 100
87 108
91 105
104 111
59 64
73 78
61 74
74 114
1 70
103 116
70 99
104 121
28 112
20 85
68 119
69 78
64 112
85 129
101 129
121 136
62 103
69 104
87 101
99 131
97 119
118 122
124 137
75 99
97 105
61 67
77 105
74 125
73 89
79 87
64 81
101 138
111 130
68 69
69 81
67 97
36 110
70 87
96 106
99 110
97 98
81 103
45 121
101 108
106 121
107 125
3 70
101 118
72 125
37 61
29 112
55 137
124 138
64 78
65 112
79 96
91 124
98 113
70 78
96 97
131 138
74 111
103 133
91 131
101 127
65 87
21 107
103 121
64 69
122 138
62 118
109 128
117 121
62 129
87 139
66 97
67 117
87 110
97 124
81 125
62 68
68 127
73 76
95 97
80 113
118 130
109 113
67 78
19 95
26 110
121 127
17 94
62 136
87 128
111 135
96 127
69 86
64 104
91 96
97 117
14 81
114 131
97 111
61 65
62 81
77 103
98 125
96 125
66 133
106 124
103 111
108 122
79 127
58 137
77 91
33 114
78 105
85 114
101 136
96 118
87 124
91 121
98 116
61 96
96 108
124 130
72 104
73 126
131 135
72 78
101 106
49 124
67 129
25 108
109 125
74 86
59 139
66 80
122 129
35 109
109 133
62 104
67 104
85 101
121 130
96 99
1 62
39 105
86 99
97 121
98 105
125 127
107 116
78 125
91 133
74 119
75 79
73 83
101 125
74 129
110 133
6 75
79 107
97 138
66 69
67 81
64 125
87 114
62 114
111 120
62 96
55 136
97 114
105 107
0 66
11 80
78 139
119 133
81 105
117 131
66 74
72 133
26 108
97 131
69 74
67 86
64 116
87 130
40 116
96 113
96 138
87 97
61 101
62 77
68 96
73 123
86 87
74 121
81 98
96 137
101 111
73 92
106 122
27 111
66 87
118 131
96 129
62 116
9 72
69 103
53 136
80 97
43 119
131 137
54 135
11 78
74 96
56 138
99 120
107 113
67 131
72 86
101 114
113 120
103 124
67 68
7 78
23 107
117 124
62 130
120 133
87 119
64 133
119 122
87 109
97 127
48 113
69 138
45 110
15 85
67 136
77 113
4 67
22 108
109 116
104 131
103 117
67 77
105 130
65 77
32 114
97 136
110 122
66 67
64 127
65 103
85 108
101 130
121 137
111 122
71 73
87 106
85 86
91 111
61 106
62 72
124 136
38 116
122 130
10 80
74 124
73 90
2 70
104 124
61 62
28 78
58 138
61 120
73 134
69 72
64 118
101 139
62 105
54 137
120 121
87 99
96 105
68 98
124 135
99 111
62 85
81 96
2 65
99 117
13 81
107 122
130 131
81 122
112 113
5 69
122 136
66 85
64 77
79 97
61 130
41 117
23 108
67 103
120 128
114 124
111 118
69 101
66 105
36 114
80 99
48 124
104 105
9 80
74 110
75 116
17 64
51 129
4 70
101 112
62 135
65 80
121 124
64 68
65 74
79 110
18 64
117 122
87 113
85 97
101 135
111 127
67 114
41 114
97 125
114 139
103 131
63 73
67 138
77 111
38 85
101 121
21 106
24 107
104 133
57 138
111 117
79 119
79 91
69 77
16 87
67 85
129 131
85 106
32 106
87 129
40 113
69 87
85 130
94 97
97 118
14 80
61 104
62 78
68 101
69 113
72 96
81 133
97 104
62 74
61 66
74 122
73 88
47 121
108 121
46 111
78 133
97 135
64 72
78 104
101 137
96 117
68 70
116 120
67 96
86 113
87 125
61 97
62 113
124 129
87 91
43 114
61 91
77 97
74 101
75 113
56 135
99 119
107 124
74 79
25 109
101 117
22 106
114 121
7 77
37 116
111 138
66 77
67 105
96 133
65 105
87 122
127 131
111 112
69 99
66 103
97 122
62 66
74 108
8 61
50 124
104 113
67 135
74 118
81 113
108 111
20 99
46 121
103 120
67 72
78 122
8 79
64 124
91 116
101 133
10 77
67 116
87 105
44 114
98 99
12 75
68 120
53 135
0 65
112 120
74 113
101 103
107 128
24 109
75 91
103 113
51 119
57 136
108 124
19 94
66 95
67 87
62 137
78 103
42 111
87 131
118 124
64 105
91 99
105 109
118 121
61 64
62 86
79 80
3 66
52 129
72 139
97 133
64 74
122 135
33 107
121 122
64 96
120 125
87 127
85 91
70 74
68 110
72 105
97 103
105 120
74 99
101 105
99 121
13 77
78 124
77 121
74 77
18 95
109 124
103 125
78 113
79 109
111 129
66 75
96 135
31 113
87 116
35 114
91 113
121 129
111 114
65 75
69 97
67 113
73 102
