60 163
26 47
18 55
38 50
25 31
45 51
9 41
29 44
10 46
34 35
7 42
8 41
11 47
16 50
3 24
18 45
44 45
26 32
47 53
28 35
25 26
49 53
21 31
28 46
30 57
29 47
27 28
34 36
28 31
17 41
21 59
20 53
36 50
25 38
5 24
28 53
44 50
26 37
23 53
48 53
28 32
32 53
29 37
33 34
42 57
46 59
47 50
27 34
49 51
30 32
31 37
38 51
29 49
27 33
8 45
30 46
45 57
34 53
0 24
22 59
25 53
16 51
25 42
49 50
46 49
44 46
15 25
39 44
33 38
31 34
34 37
7 40
25 48
38 39
36 51
27 53
25 37
14 25
13 47
44 51
52 53
28 33
1 30
34 38
36 37
27 48
46 47
27 37
23 59
4 33
44 48
6 36
35 44
33 44
2 30
25 57
37 46
3 31
42 59
38 45
4 24
47 48
38 48
44 53
14 50
30 47
27 30
0 25
32 46
30 34
36 44
34 44
40 49
26 27
38 46
31 43
26 46
24 29
39 47
35 38
15 51
11 44
25 36
28 34
25 27
6 24
30 37
2 26
34 39
20 57
28 30
46 57
12 44
42 50
13 49
27 36
39 49
45 50
45 52
32 34
40 47
5 35
29 38
1 24
30 53
42 51
17 53
12 49
38 53
25 34
25 30
27 35
25 28
36 38
48 49
28 36
9 46
40 44
10 45
43 58
19 56
47 51
19 45
22 39
