65 229
1 34
14 17
20 25
33 55
45 58
26 28
17 20
38 64
14 59
17 25
7 42
4 41
26 39
9 51
20 48
52 58
0 32
22 55
12 59
53 59
52 53
22 58
50 61
45 48
10 18
33 50
16 22
48 59
53 63
45 61
14 52
18 20
16 44
6 51
20 58
19 50
17 41
21 59
20 53
52 63
26 54
22 48
12 56
2 32
18 61
57 59
33 61
0 33
33 64
22 25
18 25
20 63
61 63
40 59
25 44
46 59
11 58
18 51
17 57
47 50
38 55
8 43
21 24
33 41
17 50
33 56
40 45
23 26
24 59
14 50
5 50
19 59
52 64
25 58
7 51
14 33
19 44
17 52
18 41
17 55
24 33
20 64
32 55
14 22
4 42
3 34
48 63
20 21
1 16
33 59
14 56
22 59
8 51
40 61
25 53
41 56
40 48
19 43
52 59
18 42
25 42
53 55
53 58
57 63
14 19
21 33
3 33
9 46
5 46
25 43
17 22
47 51
14 40
20 59
19 53
51 63
25 48
41 59
21 58
19 38
52 56
14 25
20 33
16 59
57 58
26 30
34 59
26 60
17 38
6 41
40 55
20 56
17 43
17 58
57 64
22 50
46 47
19 22
2 34
18 63
14 63
22 33
33 63
58 63
56 63
33 44
19 58
16 55
40 58
20 61
48 64
16 58
21 48
20 40
11 56
17 59
19 21
33 53
32 59
45 56
34 50
13 26
19 57
17 44
16 52
20 50
19 42
18 43
25 41
22 53
20 45
48 58
52 55
14 16
20 24
33 48
61 64
45 59
26 31
17 21
14 58
50 63
14 41
19 52
10 52
41 58
20 55
19 41
18 44
26 35
32 50
16 57
26 49
22 40
59 63
50 53
14 55
25 61
40 56
51 61
17 42
41 53
20 52
56 57
19 25
15 26
48 52
19 55
14 48
25 56
24 48
40 53
17 53
41 48
46 58
18 50
25 34
14 20
19 20
33 52
16 56
34 51
40 44
14 45
25 50
25 59
26 36
24 32
26 27
