27 62
14 17
3 25
8 13
8 23
1 26
9 22
24 26
7 25
13 17
21 26
7 16
17 25
5 26
10 26
3 7
9 25
15 26
14 22
8 14
6 26
7 15
13 25
13 16
0 17
7 19
19 25
9 17
17 23
16 25
11 26
14 23
7 23
23 25
8 25
7 14
9 14
15 25
14 19
20 26
16 23
9 16
3 19
7 22
0 8
7 9
9 13
22 25
13 23
14 16
3 22
13 14
7 8
14 25
7 13
22 23
9 23
18 26
4 26
12 26
19 23
9 19
15 16
