100 459
0 86
12 78
25 82
54 58
17 20
63 76
72 89
54 92
41 57
13 32
29 70
18 45
65 78
47 93
23 97
42 98
10 75
0 45
27 39
34 79
7 22
33 34
73 91
63 83
28 87
29 95
4 87
17 57
65 71
76 87
17 25
22 88
7 91
73 82
87 96
1 33
2 38
58 59
12 90
10 47
2 64
31 74
9 50
13 44
66 84
17 84
14 53
43 80
26 56
20 54
27 53
25 37
3 60
39 75
50 65
63 65
9 59
6 87
3 83
84 89
30 89
13 63
30 99
85 98
32 82
14 38
1 51
29 48
59 64
37 80
52 88
12 46
15 24
12 19
2 25
16 21
25 55
58 79
4 7
38 42
52 57
10 83
32 37
3 48
28 81
55 67
3 65
43 54
31 91
11 32
24 61
19 46
26 63
0 38
61 98
9 68
6 12
15 90
20 68
77 98
63 90
29 86
12 43
51 64
49 80
37 61
9 26
89 93
5 8
20 48
6 7
35 87
0 83
9 87
24 89
6 25
30 42
15 73
31 35
18 20
6 51
1 67
49 73
11 63
18 46
6 85
12 56
43 58
44 61
24 49
10 76
25 44
58 66
45 81
34 86
70 91
37 44
37 94
88 90
34 42
17 34
60 77
13 92
29 66
42 58
12 55
15 26
19 95
92 94
55 74
16 72
36 55
22 69
71 74
74 84
0 33
72 78
72 97
36 79
28 60
32 39
22 46
33 38
16 26
4 53
52 79
15 69
13 85
37 40
40 77
3 67
4 83
15 99
76 83
42 79
5 89
40 83
11 25
5 99
27 62
21 64
19 48
48 98
23 78
29 58
40 46
36 92
10 43
7 33
5 49
4 90
1 72
49 86
50 92
41 85
30 90
56 93
0 25
21 73
2 3
33 71
3 26
69 98
24 91
21 29
2 87
31 45
33 42
72 91
41 58
38 43
3 87
72 95
12 16
10 96
2 26
7 99
70 71
18 89
57 82
70 89
9 94
54 60
31 42
3 70
10 39
50 78
16 59
53 74
33 54
48 49
12 15
6 79
24 58
34 99
0 35
20 46
62 77
60 69
0 89
22 44
40 41
30 60
1 83
15 71
26 77
10 18
67 95
30 81
22 82
20 70
80 87
5 97
12 28
32 90
33 76
3 47
29 30
47 63
69 77
27 40
49 63
17 18
42 52
6 86
17 78
64 66
20 77
7 13
46 95
12 27
68 72
1 26
15 62
13 26
14 33
8 81
45 84
11 71
3 34
24 93
28 42
31 47
11 51
55 83
38 41
52 99
0 18
69 79
66 67
2 24
18 87
84 88
32 78
3 43
25 90
21 36
37 90
9 38
54 84
10 37
37 43
16 61
4 80
64 80
51 80
43 79
18 63
6 90
16 76
22 89
23 87
4 43
48 69
61 93
44 98
33 58
23 43
38 65
2 65
17 31
26 75
38 91
20 90
37 98
2 4
26 57
5 9
45 89
62 72
33 51
25 78
1 29
79 90
54 88
51 70
7 59
31 78
42 50
15 18
13 62
42 92
93 94
44 90
68 80
57 77
35 93
3 36
25 87
4 39
37 95
15 87
33 46
38 85
36 45
31 55
74 93
38 47
12 54
0 20
51 82
17 95
19 66
43 65
44 81
52 58
27 56
32 38
5 47
11 84
2 68
7 41
13 86
8 21
48 53
31 96
62 76
2 11
33 79
46 59
57 65
30 32
8 54
79 95
1 73
9 25
5 67
65 75
11 31
0 24
14 56
53 99
68 77
1 90
8 72
56 66
59 86
69 99
14 68
11 66
34 54
15 72
13 72
24 64
6 74
53 66
7 74
32 85
10 87
46 70
32 33
36 47
34 43
49 65
11 55
26 69
16 58
13 53
69 75
16 73
67 87
21 92
14 44
20 45
8 9
25 94
4 40
0 88
16 27
52 72
48 88
65 90
45 49
32 99
4 9
28 30
14 89
38 99
21 41
19 25
67 78
62 89
74 99
81 96
9 53
23 29
53 93
4 91
51 69
41 48
28 65
40 91
3 81
10 28
16 71
46 94
0 48
24 45
18 95
