250 3015
80 125
118 142
48 86
69 149
57 163
152 212
153 202
191 232
178 194
179 180
17 64
54 207
198 240
59 240
150 169
84 232
85 230
31 126
15 143
91 118
82 223
39 238
98 203
68 241
72 244
57 59
113 182
22 157
25 162
192 200
33 34
16 38
2 73
149 193
27 115
119 162
102 222
11 160
160 171
112 121
38 140
172 177
5 93
82 170
67 89
105 174
113 222
39 231
167 199
62 145
69 246
144 211
144 188
115 191
80 107
23 197
7 15
48 68
157 186
72 74
94 145
131 169
151 186
73 117
10 128
169 207
16 172
198 243
158 246
55 197
130 188
42 74
5 70
64 243
83 132
105 151
0 5
60 103
207 240
64 98
63 234
211 245
0 180
146 175
20 191
169 214
25 172
26 34
45 209
85 88
150 195
216 233
99 226
172 212
12 32
13 174
51 71
199 248
223 246
145 211
61 162
13 63
20 215
59 116
93 232
43 222
8 76
51 174
72 233
76 158
97 237
25 181
99 154
120 245
68 125
128 186
109 197
57 191
148 181
131 151
153 166
7 146
126 197
0 100
36 213
19 119
20 111
131 207
79 209
136 185
83 146
66 166
13 56
107 165
162 200
0 19
55 72
40 106
3 126
23 99
181 248
161 226
58 79
39 99
12 71
135 241
69 114
215 247
71 217
56 153
148 188
131 156
97 105
243 246
94 162
7 139
119 134
13 160
199 238
224 232
37 42
132 165
43 191
65 206
139 221
162 195
91 171
236 237
3 103
209 228
120 148
140 180
89 113
70 189
18 79
116 192
44 101
72 102
53 140
129 225
120 193
175 212
106 240
172 182
52 84
54 165
184 196
223 237
25 110
227 230
65 199
138 192
139 210
68 180
31 64
111 173
39 128
206 222
113 126
45 164
67 203
33 111
70 180
74 187
166 214
116 207
99 177
123 224
106 176
53 149
149 247
136 223
84 170
29 140
30 42
160 197
15 73
69 136
54 188
81 114
65 216
157 216
68 179
34 144
89 210
180 191
40 95
3 85
134 242
65 73
165 190
95 189
98 243
43 75
118 246
101 134
46 68
50 187
23 78
15 33
28 59
94 127
22 61
150 230
100 241
47 81
84 177
29 133
103 130
14 235
15 86
55 63
41 130
17 220
154 188
173 240
22 234
174 187
32 117
51 147
143 244
22 69
165 166
119 245
53 231
78 145
175 227
13 196
179 228
126 232
54 142
202 247
160 192
106 124
72 164
1 248
35 182
115 198
187 213
65 91
28 73
78 200
69 206
141 241
9 247
1 105
57 116
78 105
170 212
33 227
34 211
17 105
110 124
19 48
75 191
17 247
132 241
42 44
180 229
40 165
134 233
0 205
114 231
44 177
27 235
46 238
86 244
108 139
142 200
99 173
10 240
32 242
126 139
144 153
55 149
122 186
24 44
80 185
129 150
154 198
27 98
178 183
16 235
180 236
224 239
37 240
164 179
134 224
111 175
148 184
20 143
115 245
118 163
120 190
29 71
53 65
17 72
98 151
81 181
119 192
191 247
104 167
52 143
126 178
53 242
54 224
19 62
160 177
7 218
10 74
14 199
16 226
15 170
181 227
117 235
38 249
39 197
60 78
133 219
134 219
65 189
85 178
159 174
72 217
0 219
3 182
169 237
47 234
32 145
3 199
95 158
151 152
9 161
48 49
11 135
121 249
41 86
24 58
83 226
108 170
37 226
134 210
46 144
138 145
86 236
0 210
1 196
2 202
20 157
39 83
169 240
121 194
34 132
73 167
167 239
81 167
121 179
29 202
88 111
34 247
71 158
201 203
55 224
59 229
132 213
163 217
9 102
10 124
102 133
106 200
87 126
108 161
134 213
98 196
32 48
158 223
71 113
0 169
111 229
115 171
95 199
49 233
16 41
129 177
77 219
22 115
151 174
154 171
46 117
12 61
197 227
136 151
154 218
156 202
157 244
87 119
127 140
22 133
25 47
135 214
163 186
13 107
87 228
18 118
1 214
193 228
49 226
78 211
34 150
81 145
171 230
47 135
89 138
47 118
12 52
124 222
54 204
225 239
82 176
135 190
155 209
49 57
12 139
1 190
111 122
3 5
41 218
44 244
134 199
90 152
46 165
66 242
159 197
145 225
137 249
75 96
38 116
4 44
69 113
63 116
32 189
218 239
200 243
146 191
81 138
99 247
172 231
10 134
11 163
103 114
15 102
74 124
135 183
139 176
59 167
113 221
21 188
154 156
207 234
140 145
216 226
74 157
2 174
21 45
80 108
11 75
12 91
1 81
177 237
160 163
201 247
125 218
175 206
54 222
78 208
61 168
203 215
89 236
90 226
111 136
59 126
67 238
51 168
159 203
72 227
57 237
57 68
166 171
4 18
117 226
190 232
121 231
128 233
215 224
53 176
75 239
94 153
171 189
78 168
6 197
8 164
119 179
33 172
52 120
108 109
37 39
20 97
78 219
183 196
67 70
30 94
17 187
60 127
44 225
210 249
1 50
147 207
5 149
23 218
26 42
7 124
51 222
34 186
72 121
2 83
77 248
78 179
156 182
11 214
161 209
31 204
197 212
17 35
208 248
73 104
65 244
138 223
13 55
17 188
181 219
19 36
40 107
115 228
49 182
109 148
44 207
169 199
123 213
33 205
72 96
36 78
93 107
31 196
149 228
5 47
119 129
29 185
30 57
188 215
24 114
6 70
155 178
66 190
232 245
88 207
161 175
144 161
182 210
55 64
212 221
159 166
146 153
74 177
43 92
99 139
10 210
68 108
34 204
48 76
22 32
61 91
102 242
202 222
36 196
38 160
77 123
57 130
61 204
63 184
139 213
140 221
31 67
182 238
112 236
39 131
4 103
31 85
64 79
65 119
28 125
29 105
1 5
150 203
8 241
9 197
101 156
12 118
158 187
36 124
94 117
98 104
111 150
102 245
17 22
58 176
60 172
163 200
49 72
89 209
74 80
126 142
116 160
64 70
49 217
70 172
44 84
7 96
191 210
194 210
126 151
218 220
44 189
225 244
83 192
102 236
13 202
24 71
208 228
62 212
85 157
86 206
72 190
40 71
43 50
120 170
47 209
93 222
58 96
166 193
7 89
46 76
12 100
33 233
200 209
56 182
27 58
110 191
104 194
87 92
179 231
24 78
134 247
109 224
114 237
97 163
45 142
29 116
87 162
114 124
95 162
88 214
153 226
16 102
15 54
77 142
84 192
29 150
178 189
21 140
23 39
81 100
62 198
139 241
159 242
108 205
165 199
114 228
187 237
8 30
190 209
46 239
67 166
50 210
51 224
1 97
76 168
4 234
134 157
121 159
48 137
78 224
81 204
10 64
66 101
0 86
36 231
38 199
3 35
176 223
133 209
109 115
66 148
68 144
14 108
90 165
15 221
91 132
74 116
147 150
113 151
96 201
4 66
26 243
47 236
49 197
89 94
74 199
166 234
22 111
98 148
44 56
107 218
16 84
71 171
54 225
112 131
170 193
67 118
175 249
179 205
246 249
44 93
127 131
66 239
49 109
50 117
119 230
60 62
71 243
190 195
46 249
47 245
143 203
128 203
4 216
75 244
9 19
30 230
88 105
16 75
85 201
30 113
181 213
9 51
139 228
68 134
90 183
74 102
75 124
40 42
95 113
187 240
25 205
99 114
27 241
120 205
121 193
213 230
69 161
36 62
146 225
97 162
95 134
30 233
34 244
54 243
19 79
20 71
77 178
165 248
64 233
137 208
35 79
127 217
3 22
24 177
47 217
66 225
68 141
0 170
93 131
38 123
44 150
28 165
16 42
72 87
53 91
128 217
28 160
77 218
95 143
99 200
29 194
12 62
76 106
41 71
60 229
64 224
7 192
10 100
67 109
31 115
18 228
20 61
42 238
23 64
63 249
48 249
208 222
21 26
22 152
5 176
190 244
127 185
104 117
157 188
51 197
150 167
73 80
2 76
29 219
31 235
125 199
81 156
36 179
133 173
170 243
137 170
49 56
89 225
114 171
49 137
158 206
91 249
166 190
115 184
25 160
44 132
33 132
47 137
150 192
32 190
128 215
2 71
5 202
27 117
168 198
156 171
52 107
81 202
225 231
66 91
85 237
103 194
92 113
39 225
42 208
65 145
174 248
71 95
57 66
21 44
22 170
25 169
63 124
123 193
1 80
76 249
59 147
150 206
9 48
102 215
104 242
106 154
19 107
58 146
42 72
5 68
226 230
63 135
137 212
35 107
92 182
21 196
60 97
23 111
207 242
211 247
84 111
33 65
71 84
67 83
38 103
169 212
9 168
63 101
121 230
105 124
186 247
70 217
94 158
172 214
163 211
11 208
106 133
124 228
15 119
113 125
191 249
132 177
150 176
137 221
138 213
107 113
86 168
211 229
40 101
21 205
42 194
44 226
121 126
67 214
73 227
94 246
5 148
44 113
7 127
111 195
33 203
55 164
75 231
76 239
4 169
5 37
171 197
27 88
84 159
160 178
124 227
35 136
18 176
113 118
132 184
25 98
126 161
66 164
67 78
12 168
107 167
90 245
4 114
206 210
120 143
48 156
91 216
32 107
51 185
70 184
1 10
21 71
206 218
143 210
124 139
53 129
219 242
95 209
104 231
199 232
69 109
75 217
82 140
88 208
107 156
15 234
23 122
210 232
47 197
51 190
0 155
115 157
48 98
232 234
124 130
52 167
119 197
73 126
22 33
95 241
101 227
174 220
103 142
31 189
196 201
17 28
115 200
112 158
58 182
60 150
61 203
139 212
140 222
89 207
90 199
17 204
38 48
21 216
4 96
42 191
242 247
26 149
65 118
48 138
89 120
163 171
167 222
5 143
10 218
23 134
70 197
19 31
57 208
224 245
22 56
5 16
81 231
154 224
10 173
84 180
174 231
80 187
18 157
54 178
160 206
23 27
29 123
135 136
10 60
50 87
72 184
180 185
109 237
112 228
114 248
194 233
8 106
67 178
192 231
3 135
54 107
110 116
58 102
96 157
8 249
9 205
191 221
212 234
16 105
15 35
53 156
55 136
77 155
147 240
61 108
62 74
154 235
137 145
76 186
31 163
126 231
12 135
36 203
58 184
133 229
137 226
49 64
140 204
108 216
91 176
40 72
39 176
8 17
62 164
28 76
56 200
21 91
149 150
8 224
10 204
104 180
195 201
35 220
57 226
59 194
61 101
62 77
100 221
174 241
18 143
19 154
26 170
79 188
140 203
87 204
35 58
111 186
4 93
29 115
33 112
58 104
22 82
78 111
99 166
10 247
46 84
55 158
57 235
58 219
59 219
24 39
6 139
119 125
9 64
175 234
106 210
125 238
137 155
36 249
186 202
101 104
87 197
142 236
20 130
4 68
24 197
82 189
47 230
110 111
2 110
3 219
6 243
172 246
75 183
123 142
56 69
59 208
24 46
78 225
157 238
181 212
125 154
18 129
112 177
59 65
6 29
46 132
49 107
68 145
110 161
93 183
20 137
23 172
26 240
27 226
48 173
67 174
50 202
153 243
60 95
83 110
191 241
52 137
35 243
42 99
154 207
78 162
175 248
65 140
79 80
113 192
61 225
14 116
109 202
32 51
93 176
183 249
96 193
4 74
69 189
190 192
128 204
2 96
121 168
104 144
35 248
71 163
36 135
19 73
60 208
141 205
120 177
125 172
103 133
1 169
184 247
21 166
134 208
45 96
90 180
91 149
74 103
17 23
42 140
26 194
193 232
29 87
49 246
142 163
2 123
100 220
88 113
52 159
17 75
54 240
154 209
158 178
160 194
17 228
111 118
135 219
228 231
88 143
159 209
18 125
20 166
115 173
80 121
99 122
9 179
120 213
122 185
34 157
70 242
53 90
140 219
72 126
148 149
131 183
95 137
171 227
12 63
31 237
51 108
3 14
71 145
5 104
125 190
15 131
126 129
59 109
43 247
62 234
45 82
105 242
87 219
141 180
70 90
0 162
110 189
113 178
115 178
44 142
45 227
11 95
49 224
213 247
214 239
210 241
1 193
54 83
129 136
174 214
33 159
16 177
103 148
221 232
156 195
67 85
30 107
88 238
102 158
207 239
48 241
84 90
32 64
141 173
90 129
3 148
26 223
63 118
47 136
123 203
69 155
215 236
74 227
117 143
84 131
12 45
31 211
17 62
56 111
5 90
66 88
12 188
88 245
180 208
39 224
41 193
42 209
43 229
52 62
63 238
85 93
90 136
71 94
1 38
147 198
183 218
169 210
5 161
190 231
33 56
71 239
36 83
153 217
117 136
9 55
165 203
52 115
35 157
19 106
35 213
58 147
222 248
5 67
105 148
158 174
14 179
127 165
55 119
60 98
62 159
42 201
211 246
32 94
14 34
70 79
74 130
2 167
183 211
21 52
158 197
99 150
50 155
54 249
16 23
219 231
2 86
95 226
84 145
12 35
160 188
33 162
54 215
19 115
222 227
42 48
78 217
6 74
183 199
17 185
42 195
43 211
84 119
32 85
51 179
159 178
72 236
71 76
113 150
80 92
42 55
192 208
193 198
8 204
12 75
32 196
55 167
57 188
76 232
95 235
104 119
106 141
113 117
222 234
135 156
83 151
49 91
12 169
88 202
17 178
127 171
3 99
115 127
114 191
70 185
73 235
109 146
147 214
148 200
118 224
121 247
105 109
70 200
128 180
57 197
148 191
191 201
4 145
62 86
154 159
104 232
65 180
52 72
15 68
130 132
60 152
79 219
136 163
15 245
18 59
102 219
187 202
25 27
134 152
45 168
145 196
91 221
92 197
2 176
169 206
44 96
9 194
51 116
121 248
68 110
73 125
75 148
62 89
9 83
102 240
16 139
181 186
58 183
0 228
112 238
3 81
120 158
28 127
29 103
1 27
93 202
76 134
5 142
25 141
9 203
10 219
16 115
198 247
97 120
61 82
9 84
101 235
84 181
89 166
36 205
40 179
121 235
158 189
139 204
31 74
161 191
108 226
163 194
110 138
111 183
26 157
64 88
65 78
28 118
143 232
58 103
22 65
117 205
10 194
53 155
2 53
59 204
62 75
7 243
10 85
84 188
29 130
125 142
0 67
120 216
185 201
71 189
138 241
88 166
161 176
111 188
97 168
8 18
46 227
51 148
70 165
92 210
126 162
96 149
4 230
78 101
25 159
12 102
35 223
71 190
55 128
78 148
62 114
104 196
199 207
40 161
77 100
79 191
136 147
140 196
86 199
15 201
165 220
42 169
45 140
125 181
67 175
87 188
107 173
94 221
3 213
115 120
26 30
123 136
50 168
69 92
2 7
77 140
78 159
27 53
119 124
105 195
89 185
125 128
221 223
137 194
112 187
81 90
45 116
157 212
13 75
113 156
23 150
44 172
122 245
28 67
67 168
32 134
69 180
1 103
2 111
93 239
17 191
98 155
9 231
28 242
85 229
123 129
17 103
100 111
103 170
167 175
16 238
35 90
36 225
40 175
221 249
2 247
188 238
63 84
111 134
36 159
142 214
145 146
153 186
129 163
166 232
138 163
27 146
46 103
109 188
123 134
201 222
202 212
130 194
5 124
6 122
89 139
72 238
185 229
13 125
72 220
113 142
24 212
116 141
7 46
120 200
67 150
105 168
1 113
44 49
203 230
48 52
237 242
90 206
126 184
53 248
19 72
2 16
42 107
156 219
62 110
154 215
105 182
16 43
107 214
18 240
19 185
185 238
41 228
73 174
85 184
97 205
23 189
45 240
29 86
67 159
213 228
73 164
94 185
59 137
150 183
7 180
28 223
47 109
178 204
16 68
56 91
20 65
42 82
172 220
64 235
9 107
66 76
88 225
180 196
38 238
3 24
59 87
42 229
61 242
63 242
84 85
50 101
91 237
74 111
48 83
54 89
22 118
10 147
47 106
16 187
54 200
221 238
41 69
225 235
61 154
66 71
91 240
15 130
114 174
45 81
32 74
88 151
90 135
0 163
111 239
80 113
188 242
122 182
29 40
212 248
142 178
36 46
129 143
149 196
98 182
171 219
10 154
84 133
104 134
33 158
58 142
61 147
65 237
12 134
86 133
14 166
17 221
8 91
85 133
13 97
143 184
74 145
93 147
97 208
218 245
45 219
104 126
51 204
34 172
70 237
53 171
74 224
75 242
154 184
123 187
31 210
40 234
60 245
45 50
84 243
110 221
114 160
117 151
48 233
84 98
70 85
119 183
18 103
33 63
186 191
53 180
146 195
238 240
149 214
5 49
8 160
27 76
101 205
102 213
100 158
15 104
130 184
77 84
80 141
156 210
139 170
105 155
162 178
48 180
84 105
67 211
51 173
90 144
39 105
98 208
64 152
47 153
130 158
129 146
81 249
99 230
185 197
10 183
12 220
31 192
33 161
146 203
199 244
113 115
130 179
6 75
63 142
105 156
88 196
18 198
1 134
111 146
39 145
4 117
43 210
26 134
190 242
70 71
58 64
21 60
171 182
130 227
34 185
72 124
71 220
56 150
2 46
94 135
119 168
9 32
84 153
103 154
160 180
117 163
35 138
18 174
132 186
43 186
155 190
12 170
14 130
90 243
108 246
111 155
60 113
8 119
200 222
50 59
51 187
153 178
92 207
93 247
76 145
168 178
8 198
27 162
230 248
36 73
94 142
9 41
84 160
175 203
124 244
197 218
36 216
76 119
83 159
103 224
163 215
21 221
198 219
25 26
26 136
190 202
122 132
230 237
140 176
141 201
90 109
168 196
0 157
142 249
22 180
116 204
12 122
179 242
22 39
5 21
82 242
172 189
119 155
29 143
12 201
13 213
33 180
198 211
127 203
54 185
38 167
77 120
61 201
104 108
138 204
91 164
113 247
8 101
65 116
28 120
29 102
33 99
109 131
1 26
152 154
23 226
191 214
98 103
172 180
109 248
18 155
208 224
65 220
144 146
109 235
40 67
209 220
90 127
143 235
57 110
44 87
68 93
33 213
34 221
5 7
62 72
9 92
15 82
77 106
139 196
50 76
88 167
91 178
8 49
62 170
120 173
29 120
145 174
94 219
8 41
165 183
9 244
10 202
11 159
52 190
35 222
71 185
129 200
58 222
169 204
73 181
64 137
119 217
60 189
25 69
134 234
106 120
108 209
0 202
93 163
3 71
44 182
47 183
49 200
195 214
70 157
73 143
92 170
76 172
3 212
115 123
60 93
176 213
69 91
182 199
2 4
58 217
153 161
61 124
160 238
185 218
208 213
61 237
82 105
45 115
66 152
32 40
72 175
35 37
110 156
111 205
97 185
23 145
47 224
73 176
13 185
4 213
98 152
28 243
18 124
68 74
34 230
35 204
60 220
151 247
157 236
12 228
35 93
89 125
36 226
19 170
60 179
134 228
129 171
49 105
32 47
158 238
70 124
109 207
110 167
38 85
97 178
25 192
190 223
32 158
51 234
96 243
74 194
21 116
81 169
99 214
52 139
35 245
58 235
35 94
60 219
78 238
133 182
136 230
137 179
14 203
52 58
18 246
217 228
23 54
227 237
62 247
48 215
88 131
87 213
109 200
38 76
96 195
22 138
116 142
26 249
74 218
49 243
52 211
16 63
142 222
146 229
75 201
166 224
123 158
36 129
64 176
2 17
204 238
171 224
155 206
16 221
131 155
206 224
66 229
13 117
123 171
164 231
109 142
190 201
69 174
54 71
41 50
153 195
27 99
176 241
30 236
38 156
41 67
42 83
67 105
125 163
0 62
96 98
132 221
65 131
48 197
49 156
68 136
91 236
75 118
115 175
80 123
48 84
67 135
32 163
16 45
53 88
83 243
1 66
147 230
6 221
104 128
31 239
51 110
55 245
130 172
80 153
77 223
86 131
127 136
77 97
39 236
25 51
46 166
143 178
74 151
79 184
191 209
22 159
80 114
44 136
33 44
16 36
36 47
189 244
59 134
4 176
98 183
102 107
154 190
84 134
10 226
54 192
40 228
59 247
158 226
175 221
104 174
102 171
67 87
30 105
16 194
55 99
40 115
114 166
44 240
65 157
27 77
92 228
98 223
101 163
27 217
193 241
59 159
5 55
6 207
135 181
31 221
196 233
16 170
201 226
231 248
15 105
133 147
27 232
10 21
102 162
68 212
181 204
111 143
21 184
41 199
209 243
48 234
33 77
14 89
100 223
168 222
22 169
190 229
47 147
68 116
76 244
210 217
52 125
0 107
55 192
60 141
79 206
102 165
139 173
162 179
114 121
110 229
62 157
65 111
84 106
85 100
89 97
81 189
0 137
58 70
105 135
44 117
100 106
48 112
29 50
68 115
69 139
53 188
188 199
2 84
148 171
61 76
102 205
103 156
126 199
38 179
5 74
65 247
83 144
67 74
103 237
15 225
0 17
164 186
20 220
24 151
104 132
66 219
230 240
3 88
1 54
39 97
25 184
27 83
69 116
34 182
57 194
76 234
95 213
6 176
10 191
31 200
201 244
181 182
58 163
132 187
43 189
79 220
122 151
135 158
196 204
7 226
119 121
110 247
97 130
26 142
142 231
109 144
166 217
4 12
10 215
194 197
73 122
81 234
100 239
16 150
155 245
43 178
247 249
88 211
107 145
15 247
0 239
182 214
46 204
43 150
70 182
53 102
0 158
93 207
58 83
4 11
110 179
11 107
30 149
70 193
56 165
77 230
29 142
160 195
126 248
19 136
20 122
58 181
42 43
23 31
118 231
101 113
18 48
164 215
22 221
75 132
45 159
28 121
51 136
23 116
91 212
126 166
96 153
167 219
170 205
7 103
46 70
33 211
35 211
73 100
77 159
95 192
99 112
118 170
10 168
161 204
55 61
41 156
60 168
25 122
133 249
192 203
138 244
88 161
163 196
39 180
169 234
116 172
45 152
29 126
109 138
96 99
116 231
110 123
240 246
94 209
22 71
34 218
17 114
37 127
57 222
115 159
11 246
175 225
186 199
114 159
134 240
182 187
40 75
114 238
115 196
187 211
26 226
177 189
53 113
56 203
1 107
147 244
8 227
119 240
9 228
104 183
55 130
41 125
81 214
106 214
0 92
38 201
77 98
25 68
187 188
35 63
0 203
110 154
97 102
44 183
9 147
65 94
50 215
205 234
19 63
58 119
96 174
4 239
99 171
119 201
32 240
124 161
35 198
129 192
189 203
150 245
195 240
66 102
47 56
107 229
0 83
36 228
21 136
41 247
145 202
134 226
135 240
46 128
49 119
50 127
141 148
3 79
9 148
181 185
11 63
50 206
36 199
53 67
1 101
21 106
5 224
73 133
117 166
50 161
19 60
24 49
62 98
12 229
87 110
34 86
133 241
60 76
133 221
122 228
66 144
158 239
90 161
162 242
68 120
96 205
118 164
50 201
122 196
182 247
128 200
2 100
4 205
151 158
83 115
121 164
177 202
13 153
17 94
56 79
132 147
109 242
239 241
31 128
15 177
91 96
20 44
59 91
25 95
72 222
1 198
111 210
95 116
192 226
164 229
16 48
56 231
74 202
4 196
153 249
7 185
10 239
29 204
36 130
160 179
156 158
155 193
156 241
12 155
181 247
92 105
37 237
38 245
39 249
25 32
133 207
46 149
138 154
140 234
71 119
74 98
183 243
97 195
187 244
44 155
7 33
193 237
69 173
9 24
34 240
35 226
203 222
130 210
6 106
10 121
170 204
85 222
17 217
0 63
185 245
3 26
60 89
160 236
168 234
4 59
170 242
189 225
63 77
11 91
51 192
72 91
218 230
131 184
171 240
152 211
40 61
101 208
106 173
53 200
36 176
202 207
20 74
156 199
105 166
158 184
39 239
162 224
207 227
7 158
1 41
93 152
80 115
99 100
7 23
63 74
28 184
49 229
52 249
1 90
95 240
78 88
147 196
11 161
12 49
104 220
125 195
35 144
74 107
130 164
42 66
132 237
7 61
157 200
120 181
14 87
109 171
147 191
183 222
166 178
189 243
33 36
72 73
53 169
57 174
95 249
78 163
171 210
27 73
200 237
37 48
20 88
77 89
150 186
79 192
12 191
35 102
18 210
24 138
138 190
33 76
0 179
2 171
20 190
22 174
23 195
171 186
29 56
30 190
144 246
110 230
129 159
59 151
150 194
117 149
172 219
173 227
146 147
40 211
221 247
41 190
138 144
66 174
14 182
144 177
108 130
127 166
21 192
41 207
23 107
66 193
72 232
148 197
21 49
136 212
118 149
192 220
48 113
70 221
55 171
59 172
117 158
11 212
34 47
83 147
103 236
127 175
3 127
43 212
183 208
67 218
50 62
96 245
27 175
45 196
11 124
34 183
70 212
56 152
205 247
81 240
132 160
18 133
156 179
29 187
30 59
13 161
199 239
19 125
58 160
222 233
223 229
103 229
31 88
37 188
21 210
169 185
24 159
43 205
209 229
230 232
215 227
141 206
142 228
115 152
5 153
27 164
28 155
175 193
30 147
70 207
219 246
37 67
242 246
153 177
101 230
84 162
29 180
19 130
130 131
132 163
208 244
227 231
89 202
144 166
109 247
164 169
111 162
8 96
210 228
68 218
16 64
18 73
93 206
166 209
95 181
11 106
98 126
124 158
34 201
73 98
78 134
81 226
29 141
40 207
77 118
223 235
43 170
61 199
228 230
150 191
88 219
81 85
17 161
0 231
164 208
113 245
62 190
28 122
186 248
91 215
147 223
8 246
10 198
11 99
30 157
53 159
55 143
130 226
167 171
7 247
30 44
14 234
52 89
40 182
26 58
63 172
83 175
49 67
13 93
96 165
164 223
111 176
90 125
96 145
12 106
68 95
19 40
157 225
94 97
131 249
98 124
10 80
18 144
186 196
62 217
45 127
81 147
88 169
14 156
35 57
111 185
115 199
42 173
25 243
48 188
70 152
2 152
96 168
99 165
118 195
50 172
52 184
35 192
41 124
24 36
98 119
60 221
100 140
183 242
161 221
0 93
41 141
43 145
61 210
62 192
65 172
137 239
66 159
85 161
13 79
162 225
75 87
116 179
9 146
45 137
148 192
87 185
73 141
39 58
95 169
79 99
7 77
28 246
131 231
151 248
27 54
118 232
13 247
161 214
52 54
54 155
20 31
25 76
62 203
138 187
108 202
126 222
129 178
29 72
5 239
27 158
46 99
12 23
96 115
36 157
55 147
81 199
64 153
102 138
239 246
87 105
181 228
126 157
59 69
205 222
22 23
28 38
80 234
140 245
13 65
109 205
93 179
39 91
115 218
187 249
188 233
120 196
29 65
32 144
51 236
73 191
74 192
76 220
8 153
176 197
210 224
17 93
81 215
202 211
75 163
24 57
62 115
122 142
12 157
0 34
198 227
57 67
43 132
45 99
48 201
125 149
159 239
39 119
0 209
1 197
38 66
24 215
44 157
193 235
154 221
69 163
152 167
129 185
167 236
189 211
154 163
196 247
34 246
55 225
42 86
155 192
160 245
89 145
116 202
19 186
48 192
157 208
43 159
103 233
113 132
42 136
78 124
50 248
75 192
7 177
124 198
101 165
36 138
19 82
100 175
83 241
87 116
22 204
207 229
62 231
137 230
