500 12407
105 333
333 431
18 428
91 238
132 420
80 125
284 367
266 302
30 287
76 201
114 404
143 183
189 422
314 422
66 467
29 221
411 455
15 30
167 371
27 420
29 334
287 312
161 318
180 206
293 297
80 298
388 499
320 473
123 396
86 240
344 463
198 478
127 460
146 189
75 97
113 182
296 338
4 35
5 374
246 458
193 254
322 410
75 254
94 174
131 160
95 243
26 406
133 466
136 330
152 383
292 373
41 179
4 321
406 469
248 393
264 494
231 320
145 413
59 435
331 438
342 364
151 387
335 422
193 393
140 144
233 494
177 483
364 471
25 368
98 262
226 307
121 223
49 330
366 407
69 135
73 92
1 495
2 64
330 373
277 330
297 343
245 326
139 345
233 390
16 172
126 219
328 366
182 345
3 438
116 469
82 165
373 418
211 443
196 429
21 198
59 127
244 433
262 304
229 291
121 426
405 414
12 271
45 299
96 248
202 380
82 455
120 238
48 123
232 488
68 118
31 386
209 379
312 448
43 304
82 342
348 437
77 81
190 432
357 417
105 152
342 351
90 236
110 235
325 407
385 470
190 259
66 277
104 204
11 444
33 68
18 400
277 433
111 263
223 473
260 341
9 211
63 96
101 405
317 368
87 382
218 251
8 277
6 256
446 459
240 494
20 420
313 406
223 255
80 135
172 270
317 358
427 490
375 464
17 362
373 443
32 105
385 435
108 444
109 149
60 447
98 230
80 421
304 384
160 269
329 394
203 417
95 215
23 410
26 490
227 295
193 331
50 468
51 85
37 42
79 354
4 293
35 457
17 182
40 81
22 193
387 452
83 469
84 122
415 498
73 239
93 244
226 471
245 425
10 320
70 204
1 459
129 318
40 399
22 35
232 432
211 486
230 390
12 205
144 477
3 402
150 327
384 455
68 180
196 385
155 466
178 294
70 494
1 149
239 301
77 386
95 98
408 498
101 268
157 490
49 161
414 491
343 451
0 299
36 441
96 132
7 104
67 261
106 293
96 371
205 431
43 284
261 493
281 423
101 238
263 275
329 459
214 455
234 385
0 73
21 301
24 127
261 382
392 483
48 325
30 437
214 310
0 248
20 235
42 367
149 457
47 170
270 375
171 306
256 257
76 130
294 329
5 138
191 211
32 312
158 424
15 33
39 415
260 472
8 305
228 340
283 490
161 373
132 146
133 231
118 303
427 470
113 474
269 487
184 321
8 111
249 413
56 379
19 369
23 329
5 334
264 328
160 297
288 350
184 415
402 426
266 287
246 480
154 315
47 52
69 428
362 422
127 250
255 433
2 375
331 481
4 281
355 487
28 391
7 217
13 85
194 401
164 199
166 410
26 224
391 472
141 241
415 470
254 330
182 487
37 288
241 279
64 450
282 441
194 445
178 374
16 101
182 406
220 221
40 363
25 473
7 281
192 422
73 485
336 444
58 275
186 204
22 446
150 355
79 187
7 430
101 479
338 464
234 458
73 374
382 456
115 207
244 489
120 183
174 468
58 117
96 160
6 253
101 177
176 200
68 78
224 498
45 426
157 272
357 485
124 357
406 410
185 223
204 269
201 387
180 290
24 202
78 445
6 430
134 371
176 389
53 65
185 441
437 445
351 364
280 483
134 258
303 393
216 481
185 298
313 349
299 350
86 122
269 442
87 407
5 384
173 422
134 375
225 400
375 408
32 34
216 319
108 373
237 407
184 349
368 458
80 478
227 385
28 86
467 494
184 460
203 408
166 236
259 410
99 219
2 424
466 482
227 383
50 412
273 431
292 417
117 404
193 428
73 214
74 121
112 316
163 478
376 385
49 301
378 429
163 293
151 330
64 302
376 496
304 381
168 284
25 437
154 211
68 381
125 380
1 172
59 82
150 271
211 271
174 385
12 356
286 351
34 300
162 345
181 427
1 221
205 277
45 236
229 415
11 36
339 435
358 381
213 306
91 338
261 404
172 241
120 322
30 211
124 282
31 318
192 339
147 469
235 304
96 315
22 477
9 468
48 446
5 123
0 49
54 356
57 448
20 60
223 377
134 204
332 478
15 379
199 494
6 394
272 283
29 43
33 40
52 252
146 265
185 469
156 338
284 415
323 419
87 458
90 474
53 214
327 475
75 258
76 89
407 451
308 428
87 443
19 203
94 397
310 472
114 375
216 377
5 484
27 361
440 487
249 484
86 241
14 82
271 417
75 96
4 44
189 248
118 134
249 341
212 335
358 467
237 268
117 342
482 491
136 331
368 404
231 498
198 249
2 396
168 390
65 340
163 453
273 359
130 488
331 425
95 400
151 386
335 417
16 399
163 368
2 174
22 149
206 438
26 216
64 411
141 313
455 476
116 423
282 497
49 474
103 107
468 484
35 155
328 367
129 322
28 117
367 434
147 407
135 172
192 494
125 256
417 463
1 136
12 292
3 454
341 490
48 237
46 360
103 329
45 246
91 257
272 485
92 254
150 410
48 124
157 438
255 340
106 462
215 224
419 487
148 175
244 288
6 197
67 441
229 230
290 392
474 477
115 421
318 330
152 159
357 416
219 387
57 476
20 208
149 436
134 168
48 297
195 426
87 136
345 473
76 159
39 101
259 414
81 311
135 444
210 316
146 404
5 38
446 456
104 255
161 360
165 416
113 119
114 264
42 61
8 485
155 374
375 467
399 469
363 491
218 282
293 460
42 204
8 116
412 462
80 422
8 195
227 473
423 499
89 408
198 330
255 271
365 443
268 365
117 298
264 316
302 340
17 36
164 349
37 41
38 370
344 441
350 416
98 457
83 359
359 434
107 157
213 375
202 249
98 440
226 357
173 298
46 200
140 181
35 345
210 473
40 481
97 240
121 250
176 329
69 122
70 205
1 436
2 37
292 384
371 382
192 347
102 242
12 206
35 183
36 196
225 261
282 324
46 277
49 87
417 491
381 482
129 479
21 217
24 307
477 487
49 160
103 365
343 450
180 366
36 442
205 477
281 309
157 410
31 353
21 443
24 465
81 224
281 422
101 237
362 460
214 452
271 462
253 418
0 74
57 399
76 477
283 290
63 161
236 293
357 452
124 433
316 464
24 239
243 485
100 442
197 488
237 255
437 461
63 391
194 210
54 281
403 450
407 410
155 189
312 383
32 424
216 437
89 169
327 419
165 324
51 357
437 496
17 341
380 495
56 397
165 213
113 236
131 477
194 359
269 375
237 323
184 305
166 193
170 268
28 226
123 292
47 298
127 276
329 421
93 388
203 332
95 202
207 396
178 391
27 58
134 314
28 273
236 396
93 309
350 412
248 450
65 284
78 473
145 356
37 350
130 464
230 321
178 484
202 494
408 417
316 378
452 475
50 170
70 297
168 289
25 472
7 280
139 352
68 282
325 373
148 402
135 244
373 409
358 455
31 39
72 172
144 329
354 395
291 394
392 494
21 253
295 498
187 237
10 366
11 59
177 279
396 417
1 97
220 403
183 281
18 345
311 422
360 374
103 486
68 311
115 492
172 355
292 326
100 376
258 414
204 270
115 413
100 463
321 494
263 391
52 362
345 480
72 360
290 291
76 336
81 494
156 472
57 133
111 318
39 45
9 234
63 443
66 461
33 252
56 75
20 494
313 348
8 302
27 474
265 449
29 360
218 291
240 311
458 498
131 424
42 245
8 445
65 188
51 321
363 435
90 281
308 336
259 268
170 337
479 489
212 308
86 325
14 486
463 496
166 237
95 153
98 175
298 445
47 90
14 401
17 83
2 425
334 476
61 138
409 473
219 245
16 277
108 171
127 153
457 485
61 251
126 451
254 276
358 486
311 375
135 226
396 471
35 273
328 485
92 326
59 375
187 442
61 477
49 445
68 495
107 387
144 407
36 141
412 461
206 373
154 208
10 356
16 209
235 487
59 85
22 347
44 263
48 194
339 453
286 348
34 301
45 235
226 343
174 497
96 246
125 495
92 138
438 442
96 333
426 433
81 159
101 212
138 430
31 313
125 206
91 450
238 279
372 473
135 271
285 446
214 268
125 191
222 401
111 124
39 243
290 428
314 478
137 383
321 458
20 172
260 371
134 348
318 393
156 316
214 238
345 365
257 325
54 391
57 161
39 465
259 396
81 347
299 300
252 260
167 365
155 365
191 379
104 275
202 208
179 355
242 385
482 496
356 393
322 361
431 441
143 373
165 237
4 45
86 353
108 489
365 470
131 162
283 457
62 462
374 428
47 126
86 464
198 254
326 451
331 475
95 258
406 491
64 254
155 169
84 241
140 259
203 283
135 301
263 376
23 86
61 287
335 416
46 173
250 328
145 300
292 361
277 470
25 374
316 435
279 313
102 324
267 273
35 269
36 82
3 299
187 454
60 157
233 388
325 444
330 450
83 134
174 307
21 196
150 296
7 497
101 278
0 53
49 187
358 399
159 202
346 463
183 208
292 467
25 178
281 344
111 121
105 124
159 347
72 115
419 486
186 487
205 393
81 251
300 419
214 441
31 285
159 488
253 413
57 370
352 497
58 157
21 279
230 258
208 258
256 442
30 95
124 430
162 207
181 209
54 321
20 209
39 151
43 208
156 401
381 488
67 214
57 76
20 320
158 434
165 478
57 189
9 34
29 191
200 338
15 124
109 113
354 376
299 445
228 257
379 380
29 336
303 305
51 264
14 188
15 237
143 472
180 483
293 459
242 421
328 428
8 117
27 307
32 107
179 492
218 394
271 388
94 249
169 198
13 477
245 462
249 368
302 490
299 369
274 379
38 480
151 195
64 171
140 336
266 299
217 323
93 464
402 471
169 480
98 454
117 474
83 358
264 396
69 327
126 392
273 322
40 83
3 105
23 122
248 278
304 472
411 476
231 247
287 289
70 179
236 335
202 459
59 334
280 414
245 439
463 480
68 400
1 457
35 295
191 200
150 234
337 433
284 446
401 411
141 429
73 463
182 315
168 469
97 465
7 324
358 472
417 490
239 303
21 216
205 331
187 192
150 308
44 207
390 487
68 197
106 400
234 237
162 414
58 95
43 385
150 423
210 370
319 340
157 409
228 422
235 313
81 231
45 324
52 480
21 299
115 384
43 175
137 294
48 327
245 261
342 377
180 332
91 187
312 316
314 406
81 385
342 488
327 380
369 398
223 319
362 453
152 340
123 251
87 284
90 480
228 360
407 422
223 332
62 74
63 279
143 399
240 268
76 98
8 386
137 226
109 230
271 363
19 258
94 330
222 287
259 275
42 161
298 311
143 449
17 485
237 322
131 365
5 332
133 391
84 331
215 423
140 485
322 448
251 490
127 279
365 414
402 424
4 372
98 123
61 101
65 354
249 253
170 417
186 229
71 332
2 373
197 428
340 403
287 372
296 429
236 284
310 340
202 412
221 400
153 458
46 229
212 213
254 328
123 387
187 401
79 103
301 489
88 458
35 197
182 404
220 223
3 355
116 408
408 465
103 178
393 425
35 82
168 433
150 353
334 450
7 424
101 477
12 322
361 416
34 262
205 367
22 303
116 190
244 491
232 410
346 391
92 167
419 465
329 336
78 118
208 339
79 475
300 468
176 202
12 416
305 426
397 428
257 271
404 458
81 195
48 404
125 154
0 87
39 206
404 441
190 334
428 455
438 470
158 232
15 353
253 310
219 458
256 368
24 204
119 301
353 464
15 406
261 423
453 494
20 376
39 44
8 320
369 371
158 394
87 288
398 437
185 296
99 366
27 477
100 189
191 326
29 359
179 262
18 248
293 306
41 297
309 361
210 298
143 272
38 78
332 367
189 210
136 450
123 338
131 218
274 304
166 226
60 353
278 424
136 337
186 250
402 405
17 82
71 163
2 422
28 374
217 443
145 438
292 419
98 398
248 479
391 425
47 443
88 136
144 234
145 327
188 227
64 433
173 369
122 398
212 233
324 384
406 494
439 466
187 445
371 392
46 112
68 488
88 422
234 490
210 445
126 192
110 238
40 329
44 369
102 187
12 151
92 101
315 462
336 352
73 272
201 299
186 265
367 402
283 372
44 151
159 358
148 149
149 188
78 82
81 158
244 382
82 369
232 286
196 249
110 355
312 406
20 79
186 435
6 110
190 411
169 282
10 101
266 459
204 307
96 428
389 399
137 382
156 398
30 499
15 325
290 324
256 348
20 173
132 423
63 73
156 317
29 41
176 419
30 258
33 46
180 427
56 249
219 327
347 394
185 475
39 464
280 449
228 415
32 354
137 433
295 480
332 429
351 467
133 172
63 303
191 378
89 224
252 372
250 368
84 429
375 382
368 488
95 111
8 41
10 389
122 203
231 415
341 427
17 429
164 468
131 165
133 479
65 441
283 494
366 476
140 429
433 445
14 370
127 303
112 124
321 330
84 242
89 348
130 486
226 351
13 490
83 314
354 433
163 370
294 354
376 454
116 306
26 38
49 335
107 465
364 448
40 406
22 26
26 73
46 396
106 155
197 224
235 309
272 313
1 285
239 421
130 187
337 485
153 223
55 119
239 266
386 448
79 381
120 130
121 431
234 246
36 384
205 311
208 485
315 347
390 395
30 162
159 346
343 425
189 494
129 147
77 253
43 309
450 465
31 284
385 442
43 322
137 265
48 348
351 484
90 235
0 31
54 326
57 482
384 389
114 213
190 262
137 410
344 361
138 165
154 214
30 495
143 148
290 360
20 321
170 210
247 448
194 204
225 253
33 202
252 442
18 286
366 438
422 452
262 410
63 498
156 176
18 177
94 476
20 423
35 73
42 59
306 348
118 454
29 303
213 434
51 267
14 189
15 236
237 460
167 481
388 466
265 361
237 349
38 406
23 294
118 224
84 304
150 266
326 413
358 468
93 446
274 376
94 137
259 468
23 407
319 344
355 383
28 271
231 272
69 437
469 491
127 195
40 197
226 240
154 341
338 470
429 449
69 326
107 159
164 174
37 184
130 458
61 290
337 372
173 296
155 493
197 418
235 243
356 442
173 185
139 489
50 132
16 124
36 119
93 98
455 475
25 450
337 432
49 452
12 200
178 288
16 139
70 338
36 198
58 378
3 407
334 487
121 474
80 471
70 493
382 467
295 456
206 221
120 158
11 17
125 424
106 401
91 367
43 384
232 407
101 154
129 255
218 345
67 407
30 41
33 283
54 179
275 322
208 239
48 376
274 299
9 355
247 311
67 181
90 126
219 286
204 458
329 387
124 145
223 335
189 491
62 75
446 490
303 359
89 175
143 398
240 269
458 476
267 341
27 353
63 359
188 450
219 220
143 319
113 226
4 87
86 319
108 419
274 461
251 493
307 431
292 313
350 499
245 250
117 268
241 479
93 307
130 319
224 462
95 325
248 452
250 286
141 157
307 333
311 365
352 354
95 490
61 326
175 450
197 390
45 403
40 479
316 372
236 403
139 277
12 29
175 435
325 482
92 275
129 287
457 458
3 354
405 442
279 465
87 120
174 249
172 326
144 316
217 444
480 484
60 161
272 400
201 270
116 191
44 172
49 194
395 474
215 309
0 266
129 170
183 283
21 108
149 167
171 307
135 404
319 331
54 236
55 349
183 392
6 131
11 283
416 425
125 153
345 407
110 311
57 425
442 452
333 492
119 447
210 492
52 372
91 134
340 446
407 484
132 460
24 205
243 451
318 403
66 344
270 342
180 317
294 360
260 296
99 256
9 232
66 459
323 456
110 186
19 67
79 115
403 480
133 183
100 431
66 122
222 361
39 269
133 216
84 394
356 407
145 250
184 352
316 423
27 250
47 247
194 329
51 240
41 458
95 155
298 443
448 452
47 100
268 343
288 381
2 423
316 348
95 296
112 367
61 136
136 289
355 439
197 344
17 226
273 376
457 491
130 259
3 19
95 441
207 275
83 289
140 232
278 462
130 434
59 280
363 366
169 328
23 189
376 388
74 247
277 306
226 410
282 408
304 368
146 361
384 440
3 350
334 428
16 211
186 239
258 304
45 88
174 388
72 202
58 421
451 489
370 467
82 479
101 321
234 290
282 463
1 67
438 440
21 384
78 83
79 446
109 403
10 147
106 376
309 389
58 135
96 318
118 398
293 348
372 475
300 328
205 357
157 241
30 97
158 186
416 437
324 326
168 261
114 174
149 413
78 365
119 387
195 435
109 361
147 180
369 452
152 286
100 124
179 310
104 119
33 45
180 436
53 162
256 460
185 474
42 437
171 219
449 477
378 493
124 217
199 265
75 263
80 159
99 397
155 367
63 302
89 231
282 382
39 305
80 302
118 362
86 244
14 81
108 340
18 108
44 290
131 279
60 407
8 42
246 462
84 285
213 255
326 438
164 469
19 426
94 146
166 271
302 319
368 449
71 134
164 292
93 458
389 440
338 499
264 402
28 347
88 246
144 184
142 471
112 204
3 15
60 100
207 310
338 386
84 98
411 498
13 410
22 168
50 225
69 131
16 17
364 449
319 466
420 499
168 364
176 354
206 292
44 455
211 462
12 37
31 219
92 475
239 420
83 136
34 476
144 260
73 418
3 459
302 419
101 276
138 366
72 230
181 396
25 176
341 391
103 475
34 190
166 217
110 397
259 329
380 426
79 402
447 478
285 495
72 452
309 409
257 374
149 320
341 418
148 247
130 215
219 388
241 332
43 210
134 175
66 273
90 155
336 383
290 361
219 309
347 376
20 322
39 102
132 388
260 337
280 431
134 318
63 108
264 412
378 414
53 134
401 429
424 434
6 260
213 448
53 311
111 481
66 162
218 281
27 309
29 479
51 187
198 318
218 392
47 175
127 381
329 398
95 211
409 486
136 362
65 388
377 410
198 216
71 362
93 302
311 411
113 432
4 289
98 452
203 286
17 170
135 296
164 175
2 286
442 457
297 330
226 352
208 286
13 446
341 366
435 468
33 290
17 53
245 437
49 362
210 273
69 103
129 306
2 32
168 328
22 39
150 232
334 373
64 361
282 464
102 241
68 289
43 178
88 415
70 339
430 475
310 482
112 191
22 406
150 347
44 314
172 263
10 486
83 164
49 84
34 480
22 257
262 272
101 264
177 488
346 417
175 187
21 87
25 140
210 368
11 97
159 313
253 462
0 478
110 425
220 313
183 423
253 285
43 272
81 229
100 327
263 271
471 488
151 391
183 468
186 360
190 336
266 384
392 420
90 204
72 335
110 139
149 469
284 316
109 305
175 269
294 333
78 468
194 209
378 434
124 146
289 323
444 470
20 469
132 271
80 200
62 72
63 273
85 297
160 208
252 334
15 82
327 412
280 372
242 372
27 352
65 213
51 358
17 330
15 195
165 210
251 383
74 284
56 383
113 370
41 493
5 330
249 274
50 357
37 121
19 482
156 308
154 263
377 438
297 474
127 230
2 371
65 273
122 482
69 313
71 479
2 226
22 225
23 152
69 202
163 269
383 430
151 334
116 363
79 97
102 258
139 276
12 30
13 307
126 361
97 386
150 244
82 214
279 464
121 260
16 232
70 447
1 324
3 498
61 487
73 378
183 229
77 418
132 282
45 132
319 485
174 472
343 483
276 424
6 241
153 291
10 252
147 445
220 285
314 342
6 128
82 282
300 357
266 469
360 392
379 420
159 418
290 463
54 156
57 424
20 36
459 460
385 481
24 95
78 278
100 458
247 357
138 235
176 298
15 355
313 384
24 206
333 380
9 158
119 303
247 282
425 492
266 311
225 230
158 377
57 138
39 46
260 297
189 413
203 231
66 456
398 443
240 475
313 427
185 302
313 353
132 227
80 180
136 230
156 249
104 314
143 493
223 287
94 405
170 461
118 470
317 426
28 35
17 310
71 127
373 385
75 120
479 490
118 190
122 181
194 326
260 344
255 371
299 341
60 355
99 223
326 474
74 387
93 485
184 447
313 497
188 415
61 135
283 437
47 468
430 452
107 201
89 326
457 490
26 337
28 487
411 489
140 233
16 423
112 304
23 188
163 226
122 361
50 250
69 174
396 466
351 454
254 362
40 444
395 413
154 172
102 302
267 327
286 417
88 424
327 473
35 227
201 207
168 256
79 234
192 390
102 185
12 145
286 304
125 376
186 236
79 155
12 352
125 489
220 451
169 210
150 498
94 491
315 322
91 342
128 220
208 394
281 498
67 449
305 468
159 497
57 347
149 299
392 464
45 394
253 359
91 116
20 56
24 187
274 306
305 360
66 266
176 470
351 374
241 304
333 352
275 404
11 484
214 237
161 471
56 251
128 280
347 396
114 401
8 382
160 272
446 464
33 157
87 454
21 412
293 323
63 297
265 482
208 381
213 412
53 323
42 212
5 480
133 315
32 66
75 100
113 169
41 404
227 417
157 300
288 299
217 251
74 340
146 201
93 489
23 397
298 412
307 486
278 293
226 234
126 403
40 122
60 101
316 479
197 460
163 372
236 358
383 401
221 470
59 295
151 271
245 464
466 479
69 130
140 286
361 396
79 89
416 420
196 283
468 480
306 455
210 438
129 326
166 437
150 188
79 206
169 471
102 165
361 493
335 419
7 498
229 302
46 364
234 244
438 490
367 432
43 422
116 240
103 474
34 191
181 316
349 452
149 222
82 339
232 322
125 239
325 491
385 440
171 395
135 364
263 443
223 439
43 213
209 237
109 332
5 145
43 98
280 432
161 499
180 393
56 151
366 436
383 497
5 34
99 347
357 391
111 220
158 448
185 358
246 265
228 268
194 492
434 447
289 384
308 356
19 235
60 453
133 287
65 121
249 388
191 489
143 330
237 347
41 496
169 203
23 288
298 481
206 447
152 289
71 212
329 397
23 401
65 411
236 420
166 443
143 209
338 468
65 308
122 463
50 416
13 44
273 327
23 119
26 137
154 450
83 472
195 318
260 300
250 363
69 213
35 349
435 471
364 407
93 207
102 273
371 469
23 228
376 477
463 493
172 320
70 193
112 471
224 241
102 246
215 461
16 141
235 275
310 483
97 470
82 130
223 262
83 167
70 483
73 349
77 445
187 197
153 469
120 160
232 442
159 171
92 222
183 305
153 326
281 313
319 337
285 321
159 312
287 329
293 341
135 451
232 344
30 47
314 336
110 281
349 451
119 469
120 493
263 415
214 331
219 483
204 373
148 483
158 258
152 343
6 342
191 222
104 176
340 435
403 454
42 394
260 453
9 67
265 425
85 296
269 401
38 214
242 373
118 288
194 496
182 237
233 285
271 372
75 95
368 419
27 355
65 69
160 447
329 472
313 472
424 484
278 387
136 440
123 312
17 107
26 459
227 326
84 197
178 190
236 392
130 317
95 327
88 175
107 125
217 461
442 490
95 468
98 344
61 324
159 215
13 417
16 459
126 314
3 215
187 402
25 307
279 354
121 154
143 356
177 216
175 445
182 363
68 233
150 245
216 242
83 210
46 458
174 255
68 262
196 339
325 369
1 347
129 398
387 424
25 77
79 134
262 354
163 183
286 356
125 452
201 268
55 441
205 364
22 290
45 131
305 350
0 268
129 168
77 306
79 420
82 392
101 188
68 75
238 383
96 276
190 482
45 421
125 151
181 229
110 309
21 332
115 353
181 476
190 333
137 327
266 421
105 347
124 465
15 354
147 154
134 372
63 86
29 66
406 422
105 484
87 332
76 163
369 431
167 244
9 238
110 407
87 317
209 466
32 249
42 110
99 403
27 478
100 184
228 373
14 200
87 402
180 240
18 247
39 271
155 306
66 235
56 429
196 255
82 332
160 475
326 328
56 284
184 465
222 393
23 360
117 381
476 478
27 109
249 301
140 388
251 395
164 258
292 351
38 303
188 408
65 323
47 471
50 409
257 277
89 325
2 340
40 159
117 415
338 412
283 293
411 488
268 439
113 227
40 46
439 446
192 249
49 288
13 453
415 433
254 363
112 384
3 307
116 328
44 477
117 177
154 173
121 182
304 370
357 398
107 391
35 226
201 206
309 384
168 257
206 377
103 211
58 304
168 400
350 384
10 447
46 337
103 288
58 419
176 385
358 374
31 404
215 219
55 306
340 347
78 81
101 208
67 448
379 466
115 460
13 80
190 414
221 434
289 418
11 313
33 449
200 334
54 377
238 394
185 254
280 294
48 258
176 471
345 448
18 422
147 182
275 493
42 288
80 115
6 399
190 248
318 397
66 442
158 346
204 363
401 455
54 411
42 435
29 215
158 485
90 423
53 209
226 261
63 296
265 481
85 224
32 468
239 359
90 342
247 263
222 331
204 242
170 430
298 379
155 286
371 487
160 392
98 373
18 106
271 428
113 168
60 401
353 409
189 243
118 155
111 265
231 408
86 357
217 250
203 443
60 256
13 182
251 407
243 385
326 455
112 127
40 236
226 475
64 242
173 432
155 173
193 274
231 382
126 400
145 407
164 181
4 478
64 97
173 449
102 489
340 470
68 426
70 75
22 174
245 479
50 159
107 466
59 151
44 449
64 271
327 459
139 351
177 224
213 260
38 383
3 444
206 341
44 336
135 171
229 301
177 450
162 374
181 394
384 478
208 472
315 348
229 446
67 303
20 484
34 188
309 374
147 391
257 475
186 483
153 282
281 461
105 241
124 315
106 346
72 454
57 374
286 496
24 105
318 335
210 428
105 130
52 447
252 288
253 266
110 237
43 212
176 499
323 356
15 346
199 457
395 494
366 458
39 96
461 462
134 316
378 412
105 444
53 132
111 370
403 429
351 419
189 452
118 426
446 461
216 478
33 184
161 355
199 239
240 484
203 232
76 122
252 378
19 234
131 484
80 268
8 121
194 284
322 329
14 51
145 192
233 271
203 470
99 137
28 155
50 383
320 485
184 393
313 490
380 476
50 462
433 478
157 295
350 421
26 359
322 387
69 323
197 286
144 166
145 371
164 169
26 150
83 475
16 480
74 186
112 377
352 456
26 57
177 179
340 345
35 301
92 266
130 235
44 421
68 291
125 334
126 249
36 193
58 377
274 391
82 131
83 166
10 362
73 348
276 295
181 408
44 203
120 161
222 348
34 337
162 410
220 388
183 304
367 471
205 472
25 146
7 102
229 466
147 419
129 252
348 480
78 137
346 386
9 390
101 232
33 280
150 429
241 413
186 374
152 442
53 280
63 172
219 482
20 241
229 428
105 271
110 120
147 238
204 453
223 315
267 407
373 499
461 498
228 451
462 468
449 490
30 345
234 370
52 177
135 406
56 180
448 456
9 66
85 311
32 429
128 139
53 265
19 153
222 368
313 436
242 370
191 447
375 434
17 328
135 493
109 226
113 231
302 411
123 330
244 451
164 408
271 484
5 328
118 195
17 106
127 275
38 256
60 221
136 264
193 297
50 498
69 406
107 239
288 451
142 482
71 328
60 191
23 37
264 428
402 498
210 484
112 278
97 166
405 426
102 433
49 315
122 339
175 463
166 270
37 298
151 310
83 100
301 485
16 91
325 495
163 412
384 479
268 403
97 384
44 393
83 213
230 420
286 474
34 403
1 346
310 460
186 214
25 76
101 473
48 219
12 382
215 321
72 209
217 401
225 405
120 189
181 192
11 62
220 360
152 248
171 308
79 423
7 74
135 401
252 455
0 444
149 277
10 77
48 392
67 116
33 292
110 314
20 38
314 455
268 385
428 451
30 411
87 222
90 174
111 212
204 410
42 333
6 416
149 461
67 146
195 361
413 418
167 247
5 232
251 317
9 237
141 168
323 461
161 442
75 284
190 223
167 324
213 390
86 124
19 181
131 431
194 469
143 284
415 484
41 446
332 363
189 238
27 255
246 481
194 324
341 403
142 220
326 329
164 444
19 403
170 340
60 381
437 450
27 108
279 318
448 455
47 97
458 495
288 368
41 88
283 439
89 324
152 334
236 493
280 387
23 73
122 260
250 305
287 340
145 315
2 196
156 366
97 194
169 333
316 420
64 437
304 431
121 196
230 358
175 483
88 315
306 334
35 276
44 495
423 441
59 138
206 463
299 452
31 224
13 341
141 352
201 205
40 333
44 365
34 439
36 281
96 100
168 401
244 420
262 335
10 444
218 258
1 215
205 271
116 158
244 459
398 440
101 334
159 354
0 489
220 332
96 322
172 366
172 239
30 213
33 343
305 458
238 280
100 281
30 100
158 185
54 382
240 497
294 425
148 474
63 228
9 127
15 321
219 298
241 310
39 127
321 382
266 297
33 34
76 192
223 371
172 288
269 437
449 466
32 358
33 147
111 462
289 479
242 299
66 93
218 256
56 475
361 413
131 395
317 460
32 68
237 373
368 492
265 307
27 219
155 398
47 148
140 474
32 179
251 313
14 455
201 368
326 437
255 273
146 199
94 145
310 434
4 185
298 410
142 299
59 126
60 240
374 464
47 490
231 377
209 332
144 187
21 123
388 482
98 430
226 347
154 492
102 494
287 328
73 244
145 295
168 192
117 227
102 377
49 323
250 452
126 371
237 402
129 299
2 91
59 150
220 462
44 450
117 148
279 421
197 236
235 297
58 354
44 337
192 484
361 467
125 282
225 416
182 195
103 356
386 476
315 494
244 440
172 429
319 430
106 441
159 177
272 475
257 425
77 360
326 375
79 494
30 166
220 336
78 178
6 191
447 475
234 318
196 217
20 111
138 498
100 317
137 269
11 292
33 492
15 308
0 19
76 262
204 339
223 433
243 271
6 473
318 479
138 161
358 398
33 93
15 421
132 391
152 381
280 434
232 462
136 209
209 397
213 461
76 123
320 397
328 458
179 322
109 253
165 315
38 59
131 487
169 184
5 450
8 122
402 430
109 142
113 331
296 309
80 412
27 167
264 339
28 148
123 286
17 397
284 394
74 374
19 459
131 133
51 90
14 338
21 493
130 343
38 372
64 223
236 442
122 461
359 424
107 147
307 373
236 309
2 414
387 461
301 367
250 361
203 259
141 198
70 180
355 441
360 379
40 487
3 253
279 344
192 290
139 493
182 243
13 268
141 343
126 367
163 483
116 385
192 337
233 363
125 333
129 416
334 491
7 323
46 287
103 282
403 483
129 465
58 489
232 444
182 299
183 307
43 388
10 199
68 81
234 377
481 499
58 203
96 266
78 142
81 218
190 452
82 309
275 405
483 499
52 493
110 287
312 338
77 110
149 353
63 175
135 338
105 381
219 485
294 497
209 233
247 307
30 463
52 259
56 198
54 465
256 280
20 353
204 454
260 304
43 64
81 277
32 319
195 285
323 464
52 178
53 231
111 401
39 404
99 377
134 141
189 241
458 472
131 434
39 357
317 387
85 167
411 418
14 157
15 204
143 315
237 428
368 421
374 476
5 294
249 422
467 475
123 333
160 433
204 420
424 486
143 241
8 229
231 419
217 305
71 186
128 342
4 369
98 116
242 378
241 243
16 303
439 496
112 184
331 486
53 94
151 171
50 66
142 402
383 474
478 490
64 426
391 465
50 213
35 379
73 140
370 406
112 358
12 25
107 413
172 343
444 455
325 383
1 345
349 361
22 433
25 83
53 228
101 472
103 318
34 259
1 202
435 477
77 351
115 212
244 496
67 345
130 249
204 252
39 401
129 174
144 395
21 104
167 348
443 458
10 251
333 438
324 479
0 445
208 304
6 135
7 218
366 382
159 431
134 219
333 482
357 482
30 408
72 366
256 373
42 330
280 379
94 478
63 80
29 64
67 149
158 380
180 476
57 143
425 467
9 236
191 252
194 439
51 425
327 492
347 466
313 358
156 244
320 439
180 242
313 471
80 326
155 308
28 62
104 332
51 327
71 120
165 243
113 130
296 382
99 115
148 434
84 261
86 351
17 452
472 484
237 289
203 401
249 307
375 398
160 332
307 399
329 331
202 219
311 431
421 443
27 28
84 219
197 324
217 446
37 235
308 358
166 449
144 340
83 293
193 421
126 453
73 223
388 464
187 323
431 439
26 207
230 359
212 246
178 386
92 348
22 115
154 171
304 372
106 160
235 332
103 383
40 334
405 474
79 247
340 498
46 484
12 140
70 414
77 498
172 458
138 374
12 355
125 486
304 460
291 428
153 403
10 268
157 427
103 435
0 490
399 402
397 441
43 460
208 465
67 450
305 457
208 284
119 494
120 440
263 336
420 493
222 406
185 252
21 366
81 435
137 353
200 479
271 463
223 493
152 354
315 366
119 268
52 251
199 372
146 256
57 171
76 193
42 433
424 462
29 213
378 489
203 206
227 422
27 444
85 238
213 409
431 470
143 450
237 483
113 221
313 499
42 211
171 421
155 272
249 493
14 85
53 497
146 181
188 344
8 46
136 483
84 281
341 438
326 426
329 406
365 464
60 258
8 189
62 496
84 136
212 453
179 180
112 113
222 250
4 329
409 452
154 378
142 475
85 242
273 344
40 125
4 472
61 281
471 473
211 244
353 361
145 294
26 305
362 428
139 448
402 470
306 371
300 330
112 430
22 31
44 451
236 389
102 201
139 337
267 356
306 450
258 346
112 187
158 184
116 477
31 84
55 114
302 360
150 290
169 452
210 249
290 464
46 371
49 189
358 387
162 372
55 483
58 69
208 474
82 447
120 246
232 464
285 378
31 394
215 249
343 420
239 247
21 416
78 179
34 45
54 168
238 352
16 433
285 412
33 483
72 343
147 359
445 483
247 302
91 194
54 458
147 212
39 98
5 158
389 471
270 274
57 199
39 499
132 279
189 450
228 440
356 373
104 230
124 249
161 353
18 170
327 436
203 234
316 412
118 475
228 271
375 424
303 319
434 442
289 389
170 253
412 453
160 406
108 436
18 76
113 330
131 375
5 338
65 495
198 333
326 406
203 345
131 132
60 294
23 402
151 217
64 161
212 473
175 215
69 432
251 437
219 357
95 364
347 424
207 294
208 296
69 321
142 439
112 236
4 444
139 415
70 181
364 402
22 72
61 430
192 291
49 366
50 129
126 357
25 453
44 423
248 250
68 301
235 276
1 380
485 490
258 325
46 284
382 468
55 86
148 372
21 226
115 251
116 160
7 467
48 128
157 482
49 217
106 410
91 354
354 410
257 436
43 391
150 441
79 461
157 403
324 484
211 489
208 341
171 347
109 393
135 316
67 410
360 400
253 443
290 423
275 329
63 174
253 300
91 177
54 295
344 364
20 243
70 348
24 246
389 450
11 464
30 460
87 165
199 431
56 199
147 240
185 421
369 384
170 179
119 244
247 419
85 324
15 41
199 316
240 435
299 362
228 348
356 361
29 328
146 475
458 473
289 417
165 222
258 295
189 200
27 277
249 421
122 157
174 334
17 479
94 223
47 79
284 404
160 289
217 304
229 272
274 345
151 253
409 454
155 230
84 192
302 379
217 417
71 330
457 498
130 312
224 451
117 440
335 497
141 152
126 430
202 390
130 427
4 400
301 338
49 313
250 394
197 385
126 313
254 370
1 446
388 454
274 423
117 218
121 159
139 264
177 221
13 303
16 93
126 136
255 297
249 402
130 205
116 486
302 388
245 262
282 304
139 153
141 459
35 88
68 196
58 283
10 390
159 251
239 329
96 201
346 418
153 438
281 361
157 454
0 271
309 315
167 315
462 475
210 336
319 374
450 483
344 415
305 428
324 472
0 446
348 454
43 368
212 340
120 413
416 430
34 85
72 256
91 108
20 32
63 194
315 457
33 427
345 489
343 404
299 424
29 95
266 307
180 477
171 296
366 384
6 305
284 435
199 288
56 82
5 103
29 353
252 366
183 485
19 183
443 482
85 186
308 351
56 432
38 64
4 48
8 51
0 432
191 204
104 476
164 446
146 225
19 405
178 247
26 443
8 130
50 261
348 448
329 330
421 442
350 464
149 273
14 267
311 479
102 448
140 229
141 188
163 348
74 97
202 442
130 399
198 215
25 355
316 422
200 306
102 339
175 493
141 269
1 410
74 240
112 148
342 434
44 472
173 252
178 274
235 335
328 379
55 248
168 260
79 246
154 219
103 204
31 115
141 495
144 285
150 263
338 458
361 390
270 480
152 167
116 152
44 141
229 391
339 443
324 429
183 378
372 433
138 425
11 173
214 404
294 474
72 429
0 410
54 205
312 412
149 311
43 348
119 489
135 260
124 385
72 316
219 447
21 365
149 408
392 430
35 413
391 398
76 371
152 355
104 124
180 433
20 282
114 397
99 291
6 285
284 407
197 459
51 388
15 97
199 260
146 400
75 314
39 351
242 297
5 91
8 497
27 447
65 224
63 341
317 478
161 309
56 477
250 369
368 415
371 387
298 358
317 458
155 275
66 202
104 425
160 395
368 494
296 347
223 465
246 451
193 245
47 150
353 399
213 250
89 388
17 423
74 336
6 377
188 456
26 415
302 320
231 490
108 119
476 499
41 186
169 397
278 313
143 213
65 300
28 336
122 439
327 344
69 364
188 191
236 467
224 395
102 492
47 357
316 349
73 250
224 305
112 336
277 480
297 482
83 433
121 230
49 321
12 83
50 154
306 368
37 480
59 168
408 480
192 375
102 206
233 397
31 198
88 392
35 131
272 319
168 366
55 220
150 176
218 220
272 334
148 337
441 457
168 399
112 449
211 307
174 421
12 256
45 57
328 473
7 127
390 397
284 490
157 398
195 231
55 275
239 246
96 352
208 362
81 252
2 16
82 335
72 457
58 164
78 291
167 320
120 469
260 422
290 499
111 153
204 333
78 338
219 465
94 465
156 488
448 489
33 83
15 423
57 85
235 269
170 220
43 102
280 436
119 275
105 417
33 204
270 275
53 129
347 492
135 454
223 337
27 490
100 236
228 287
240 487
5 447
137 207
85 129
32 499
86 186
179 324
108 294
380 451
308 352
165 313
222 298
332 350
28 103
51 190
169 207
133 428
122 233
329 433
37 64
365 435
38 283
95 222
196 496
154 300
136 367
368 394
302 348
160 373
402 462
169 489
409 410
248 430
250 260
359 426
287 409
126 435
17 173
68 128
3 110
26 149
368 431
140 173
167 330
59 327
206 410
316 366
187 223
46 67
139 495
393 439
254 422
55 179
130 230
172 365
64 366
173 196
121 371
106 249
70 340
73 496
129 422
101 418
229 245
162 294
235 420
291 406
205 324
116 161
79 351
103 357
125 429
343 474
1 29
24 426
43 390
346 436
79 460
67 268
34 223
128 152
322 397
257 292
78 140
100 332
82 307
48 495
147 277
58 184
447 477
43 164
81 105
134 253
101 102
428 474
270 461
177 339
314 401
43 53
6 443
100 418
85 466
257 480
105 268
210 359
18 493
241 252
260 306
43 66
119 247
156 355
132 244
8 314
434 460
286 404
233 438
114 292
4 174
218 454
56 405
184 330
244 349
317 498
227 319
402 427
14 18
108 409
271 481
19 376
131 338
95 173
117 357
200 246
377 456
231 477
360 434
127 284
169 436
476 489
355 385
69 403
155 225
37 245
130 313
418 421
283 468
406 426
193 479
50 64
164 200
187 313
169 342
226 257
230 377
69 181
35 381
254 371
92 378
200 305
430 462
310 336
240 334
192 447
196 351
107 300
235 499
36 224
385 402
108 156
22 439
25 81
262 358
201 304
55 437
77 349
281 360
319 480
11 51
103 393
264 423
58 122
21 118
452 497
81 171
169 288
214 393
234 347
54 325
54 230
225 282
284 470
2 266
404 465
190 486
10 72
125 147
204 262
21 328
142 392
333 486
357 480
195 477
318 405
214 218
143 202
146 282
185 448
132 476
328 415
354 473
9 18
119 219
199 291
56 83
347 468
80 169
29 352
86 115
14 204
180 283
240 303
313 469
66 231
412 415
108 366
184 358
95 112
42 140
5 280
99 117
118 179
376 452
28 175
322 396
142 163
326 332
184 469
85 391
65 470
377 484
231 449
251 399
142 338
255 463
166 372
147 249
283 392
396 456
17 228
145 431
292 426
40 131
60 94
297 372
61 243
173 473
391 422
170 186
340 393
130 396
26 205
299 466
50 247
178 384
306 333
36 38
273 412
282 482
361 363
178 275
141 413
384 485
239 398
59 252
4 46
7 372
134 490
68 358
107 264
276 363
315 455
358 411
215 358
72 240
0 381
165 485
58 431
153 401
120 220
339 442
399 412
174 214
232 261
72 430
238 287
348 427
314 375
43 351
120 442
360 489
214 260
125 183
181 197
144 485
81 433
218 372
20 180
204 441
223 495
43 125
209 277
66 438
134 389
195 326
52 197
345 373
128 285
99 290
134 487
134 406
38 131
20 394
39 350
132 204
80 149
27 446
14 168
252 382
114 364
8 65
317 457
344 473
18 102
222 478
4 21
188 346
262 362
122 210
89 395
108 481
329 404
56 316
365 462
421 460
60 284
265 288
298 409
27 77
28 290
50 294
69 474
251 427
17 55
292 383
64 246
28 337
268 448
162 306
2 308
295 471
331 416
235 392
64 101
47 356
126 487
73 249
37 286
79 332
22 162
116 313
23 223
262 292
182 420
187 478
245 332
230 400
233 396
88 393
412 459
58 353
116 479
44 332
315 472
121 455
103 243
34 470
73 420
201 383
60 408
22 383
337 367
210 247
229 297
46 369
103 320
106 420
73 309
36 399
348 361
21 61
205 304
116 253
34 184
54 63
312 458
220 339
148 176
21 430
171 369
7 143
157 318
106 326
92 166
312 441
275 303
133 431
6 77
137 306
120 470
157 175
72 345
290 496
110 241
147 361
249 372
132 499
152 465
232 476
266 377
128 330
147 214
20 328
43 89
81 302
37 372
321 351
94 171
42 403
118 430
446 497
29 183
160 202
161 359
90 391
38 175
39 322
118 473
320 384
194 489
14 132
363 482
305 470
53 418
271 287
368 444
167 414
8 125
65 124
17 497
146 151
166 210
8 204
227 448
231 440
32 210
127 379
93 439
113 473
64 163
127 200
203 296
338 465
264 436
169 204
50 93
88 216
93 345
224 424
98 433
61 315
49 275
122 315
287 297
126 259
132 463
3 254
22 78
371 472
279 341
46 64
49 364
235 377
92 262
2 58
44 417
82 236
279 458
173 195
121 370
267 386
325 408
207 292
148 391
330 494
150 349
7 444
83 170
211 353
31 74
234 463
291 409
77 440
225 397
7 461
272 465
49 223
68 205
291 358
207 259
208 440
101 131
67 271
285 348
164 407
238 356
58 214
186 387
78 141
273 326
0 67
207 408
183 466
404 429
333 449
190 346
137 302
10 36
48 383
232 236
105 354
158 244
161 176
199 425
91 179
217 475
9 356
137 447
321 394
29 121
53 115
110 124
185 427
294 327
260 307
9 245
156 380
109 444
111 402
114 466
42 119
351 387
189 484
136 240
427 435
191 298
29 155
15 88
240 260
38 203
8 394
194 461
141 199
269 285
167 386
155 474
302 415
393 449
216 220
108 410
273 471
166 254
170 270
188 258
291 437
264 370
326 496
93 411
19 488
188 497
151 255
154 257
27 53
28 362
50 494
287 495
71 324
2 333
130 310
60 187
248 459
185 440
340 411
69 291
107 112
294 362
202 388
478 489
199 369
46 237
49 319
47 284
74 218
202 279
59 354
352 488
435 478
61 432
233 443
178 364
70 294
338 359
3 363
22 453
206 358
46 463
254 334
106 218
272 376
168 441
225 312
79 141
48 223
1 207
148 266
77 348
244 499
230 487
67 346
103 392
34 369
419 473
81 170
300 460
450 481
34 224
91 497
309 426
58 234
24 54
241 259
279 321
87 101
110 318
238 499
21 343
0 222
258 362
111 208
223 394
149 499
280 382
464 491
66 339
109 271
56 229
354 365
42 472
378 464
330 427
111 438
325 359
132 233
5 101
99 406
209 458
85 215
51 475
218 296
189 327
313 468
170 439
27 322
143 280
235 460
80 456
213 228
17 441
56 289
274 296
240 332
26 441
231 448
155 318
160 335
311 424
171 362
409 416
227 361
355 444
429 457
179 202
17 219
224 481
41 237
95 422
337 380
248 487
84 85
340 447
163 350
121 200
175 495
178 385
141 267
126 347
73 173
153 468
59 142
282 483
177 255
235 321
129 380
168 262
405 487
262 432
83 245
211 424
235 478
58 317
96 120
168 405
44 248
293 431
361 388
201 467
60 430
10 267
11 94
339 445
103 428
150 390
0 493
128 210
201 339
149 196
336 341
106 355
125 197
58 142
208 287
6 102
263 333
125 182
253 353
0 11
21 363
24 129
243 311
86 382
176 401
90 142
80 104
156 309
188 301
123 202
53 171
347 386
104 271
81 338
33 151
300 457
164 496
56 112
472 483
76 83
99 434
326 386
104 284
180 209
165 259
309 475
27 302
66 200
85 92
322 382
14 88
71 89
19 322
217 267
4 22
50 340
322 401
51 213
89 394
93 488
26 413
365 387
51 66
41 184
380 408
84 250
140 308
88 253
287 423
292 463
40 96
224 397
166 480
23 105
26 191
335 427
13 403
468 488
130 401
25 381
117 239
279 304
139 453
12 77
178 421
163 459
37 494
352 400
150 199
46 404
12 220
31 192
148 492
283 407
126 377
261 376
229 296
211 309
49 178
106 421
234 254
162 371
183 299
281 295
309 473
105 107
110 404
257 478
244 346
383 448
137 333
159 467
20 107
217 450
119 463
52 388
162 196
57 490
76 258
204 335
115 348
209 231
137 386
229 236
323 363
90 98
18 391
321 467
20 329
170 218
247 472
303 474
195 293
109 471
56 157
75 331
42 400
354 414
265 439
338 342
252 289
269 303
19 128
39 381
136 164
213 442
434 441
363 485
109 249
19 241
293 498
41 361
42 178
317 492
84 457
212 262
32 100
19 350
132 413
136 386
116 314
86 410
71 210
128 338
26 46
95 216
256 263
335 361
355 359
50 459
288 444
369 386
126 338
387 416
83 369
283 371
69 334
362 472
307 377
236 305
164 214
59 488
98 334
335 399
304 465
145 263
187 396
25 345
49 355
68 409
69 96
99 268
92 263
310 330
130 228
258 465
202 303
82 237
304 319
70 330
1 369
282 330
121 482
12 343
215 440
148 375
187 219
280 398
120 166
395 438
215 297
128 235
1 19
96 159
44 87
157 400
30 134
324 487
21 449
149 252
261 466
336 409
285 460
124 340
34 76
253 440
290 418
39 221
63 171
10 37
266 395
0 243
110 146
111 191
42 338
314 415
43 55
9 363
156 462
29 120
67 189
158 260
270 322
76 181
170 190
81 265
247 444
33 238
252 470
90 489
146 327
165 335
39 400
332 414
136 241
100 130
137 152
104 197
14 246
244 383
222 373
5 401
189 340
27 377
191 442
217 376
179 418
17 323
90 267
365 371
41 325
42 150
170 355
467 479
145 167
164 389
41 470
62 316
86 422
14 387
71 182
4 381
98 112
26 469
27 52
283 430
231 300
296 444
255 442
224 454
166 473
95 333
406 424
154 433
202 389
98 338
226 287
245 481
173 260
126 316
163 306
74 219
319 426
352 464
174 427
384 468
202 359
40 342
144 308
186 211
258 292
150 382
385 417
101 452
196 488
96 204
352 355
45 253
257 429
159 373
1 127
44 59
462 478
471 486
23 296
176 195
30 226
106 268
253 491
200 201
58 235
308 492
261 310
190 484
372 463
263 360
159 427
200 344
57 433
20 35
243 346
63 207
33 424
342 402
180 297
271 451
369 464
314 435
78 392
160 266
137 474
135 419
331 348
418 469
397 499
76 217
167 242
189 406
171 247
284 398
32 351
158 499
285 338
109 415
165 413
132 234
27 468
228 371
62 476
89 147
210 317
218 297
271 289
75 480
217 306
222 337
118 262
393 403
86 224
198 494
71 116
109 193
271 342
38 71
4 51
27 242
113 449
86 339
397 476
56 290
41 50
60 378
326 465
329 371
326 477
2 447
131 384
227 360
193 264
122 414
88 226
71 299
130 283
3 27
166 453
350 475
46 159
140 224
69 262
287 339
236 377
13 254
371 482
76 435
248 343
139 472
212 242
250 429
69 151
70 240
116 342
173 249
174 178
267 380
31 239
178 273
107 381
126 171
1 264
82 181
45 63
415 474
278 311
31 124
16 203
387 450
21 182
153 486
4 263
319 433
68 247
159 216
291 336
24 373
44 136
281 330
10 264
229 388
339 444
324 424
181 289
201 419
78 91
244 327
10 155
124 301
31 291
234 445
147 478
238 427
171 420
190 384
120 444
285 436
76 287
314 484
266 323
105 313
87 249
270 395
54 482
57 62
42 298
5 166
243 423
342 344
30 267
54 413
42 445
99 292
63 449
85 377
473 479
56 113
114 283
5 88
155 359
29 322
108 317
90 336
218 269
19 212
368 402
143 156
193 410
123 408
14 89
400 413
259 338
136 487
322 494
251 316
192 243
198 357
74 351
56 318
19 434
321 379
41 46
95 231
117 347
206 398
302 327
231 487
108 114
71 382
222 254
83 340
355 475
37 139
211 248
411 458
13 402
364 465
112 339
187 355
250 449
333 399
70 220
163 458
92 316
129 302
173 221
121 340
106 128
129 351
22 386
44 334
82 153
101 395
141 380
1 133
310 393
21 202
24 290
101 284
48 152
339 491
395 397
72 238
73 315
36 393
165 480
58 65
256 388
281 294
101 365
133 336
343 416
0 458
309 368
244 347
281 471
45 342
447 454
285 487
103 147
408 469
58 163
115 430
100 314
88 408
345 437
192 444
223 444
149 441
9 334
137 385
54 462
57 90
75 472
5 154
243 387
134 310
63 404
247 475
284 327
105 422
252 350
401 421
20 313
114 428
46 492
62 84
104 234
158 459
87 483
76 112
104 377
143 290
38 60
167 408
317 491
65 114
322 323
225 292
108 432
378 379
19 353
4 11
298 488
118 249
212 374
123 277
288 334
38 286
23 430
117 319
53 417
16 312
236 419
37 222
221 273
203 298
166 434
60 145
117 416
64 212
193 496
284 494
46 215
140 168
287 299
70 169
435 476
202 497
472 497
46 70
49 354
94 303
16 117
73 100
258 430
153 188
172 360
154 239
120 155
103 128
34 393
141 419
146 194
479 486
220 470
150 339
342 373
390 455
129 468
225 387
7 463
210 217
176 371
367 477
120 278
67 497
21 78
259 335
288 447
171 351
157 256
105 215
77 105
404 431
9 281
63 170
215 237
263 460
180 342
91 181
39 173
43 54
280 356
195 371
270 323
207 488
57 118
366 488
170 191
6 329
105 386
421 452
19 46
256 396
185 282
5 15
189 482
326 405
9 68
284 474
86 106
179 308
252 326
165 329
178 222
170 465
356 484
194 459
179 421
131 137
259 476
298 317
29 443
251 375
127 392
136 447
123 305
86 423
395 468
74 407
93 409
4 382
175 247
359 378
197 363
108 186
3 62
23 35
61 236
173 498
28 411
96 458
130 423
188 209
102 427
69 178
35 382
306 491
25 308
279 379
49 398
13 299
107 400
35 207
279 488
83 219
121 268
196 346
261 369
22 330
275 355
63 165
361 430
144 324
201 309
115 219
22 293
302 463
49 249
91 322
43 487
81 168
11 133
30 227
31 334
442 492
266 477
33 318
0 33
54 148
151 413
186 276
314 449
52 375
342 403
180 300
338 444
241 268
39 81
137 473
66 337
52 236
349 464
132 324
425 470
354 468
81 372
269 350
32 336
323 435
87 314
146 424
185 310
39 439
167 322
249 393
407 435
85 213
32 463
86 118
56 453
41 279
170 437
84 403
191 473
29 494
269 319
131 290
259 377
332 353
8 55
27 245
244 357
194 350
322 395
78 488
127 428
74 312
271 454
38 471
166 280
424 455
209 271
249 310
268 328
74 395
2 444
311 426
453 466
4 338
23 470
206 408
430 460
108 158
112 217
154 402
173 470
140 340
50 99
71 443
202 422
221 458
206 422
188 245
304 416
301 434
351 362
92 298
35 282
44 468
64 314
31 238
182 334
239 395
172 304
45 62
83 247
49 59
103 200
35 120
1 184
55 101
249 410
151 355
25 50
288 481
9 48
393 394
291 339
235 351
82 468
85 261
305 371
489 494
32 383
91 430
19 68
257 496
205 410
244 320
48 475
209 499
91 479
309 396
238 290
78 203
312 493
218 358
10 107
11 318
285 435
52 418
219 389
156 384
345 457
91 253
111 246
144 456
170 228
78 485
119 267
303 448
195 331
345 378
132 312
280 459
228 385
191 287
160 161
473 478
407 471
137 215
375 451
90 337
56 481
8 413
94 377
184 244
170 425
133 291
62 155
84 439
85 90
280 378
14 94
146 174
293 429
131 286
259 341
27 209
170 345
140 464
32 201
233 248
38 499
421 457
23 389
26 411
136 375
293 473
268 364
251 428
108 115
37 57
268 451
126 411
3 118
41 207
117 124
293 484
125 137
13 401
97 224
245 472
386 444
339 481
73 79
36 69
129 301
187 467
153 167
139 340
68 310
88 396
126 196
198 462
239 431
206 348
190 345
174 318
162 286
148 349
45 179
229 342
174 425
103 381
163 184
101 136
348 356
48 104
30 168
12 403
219 241
57 270
129 233
96 356
24 449
240 245
171 370
100 340
48 455
11 205
117 126
54 173
241 490
58 160
385 432
400 459
124 417
15 306
275 417
81 402
209 229
156 484
203 414
18 389
91 217
43 90
209 374
152 198
195 295
398 456
146 353
480 483
136 215
134 454
228 421
136 341
51 484
124 246
470 494
76 113
114 316
27 415
65 192
427 473
247 248
85 141
431 497
434 439
90 309
271 280
75 427
379 455
332 346
5 460
251 362
145 185
38 396
374 446
353 446
249 381
14 421
217 223
274 366
188 488
355 361
322 334
69 443
89 277
145 475
93 293
95 363
98 477
154 347
175 323
16 328
333 337
273 319
37 174
187 273
23 143
151 442
335 393
173 286
139 402
340 497
88 330
16 487
73 154
112 368
3 227
117 193
357 388
178 327
163 489
1 454
55 143
37 384
330 410
139 368
103 131
456 460
331 492
330 493
3 385
211 354
139 193
337 498
417 487
406 414
239 304
25 234
241 427
103 353
88 417
54 111
367 476
24 430
116 220
120 279
229 475
232 305
219 386
219 221
240 300
51 220
9 399
10 80
11 233
161 196
34 74
72 489
200 318
309 452
100 479
45 458
232 239
161 181
381 466
110 144
275 445
115 314
243 497
9 361
66 330
195 370
87 160
76 183
39 61
132 353
260 318
78 477
6 334
156 383
85 335
323 470
152 302
80 193
284 475
86 107
14 244
87 390
439 441
132 135
5 415
27 379
66 159
109 219
237 422
274 432
60 481
383 410
80 495
189 195
65 93
104 485
102 349
353 474
337 447
65 462
377 460
74 404
93 408
250 416
37 291
13 452
241 242
69 415
287 488
142 485
439 499
255 420
61 235
50 124
13 72
372 427
142 404
93 186
50 207
282 442
182 496
301 478
139 271
31 245
35 206
36 157
220 229
112 491
103 167
284 336
228 405
239 487
21 144
59 69
44 279
429 459
31 43
215 350
32 360
235 388
25 198
153 441
101 339
11 55
103 389
305 342
91 325
110 483
36 450
129 160
21 114
81 175
82 384
405 432
324 453
317 420
183 386
96 300
78 236
261 308
300 350
209 493
30 115
185 318
320 482
16 156
21 340
78 287
100 499
272 310
156 445
138 144
111 221
333 371
190 196
321 363
11 499
195 366
270 348
56 232
20 259
35 175
223 260
171 233
9 22
158 497
146 425
94 499
99 411
27 470
265 461
104 291
32 448
86 119
276 323
180 248
165 364
296 469
42 249
249 475
104 434
14 67
75 115
94 301
5 260
118 314
84 259
302 446
213 225
89 435
75 192
94 188
331 346
259 393
278 423
117 325
377 488
251 387
89 476
217 279
255 459
207 372
317 442
245 264
135 215
112 218
59 421
331 440
95 419
356 384
338 404
69 260
328 386
168 235
86 249
226 289
49 344
273 400
420 449
275 310
301 450
468 469
107 383
328 352
206 321
45 61
121 303
92 120
55 100
22 343
44 251
211 282
162 362
181 446
370 404
276 486
370 457
43 437
465 475
11 83
465 482
24 486
78 89
244 321
379 490
312 417
213 403
357 362
220 407
6 101
120 446
176 368
33 473
34 114
365 412
76 281
204 294
247 320
138 180
67 230
109 351
290 347
128 354
241 303
66 434
252 425
210 349
109 496
56 132
63 451
265 408
123 188
90 431
147 401
38 135
242 290
354 360
118 497
86 147
90 350
337 489
113 215
80 280
298 355
127 286
320 471
356 445
194 304
86 258
17 265
218 442
238 375
154 293
251 408
322 492
2 494
259 485
278 323
227 313
374 440
69 454
179 186
217 371
329 361
93 448
221 267
113 386
95 374
65 295
231 374
71 265
131 200
307 449
95 391
95 283
411 460
300 335
73 253
3 134
22 166
371 448
98 280
248 373
250 463
254 399
168 342
26 92
405 490
103 158
196 268
70 365
73 479
1 362
7 340
121 459
338 473
235 447
58 476
205 347
153 448
101 282
229 341
46 373
230 246
208 213
110 214
440 478
1 52
220 440
21 57
275 383
234 268
370 380
208 367
190 467
350 367
120 363
471 478
20 118
333 473
120 474
232 244
285 406
52 391
180 380
231 331
20 229
6 464
119 377
176 456
297 324
15 418
290 383
128 334
204 473
132 398
393 443
15 467
256 285
114 426
132 285
99 322
119 159
51 487
195 411
280 369
167 261
189 333
27 414
431 496
108 291
294 312
218 495
75 426
131 492
259 291
170 394
384 497
28 124
85 125
228 245
269 326
145 184
203 462
166 214
28 147
217 222
283 455
302 353
175 221
14 341
142 270
236 413
350 429
154 344
279 349
28 433
122 468
50 89
142 441
236 300
478 497
61 311
173 285
231 235
328 474
236 323
299 460
366 414
163 488
310 329
93 119
3 371
206 270
408 449
262 492
325 388
40 268
315 402
10 492
102 126
139 192
177 405
144 346
73 324
202 360
276 303
205 383
7 457
48 134
358 423
31 455
34 361
36 431
55 477
153 333
82 413
158 490
138 411
31 340
200 208
110 439
202 488
186 399
120 391
471 482
110 294
185 205
52 411
15 273
228 333
39 175
42 337
250 496
243 496
9 360
321 398
29 117
30 310
363 413
5 252
189 399
449 482
30 321
240 425
5 13
27 461
209 482
156 239
216 386
89 180
252 320
289 458
172 261
155 289
356 486
86 219
143 256
75 86
332 383
65 92
28 64
212 293
375 416
32 131
315 445
291 458
326 357
94 193
166 242
4 233
148 321
84 351
32 242
17 98
164 279
402 412
131 230
175 241
268 309
287 491
237 447
2 329
26 323
365 403
340 423
141 146
74 119
93 185
3 177
185 279
410 452
386 423
230 370
13 472
225 373
182 497
40 458
22 110
116 381
153 237
26 101
12 16
106 183
276 448
413 484
97 408
405 463
82 204
245 256
121 274
31 133
125 362
436 494
1 338
276 348
44 272
262 347
149 474
72 217
325 488
73 352
367 386
45 250
48 162
159 374
110 480
367 499
24 395
157 369
159 263
240 350
183 413
6 126
281 397
353 435
379 446
231 411
72 262
219 425
114 129
186 274
115 360
43 135
30 387
180 308
20 157
39 83
6 408
190 197
247 492
188 273
357 380
161 449
53 83
401 466
219 375
347 442
366 394
204 481
244 355
354 466
280 497
52 157
217 220
138 432
8 475
209 462
32 449
51 479
179 274
15 184
165 363
114 325
42 230
179 387
127 473
18 127
455 470
94 274
95 199
133 350
194 348
41 55
117 324
377 495
50 319
88 118
10 173
311 420
203 359
350 474
350 485
16 258
61 142
40 136
331 443
95 418
98 386
374 383
50 97
69 259
141 182
288 433
71 437
311 330
198 212
97 218
193 318
23 182
122 383
250 424
73 81
74 250
206 471
279 409
304 363
233 411
13 333
130 171
25 391
169 466
373 479
339 355
268 308
215 396
141 489
382 391
148 443
276 368
44 244
241 444
159 197
181 445
383 418
77 380
370 454
428 483
44 139
303 380
105 115
162 474
346 367
54 84
220 324
438 439
186 468
43 453
443 495
45 367
48 477
67 459
137 329
270 458
96 457
208 275
205 244
11 304
387 465
125 178
155 488
250 296
238 403
76 282
39 230
115 324
78 376
483 488
158 304
270 398
207 356
132 427
80 108
194 252
378 385
345 376
218 246
422 468
189 439
134 472
32 382
124 236
19 104
277 455
228 274
85 247
51 315
308 394
42 218
270 357
10 408
155 489
160 385
293 427
41 386
98 213
122 223
322 493
364 394
365 457
113 304
60 281
23 391
298 386
374 441
14 382
217 370
127 211
93 479
38 320
247 398
139 449
140 304
287 419
35 474
224 385
28 477
122 288
273 482
93 225
97 230
116 262
192 222
50 148
73 77
55 165
347 412
245 343
432 476
144 480
92 430
334 407
101 392
373 435
46 267
177 204
79 91
201 354
22 368
337 354
10 344
68 214
73 312
58 76
370 490
43 400
7 117
305 413
91 396
408 451
57 268
58 63
205 444
300 400
390 435
11 207
214 458
306 453
0 124
238 316
241 488
120 475
232 245
327 455
128 464
111 167
204 331
100 436
321 417
253 493
54 461
256 308
111 276
243 388
303 486
5 40
136 178
160 207
75 476
20 427
289 465
132 173
99 466
66 185
194 482
431 499
38 51
170 395
8 98
28 125
212 258
14 56
237 337
184 291
38 386
188 379
99 176
118 252
123 278
382 443
71 206
365 429
113 476
310 436
309 322
193 324
212 480
10 439
142 271
2 354
311 492
166 433
4 276
23 24
61 197
83 373
308 381
47 406
13 34
144 159
164 210
292 495
51 331
207 220
64 70
46 218
175 306
22 67
371 479
23 254
356 420
121 132
230 294
12 109
194 267
178 325
126 151
163 491
384 460
2 55
258 429
25 462
262 493
282 295
121 373
269 347
286 487
390 465
144 460
177 404
106 114
215 436
144 347
1 230
22 284
150 449
252 446
276 499
142 252
96 147
152 229
120 281
157 364
257 318
244 303
172 175
11 235
33 279
34 72
296 300
186 383
119 431
124 455
315 370
271 455
42 350
115 316
158 264
15 385
57 123
223 290
5 251
9 248
247 440
449 481
56 189
19 51
114 463
242 280
100 142
63 282
172 246
29 150
14 250
161 262
380 398
53 272
170 476
320 481
191 422
188 476
108 256
117 290
56 411
455 493
296 394
332 376
122 164
32 132
86 331
14 20
127 437
280 309
350 498
99 172
62 288
172 495
89 454
231 286
71 178
164 272
37 110
154 266
264 454
28 359
200 219
107 230
469 485
17 242
264 473
292 444
283 471
61 233
193 465
107 119
126 465
17 131
145 342
93 184
187 319
248 319
197 394
70 136
300 338
3 193
187 428
151 329
139 257
286 432
88 471
487 497
254 452
201 216
330 444
168 303
268 478
153 157
174 261
267 421
196 325
35 65
253 366
25 91
236 490
139 239
12 375
183 254
205 354
150 493
221 346
232 384
12 454
305 340
162 439
92 180
129 166
96 191
205 499
152 193
135 392
176 199
214 387
305 421
57 324
220 272
255 490
78 242
6 127
105 176
379 433
253 344
91 101
219 424
247 368
186 275
190 379
63 203
158 213
15 372
109 377
226 365
152 270
53 82
233 312
219 374
20 269
167 238
8 333
171 235
29 201
32 339
216 496
323 436
90 457
18 346
94 497
194 417
353 430
407 460
389 458
63 318
156 204
287 318
179 277
381 483
56 456
19 188
301 344
114 322
80 318
29 115
265 348
435 459
71 112
271 338
112 332
5 258
133 349
302 444
29 412
86 343
14 496
142 165
56 294
131 180
23 354
199 423
226 333
27 103
266 451
146 305
69 480
71 150
74 438
30 281
169 410
84 227
93 363
59 423
4 492
248 492
47 334
37 356
97 217
316 445
83 410
189 284
16 33
273 406
3 317
116 338
141 407
35 236
1 268
55 241
3 330
225 238
102 180
239 261
77 490
191 238
206 246
135 206
293 434
55 407
148 299
451 491
24 377
25 160
244 330
120 226
157 419
285 366
177 301
31 414
34 174
343 408
36 480
183 371
149 207
79 386
157 340
201 240
208 372
54 196
21 261
314 369
176 370
285 432
33 479
275 390
6 490
134 191
263 473
11 384
52 348
43 115
190 230
63 124
124 126
293 310
347 409
422 469
100 247
63 461
29 173
123 190
161 349
143 421
56 117
165 445
260 391
191 361
85 246
113 213
114 358
167 496
62 158
65 106
251 323
17 271
19 329
4 19
82 107
118 145
32 204
160 497
89 397
108 479
365 456
113 311
331 376
227 315
65 436
143 295
50 288
178 237
288 405
37 38
203 258
222 226
95 368
64 204
83 344
430 495
126 414
236 458
169 263
340 472
13 398
35 426
37 280
277 489
102 374
49 378
267 271
70 208
199 388
55 164
2 80
59 161
352 405
26 90
174 210
12 217
451 459
468 491
107 349
73 477
129 339
3 422
334 368
106 427
101 439
148 344
370 459
206 210
10 345
229 339
272 457
103 382
163 189
201 498
367 453
25 188
153 375
138 485
11 113
195 236
68 102
110 409
57 275
100 343
234 413
201 408
153 378
151 269
6 71
135 353
48 329
157 169
90 252
284 300
30 472
413 496
180 493
57 94
9 195
63 400
284 323
105 426
252 463
199 336
19 22
191 316
208 385
216 424
124 241
177 359
42 44
427 474
194 483
412 430
216 343
14 142
166 302
322 351
109 133
188 372
196 226
84 325
32 232
251 476
17 388
255 316
19 466
131 140
60 318
188 491
61 83
335 372
377 422
287 497
14 347
142 268
145 472
311 495
41 159
95 340
117 428
338 459
250 271
69 329
16 331
236 302
74 81
40 65
95 485
261 298
2 133
457 471
245 441
102 274
203 311
254 425
93 117
349 491
44 415
103 188
34 389
230 267
272 274
168 451
97 483
7 442
318 382
361 438
417 484
144 348
262 448
239 317
116 168
262 268
45 148
68 203
54 98
2 288
152 230
225 496
362 476
195 200
159 301
200 210
110 437
186 397
314 326
39 216
115 398
137 336
135 325
263 400
176 314
33 391
342 395
270 468
76 291
42 351
190 303
247 266
85 475
195 375
323 330
18 484
56 207
57 122
223 301
81 268
209 343
119 204
342 446
347 449
39 399
260 456
27 463
134 417
115 269
104 202
32 423
51 453
208 277
131 445
8 432
62 199
155 291
137 236
216 266
197 430
216 307
344 488
108 257
237 419
170 364
133 376
118 174
393 459
86 328
17 471
326 347
54 455
237 308
259 430
98 154
50 281
14 388
217 312
439 481
266 497
188 399
61 119
155 254
193 295
14 311
255 417
133 333
60 177
46 132
359 455
16 439
204 493
112 256
168 242
187 318
4 408
297 402
64 419
391 456
230 368
455 498
415 454
128 287
3 192
64 466
55 236
132 319
279 484
211 402
103 160
16 228
189 442
182 273
59 70
25 90
319 408
361 402
252 481
1 193
281 369
177 256
54 78
419 479
261 416
443 453
281 482
157 335
372 460
96 303
314 346
372 468
135 280
48 386
327 460
432 448
0 37
110 192
57 436
39 252
333 415
336 397
63 202
48 273
9 122
270 432
200 428
313 390
134 355
332 475
52 232
270 291
212 371
327 342
57 150
294 357
51 432
90 470
53 194
282 357
203 221
114 496
351 493
99 412
218 288
86 138
289 468
218 306
165 361
458 485
242 396
82 128
317 446
131 427
108 357
17 378
18 125
271 349
168 447
294 395
60 384
155 444
193 225
377 380
225 306
217 235
271 450
113 266
27 102
212 426
69 495
288 394
130 357
41 70
47 472
430 464
13 24
287 457
153 496
224 487
184 186
23 67
26 165
338 403
70 90
93 155
311 324
400 440
248 348
466 495
255 276
396 454
352 394
26 71
154 176
282 493
293 387
106 169
178 266
107 368
144 390
129 374
40 311
168 268
405 481
82 174
135 184
373 477
211 430
125 268
479 488
211 287
339 466
215 383
72 247
291 343
220 471
239 373
315 333
465 472
322 437
244 294
78 92
101 197
157 339
450 479
31 302
125 223
309 392
312 420
78 207
135 380
48 430
67 90
105 147
158 167
6 491
341 434
227 461
276 359
90 136
199 478
448 494
158 321
56 135
128 276
403 410
132 292
6 277
123 177
146 392
94 466
42 73
99 440
136 142
137 219
265 494
179 368
17 381
180 223
143 469
113 212
204 229
5 468
155 491
29 462
160 387
89 99
108 329
145 209
41 384
98 211
227 429
320 345
28 138
198 350
326 419
164 474
2 493
365 455
331 379
60 283
382 396
99 231
65 395
374 447
231 482
251 416
108 111
236 436
74 427
130 329
38 326
41 162
278 305
65 292
283 365
126 415
316 467
46 188
193 408
47 365
250 347
326 459
163 352
93 255
22 165
25 327
61 385
301 402
49 377
68 419
396 490
35 314
3 280
153 171
173 216
139 328
239 427
44 331
176 364
162 282
1 152
129 451
441 465
370 409
225 378
262 289
138 275
121 441
31 492
365 499
77 286
283 333
229 419
11 112
103 462
110 414
220 298
190 470
10 184
447 461
285 482
33 265
234 410
312 320
76 425
58 172
171 391
228 252
243 260
128 466
57 492
241 383
176 219
152 472
134 152
228 342
90 108
199 450
20 343
243 390
299 488
290 306
30 360
98 324
398 460
75 321
403 438
42 410
178 467
191 319
104 239
53 314
327 431
165 336
38 166
185 370
137 247
265 266
104 382
207 221
269 498
289 412
53 427
165 289
84 471
123 443
51 134
109 132
203 451
172 499
353 434
8 243
249 257
47 178
17 123
60 319
188 484
64 186
193 346
142 269
164 333
37 217
402 454
23 26
107 141
37 170
59 494
117 201
95 484
49 276
178 496
185 409
4 134
25 291
151 295
83 85
250 494
13 258
303 498
235 382
220 233
112 451
258 427
22 48
403 493
279 451
141 329
35 167
3 389
97 482
44 303
196 498
125 308
253 255
35 52
163 203
239 316
244 486
101 315
48 185
103 413
34 356
110 459
392 403
21 90
272 328
152 231
199 280
10 205
405 436
34 215
72 414
110 442
57 302
220 270
186 394
190 498
372 497
33 277
161 216
110 293
134 245
143 431
428 466
158 255
342 392
133 186
76 348
114 235
100 426
156 452
30 309
147 251
132 365
189 396
6 322
9 254
303 388
105 389
289 350
53 237
332 404
27 462
104 203
222 369
18 135
378 449
94 426
170 474
178 362
265 294
104 346
412 435
86 222
179 424
363 455
15 214
271 376
41 335
62 343
246 400
122 162
160 459
226 436
19 384
278 415
383 427
212 407
288 367
19 497
402 411
409 461
374 487
179 350
197 342
127 149
221 368
95 331
61 231
46 133
28 400
16 424
217 473
2 247
40 62
168 243
245 491
173 382
47 293
16 455
59 379
376 485
53 484
286 438
170 359
475 491
380 439
258 399
25 424
245 269
192 439
197 431
429 438
432 486
31 134
125 359
16 229
22 335
262 438
159 226
0 361
201 462
201 312
386 410
281 368
229 362
249 329
302 393
120 311
324 449
147 456
82 271
120 422
263 358
157 255
105 182
96 169
312 376
275 364
205 211
48 274
176 295
290 307
128 410
241 263
318 413
203 392
105 464
52 233
10 201
128 265
132 321
425 473
426 467
446 470
185 313
332 440
80 161
133 185
330 338
51 288
269 425
458 482
296 473
99 492
216 272
269 314
198 480
127 474
109 187
274 400
259 380
133 456
27 200
155 447
86 341
231 483
146 214
75 196
23 380
26 384
278 368
13 134
288 395
17 67
131 199
241 464
227 366
84 237
47 475
108 155
169 297
338 400
340 454
69 256
74 150
112 301
168 239
64 384
466 492
122 378
88 262
92 342
173 243
68 479
451 465
254 486
36 189
457 499
3 332
69 368
25 388
262 427
101 401
373 476
121 307
16 193
73 432
1 179
77 488
185 454
45 74
358 403
36 403
171 487
148 309
153 409
82 465
159 343
181 299
220 327
183 333
443 480
372 442
253 393
110 370
76 390
314 383
171 410
119 480
300 318
30 83
318 319
180 356
253 378
405 408
76 277
294 420
186 309
333 386
134 189
67 234
484 491
323 372
52 350
18 410
54 484
5 160
78 494
6 379
134 332
284 377
213 333
248 274
418 499
260 498
239 344
90 427
18 188
340 482
113 122
114 277
42 54
80 141
246 318
111 236
104 259
56 486
165 268
80 284
155 490
66 195
160 388
179 480
273 479
60 421
47 153
321 378
95 237
445 494
383 429
236 437
222 224
288 379
93 209
61 190
65 315
283 364
50 433
359 441
40 103
321 349
176 248
23 102
316 492
154 499
425 481
88 371
16 496
163 355
61 384
396 483
396 491
254 435
114 403
3 283
104 160
46 415
103 154
141 441
325 428
168 489
22 388
44 324
337 470
279 411
31 94
396 440
77 396
205 343
153 452
121 440
106 428
36 439
220 436
58 75
361 364
278 336
208 468
281 296
305 402
34 176
370 376
243 250
9 406
281 473
45 336
125 226
58 173
78 296
6 69
119 452
178 295
266 414
161 172
381 457
275 420
223 442
314 386
11 430
105 287
413 462
147 222
111 273
204 469
5 132
134 296
66 402
32 302
33 219
137 169
132 281
351 407
134 443
63 483
284 460
289 290
143 443
313 420
5 422
136 171
29 288
412 424
51 280
14 140
56 386
113 247
60 474
298 323
122 143
123 442
341 495
18 66
165 177
23 311
8 244
118 243
322 460
71 203
259 453
98 103
65 406
377 420
194 448
16 318
288 435
166 436
95 342
368 446
50 85
107 140
108 227
164 221
37 169
3 89
386 427
47 256
73 157
74 174
112 373
59 350
83 84
102 272
230 293
12 104
178 320
70 306
168 310
44 409
102 227
139 375
325 384
37 315
97 481
25 124
83 178
102 114
68 166
31 50
215 433
453 492
36 324
115 197
97 338
44 191
101 314
395 431
193 260
228 312
55 473
58 111
133 334
44 78
135 417
103 493
159 303
0 428
312 494
257 307
149 261
82 296
45 436
11 236
105 217
125 134
200 291
197 327
76 462
459 478
77 99
78 260
6 33
9 259
462 497
11 381
135 437
200 434
294 492
149 487
9 364
336 374
237 238
366 498
345 425
123 139
56 64
19 52
57 233
313 343
242 279
260 458
99 354
29 147
128 141
269 388
252 348
90 355
53 285
39 286
261 442
246 358
402 442
89 456
300 430
21 446
368 464
41 334
65 80
122 163
160 460
89 90
142 204
61 87
75 219
203 494
99 209
231 468
288 408
71 175
365 398
38 316
193 327
188 393
154 265
145 442
151 240
3 36
95 330
61 230
352 399
301 311
108 199
23 174
230 374
50 200
69 188
16 56
92 371
74 194
187 417
26 97
196 305
235 349
254 459
130 195
97 412
116 488
172 330
360 366
211 404
139 147
267 422
107 295
144 299
73 411
261 368
319 410
125 471
370 478
79 314
120 201
48 166
177 262
343 497
91 344
220 380
21 125
82 381
120 312
31 308
72 443
91 457
147 459
77 182
45 408
48 388
67 96
30 116
379 434
161 251
125 170
219 429
9 319
392 433
66 312
67 241
105 326
143 172
126 475
110 177
321 475
111 216
78 403
464 483
149 459
52 234
327 336
331 407
425 472
171 236
209 433
378 472
87 304
90 468
53 192
56 92
366 377
137 189
191 374
216 354
14 213
218 304
56 459
320 448
216 273
198 481
126 257
170 334
388 409
341 423
397 469
19 415
131 185
60 369
413 417
366 478
288 396
472 473
292 332
38 344
350 478
65 350
359 404
93 360
256 484
316 457
335 479
338 401
141 178
254 261
224 360
277 466
25 361
316 440
64 385
301 428
212 249
178 441
308 426
77 278
73 85
219 341
340 359
59 134
44 466
444 468
294 332
230 493
420 498
35 145
129 372
148 464
168 270
405 495
44 353
199 330
45 56
211 432
139 191
34 459
235 470
36 269
310 420
117 136
206 245
337 378
229 316
196 459
91 311
422 495
402 420
120 229
303 445
36 483
148 165
77 201
226 382
135 489
33 355
72 471
354 462
238 292
20 95
100 269
135 382
135 456
176 373
92 474
111 143
114 161
190 282
137 366
66 284
413 489
381 405
347 365
5 175
243 428
190 229
157 411
180 443
53 179
401 434
354 359
39 448
317 337
213 317
87 468
430 498
53 292
75 308
144 302
167 284
27 393
228 286
213 430
108 308
75 389
170 403
388 494
65 111
269 462
269 349
189 487
203 473
259 347
278 469
5 355
227 431
28 132
47 152
337 469
89 402
108 474
164 452
23 387
293 472
84 147
142 311
127 223
74 425
93 475
4 316
23 496
248 412
140 300
359 440
126 413
187 267
297 351
193 414
250 345
197 446
222 283
74 139
187 376
127 464
211 301
245 418
68 429
50 144
178 349
55 161
37 406
420 482
153 169
61 496
192 321
293 398
49 456
55 214
262 404
192 496
49 89
240 281
235 434
182 223
205 342
150 313
120 146
229 336
46 382
181 413
272 471
183 291
276 391
115 153
281 303
120 257
157 388
12 393
159 330
96 378
205 440
274 464
215 233
201 320
101 231
106 335
20 115
78 297
6 58
318 376
214 313
15 312
72 322
381 456
128 468
294 449
24 229
66 352
105 286
0 158
128 323
57 99
81 293
105 431
252 458
180 415
18 270
37 84
185 263
114 423
42 408
2 130
216 427
96 362
240 273
38 164
284 481
242 323
259 486
189 328
0 470
78 174
123 460
198 414
396 424
292 316
133 449
27 258
47 207
86 291
17 488
445 495
122 255
86 402
89 494
307 419
37 118
203 338
131 241
355 367
283 474
302 362
186 426
198 233
41 156
95 337
297 298
175 329
144 147
285 459
169 352
98 326
61 306
335 407
391 481
411 431
250 381
92 360
331 456
40 467
206 480
297 452
245 390
192 318
46 73
233 454
107 429
73 109
384 448
37 394
292 387
168 311
352 436
221 355
192 429
139 374
392 458
31 172
70 322
58 266
25 67
282 338
215 432
70 477
73 335
370 443
134 240
101 313
138 309
162 431
346 432
128 227
55 472
148 238
24 436
350 354
72 384
336 386
404 455
67 391
248 484
315 416
20 23
319 387
428 460
195 491
345 410
114 233
115 256
66 324
87 190
270 330
146 300
121 125
185 434
294 380
42 493
9 252
156 373
123 138
252 494
473 495
146 447
111 421
263 369
27 448
191 349
104 205
216 391
380 394
308 479
165 370
114 346
170 472
259 263
28 46
29 259
123 488
108 380
289 446
237 416
332 372
80 485
479 487
47 227
393 456
322 446
179 475
237 305
187 358
206 390
377 470
32 247
86 446
17 101
164 284
4 357
147 244
270 474
374 485
47 449
359 371
197 340
179 249
3 39
169 307
391 436
260 317
69 298
17 135
164 242
102 418
76 211
50 201
396 477
73 184
182 458
112 402
301 493
167 228
79 118
245 410
304 351
121 164
49 391
267 328
88 475
396 428
235 348
398 463
148 428
349 381
73 363
75 374
187 255
116 143
44 156
138 297
34 134
91 347
54 77
325 450
149 183
67 466
33 326
181 326
309 433
257 286
96 290
142 238
300 340
245 304
241 436
308 491
176 473
15 368
381 496
219 477
111 219
204 399
293 377
440 480
195 340
141 469
18 455
54 393
66 475
284 390
303 410
51 437
323 440
68 356
19 83
38 157
184 222
39 428
27 428
209 449
191 369
85 222
86 137
458 480
131 410
39 317
317 443
246 323
216 274
145 234
94 279
95 122
98 202
99 127
118 137
84 265
269 448
240 454
74 291
56 298
166 275
259 399
98 189
227 259
51 113
288 397
217 281
41 75
23 495
61 152
193 256
414 438
231 328
13 21
287 458
142 459
2 294
40 141
331 446
23 92
151 395
173 463
69 270
71 432
74 148
112 303
260 427
64 386
49 338
178 438
483 485
163 470
364 461
410 476
192 358
144 341
49 419
451 467
13 328
55 205
239 400
40 314
3 334
106 431
139 190
233 303
129 484
44 241
135 202
68 255
162 356
36 413
244 468
24 381
116 227
232 480
195 244
125 444
120 218
162 471
219 234
257 457
78 163
400 485
153 264
210 299
30 198
379 480
194 343
253 391
257 378
78 210
52 425
90 228
238 404
28 152
137 365
321 472
33 76
87 241
42 274
78 492
81 312
63 120
247 463
378 394
87 358
135 409
421 476
111 364
9 52
63 457
446 451
152 213
123 178
51 401
109 123
113 120
313 398
242 348
317 366
341 362
137 216
191 405
104 261
237 471
113 201
448 470
167 492
5 465
388 495
317 479
85 99
329 338
108 324
71 80
109 157
41 389
160 346
140 463
322 486
86 375
89 401
210 272
113 299
84 167
23 386
61 75
136 382
264 307
193 371
377 398
142 308
74 470
4 317
50 431
359 443
362 493
37 179
40 105
307 424
316 494
236 426
50 62
360 386
59 308
26 55
137 272
88 484
141 294
254 433
129 294
330 353
49 463
106 136
35 140
384 404
315 396
172 275
135 153
103 229
59 390
205 341
22 373
44 213
172 418
211 316
34 351
0 339
24 345
268 493
44 100
101 149
254 364
67 285
177 333
72 101
0 450
385 450
205 439
145 307
9 404
82 322
10 167
67 426
185 187
149 336
78 302
266 412
452 487
76 315
149 449
11 416
87 149
0 159
147 224
466 499
383 449
6 357
209 367
156 274
378 430
338 361
403 443
132 283
80 220
299 378
15 78
143 389
114 311
99 473
118 471
287 288
216 347
301 334
169 171
170 372
133 256
122 141
194 366
322 347
160 418
14 61
243 419
27 178
84 321
366 465
89 493
307 418
127 365
329 446
2 460
98 101
117 263
224 313
50 448
16 304
89 286
307 467
74 458
175 328
13 93
142 387
4 416
248 296
141 249
1 430
273 449
420 432
112 432
279 367
161 399
202 328
40 355
150 248
44 411
230 426
196 366
34 385
1 328
135 253
282 339
121 489
401 458
177 399
286 379
187 210
132 280
244 481
232 425
150 235
414 479
1 106
165 490
58 109
115 116
244 272
82 407
120 286
176 208
195 204
21 456
149 259
81 213
285 451
76 456
39 212
149 372
190 320
10 42
130 162
257 347
270 472
162 225
256 358
211 398
209 314
413 464
180 461
109 289
219 353
437 474
111 311
8 342
134 266
195 264
158 412
53 234
19 54
168 470
332 407
407 423
143 487
191 348
339 360
14 255
52 54
308 472
327 396
240 318
94 425
167 295
170 473
65 165
66 150
344 492
18 21
56 416
222 269
167 436
189 220
218 257
29 435
341 385
274 314
113 354
131 351
117 362
8 146
65 455
249 290
88 96
89 457
307 446
255 476
75 170
38 306
380 475
65 368
18 50
47 448
2 323
240 366
406 417
335 453
391 439
207 468
144 240
71 463
311 380
380 496
98 363
26 252
46 251
175 477
16 58
2 101
187 419
408 436
87 383
49 390
144 414
36 132
168 276
346 455
242 497
139 149
16 216
35 68
272 370
276 346
383 461
46 324
346 482
163 232
79 260
281 373
103 386
343 499
183 362
77 291
43 479
244 372
124 258
305 472
72 445
21 492
43 364
152 153
11 266
52 470
159 402
20 52
369 382
243 293
392 435
11 411
158 222
128 413
256 322
111 218
424 473
63 71
247 490
152 254
394 496
146 273
111 331
39 478
42 462
354 492
119 172
66 472
123 169
90 466
53 206
165 388
111 440
407 459
9 104
66 75
184 436
384 456
380 431
39 316
298 411
118 287
341 380
265 327
51 338
127 455
53 480
251 415
278 463
193 229
32 165
89 436
326 443
255 355
146 213
184 480
51 112
17 64
41 74
60 226
140 266
287 437
179 212
142 456
325 391
311 467
166 498
60 81
391 411
197 472
74 149
277 464
116 296
350 463
102 335
47 314
306 320
92 337
273 393
245 429
168 353
153 211
117 130
154 188
173 240
230 483
68 474
88 440
141 402
97 446
25 393
7 361
68 361
286 288
107 261
272 350
92 119
310 442
58 451
21 189
225 338
241 435
121 417
36 414
24 382
43 426
138 246
145 405
36 493
183 334
238 410
78 160
443 485
130 483
200 238
171 415
9 456
120 453
180 359
204 349
24 139
6 495
263 468
67 239
87 240
224 431
241 288
39 109
78 493
81 319
11 390
238 247
39 450
208 388
9 59
265 385
85 256
204 400
180 279
38 190
80 128
357 386
118 456
155 382
66 175
75 391
300 322
65 109
66 222
29 458
179 485
146 166
98 239
133 444
136 400
28 134
331 383
23 413
61 74
178 397
84 157
377 397
50 477
69 463
288 426
127 217
130 325
166 399
353 372
185 215
173 417
16 356
144 169
22 206
297 349
26 133
248 269
178 456
16 499
344 418
236 342
2 186
168 206
223 261
98 275
117 245
376 433
215 298
220 226
112 475
340 364
116 435
173 212
444 456
174 215
36 220
384 405
130 137
376 494
44 327
123 145
163 211
201 356
58 487
31 488
159 167
195 397
44 101
48 96
327 491
181 268
128 136
21 435
6 169
157 307
214 460
159 453
253 426
238 454
76 421
183 451
199 251
101 118
214 319
416 482
39 128
223 423
215 449
176 482
330 460
143 230
91 209
110 111
39 338
235 271
228 478
156 275
363 452
161 387
180 409
240 388
256 441
403 442
42 390
351 400
9 87
284 463
246 306
216 429
89 161
94 434
76 105
132 171
8 409
407 499
155 346
104 354
86 182
271 288
180 191
143 309
19 251
296 404
388 460
47 201
32 126
269 383
400 498
240 241
3 488
41 480
80 394
118 246
28 234
341 349
421 441
307 421
111 259
75 129
41 113
154 304
136 283
215 438
433 463
145 467
37 197
311 490
267 459
356 408
154 419
198 287
88 163
287 397
236 299
164 216
23 135
61 304
248 297
368 417
47 269
126 270
73 130
2 158
259 274
371 421
121 434
279 366
16 110
35 218
310 320
399 453
130 250
272 418
277 377
116 407
216 240
172 353
102 230
68 274
31 174
215 477
325 397
272 279
129 434
135 252
83 183
12 329
106 124
72 164
271 444
21 245
150 475
101 295
203 474
125 421
390 427
148 232
21 102
81 187
120 287
128 225
72 386
186 406
149 258
43 259
157 279
390 396
198 382
459 467
186 377
78 267
6 36
100 455
87 203
345 408
128 434
111 193
152 312
305 356
321 391
234 258
270 328
147 255
185 432
223 296
260 294
8 343
156 375
29 255
252 488
56 67
240 416
347 452
185 289
167 337
80 185
354 440
27 450
265 473
216 393
14 252
180 236
80 328
104 350
344 493
17 313
109 211
237 414
147 428
227 289
86 333
14 30
74 269
60 360
298 437
62 298
28 206
47 82
50 274
341 369
14 393
292 299
75 173
350 481
61 114
476 491
251 423
84 213
175 254
362 403
234 405
292 442
224 464
23 58
61 227
83 279
188 407
35 408
352 372
37 475
330 343
277 300
116 324
139 263
37 428
206 365
337 386
221 382
34 418
16 217
35 71
36 276
286 415
349 379
97 258
172 468
138 324
410 481
72 192
353 387
239 348
190 349
101 347
106 483
459 498
343 498
54 67
1 117
91 458
340 412
21 491
100 276
281 406
287 375
30 123
290 476
54 365
147 317
144 478
96 403
24 176
171 451
9 316
143 169
226 362
132 446
24 223
394 497
219 332
20 267
114 410
42 463
169 364
66 473
90 467
53 205
75 269
226 263
256 344
80 165
389 457
104 299
362 378
434 484
32 55
86 254
108 354
273 475
113 188
60 413
23 267
189 255
28 163
104 457
224 375
94 164
131 186
99 206
27 125
170 223
212 439
51 115
127 292
221 319
131 203
28 321
169 301
193 439
328 394
268 283
364 440
224 363
97 211
50 235
2 70
187 462
25 287
64 307
180 484
378 455
92 449
30 324
258 367
334 386
373 472
139 176
379 393
126 288
63 466
224 230
55 124
473 489
103 336
34 313
0 329
205 256
244 474
82 461
465 467
232 482
195 246
31 388
77 198
456 465
43 314
199 274
135 490
85 273
307 497
196 212
159 480
135 379
263 326
185 320
52 427
345 423
147 345
241 342
204 350
21 368
149 427
258 280
67 238
30 486
33 66
15 342
76 352
132 402
243 433
299 387
194 247
492 496
347 415
366 425
223 352
99 302
63 459
33 172
109 121
114 273
431 463
189 289
38 194
218 490
32 484
306 461
75 390
325 350
5 479
62 128
266 333
86 282
108 326
143 321
214 474
274 496
94 241
123 259
251 310
326 420
329 384
113 297
424 428
278 347
133 460
136 352
88 89
86 484
198 226
127 216
203 312
274 466
387 433
61 186
65 319
430 497
359 437
16 357
145 391
248 480
169 265
61 299
83 463
411 452
197 443
254 292
74 182
168 207
216 281
46 48
233 495
88 486
70 202
182 432
37 403
330 367
3 287
410 473
46 419
230 396
253 406
16 146
144 487
40 280
172 269
272 443
142 234
129 454
187 200
10 323
121 444
174 475
181 410
73 289
1 12
220 432
24 347
43 393
10 210
138 495
414 458
222 436
309 326
57 277
325 424
43 294
346 388
124 331
34 63
115 440
63 184
135 441
0 226
76 309
85 449
266 365
33 110
0 145
260 323
280 385
299 495
105 428
158 422
15 475
109 460
146 342
57 209
39 481
422 491
118 442
228 430
191 314
104 212
32 401
89 160
218 324
75 469
111 499
189 325
118 469
66 176
216 349
14 144
53 438
331 364
368 424
131 468
60 470
259 475
27 263
65 72
122 139
179 448
140 433
326 369
274 468
170 261
118 247
212 376
51 58
307 420
329 444
93 395
75 128
307 480
259 457
0 414
283 479
89 284
166 424
61 222
193 462
159 452
307 322
37 341
130 473
95 483
23 134
230 334
13 428
2 159
277 279
49 408
68 396
107 430
159 419
25 471
44 405
149 350
373 495
46 447
174 240
68 275
387 447
309 466
35 170
360 492
239 458
21 131
61 391
83 182
174 355
137 318
144 338
21 244
24 264
22 279
332 476
12 473
91 368
201 400
481 483
24 439
234 283
232 314
486 499
34 208
200 216
183 433
208 323
48 412
11 224
34 67
21 327
495 496
134 238
48 363
331 337
219 498
256 376
299 442
119 341
52 274
203 490
294 371
223 299
260 295
30 329
15 63
165 494
185 288
114 454
284 298
209 474
85 199
32 445
180 237
19 169
114 345
167 289
80 329
189 361
246 378
104 351
123 493
51 376
14 108
289 435
296 369
187 340
136 474
155 470
212 228
269 354
198 264
56 273
75 223
151 497
98 148
99 213
65 453
84 359
212 412
88 98
341 368
288 356
329 344
131 238
122 385
401 485
71 312
93 256
3 40
316 365
95 438
83 278
28 493
13 127
463 494
217 476
59 257
95 455
391 454
225 346
2 99
195 302
224 319
44 490
64 296
134 257
233 423
70 274
182 376
22 465
150 154
334 423
53 148
154 201
373 451
401 403
325 352
1 170
239 494
361 375
150 373
202 324
48 203
49 102
0 366
163 234
36 356
22 307
430 446
232 391
31 419
36 459
220 376
171 292
372 419
120 316
157 329
305 478
16 171
181 323
318 389
322 457
190 403
372 466
374 492
157 250
72 270
181 244
189 271
241 425
262 454
186 282
119 392
269 412
67 245
200 466
260 372
464 487
156 293
150 186
146 271
20 276
260 283
29 194
109 404
327 477
114 490
99 386
63 295
191 370
85 219
470 485
90 323
384 494
293 302
131 415
39 318
80 309
136 175
320 452
32 72
143 364
131 300
84 276
32 167
71 254
56 301
75 251
41 63
264 282
249 316
88 126
89 299
292 328
4 324
61 149
154 361
143 308
47 486
107 187
14 277
17 215
236 320
4 491
98 410
188 198
335 475
84 89
70 92
163 330
435 497
28 31
221 448
3 149
371 495
173 349
49 343
50 232
177 457
112 433
102 220
88 442
107 374
1 261
138 270
40 317
225 231
334 387
232 445
45 52
192 488
211 436
306 416
35 98
58 449
96 116
315 466
31 473
443 456
291 349
315 323
105 123
34 169
309 353
148 161
86 347
7 158
30 197
246 455
241 452
21 270
33 464
52 436
244 493
253 373
114 221
244 268
24 141
62 271
195 420
158 312
342 437
270 406
20 185
223 466
425 431
461 473
29 53
219 227
52 202
53 191
36 491
189 463
119 178
183 324
51 402
252 273
94 468
114 270
227 245
85 255
216 322
269 456
75 441
296 442
167 489
133 297
317 476
84 441
123 405
195 358
203 477
98 237
170 302
212 357
50 328
324 404
108 470
292 349
38 489
131 153
95 232
278 344
151 202
298 394
372 488
212 329
17 34
164 343
217 364
98 463
64 195
155 188
283 355
287 427
126 385
442 448
4 463
372 469
197 442
163 358
71 401
385 422
316 344
292 360
301 396
139 497
68 425
88 487
107 453
30 119
371 376
408 494
192 325
362 409
139 334
286 499
35 177
82 140
181 233
68 335
361 451
348 368
453 499
101 257
11 25
358 432
1 3
58 84
25 133
153 376
210 379
48 98
177 322
106 312
91 388
77 233
149 236
82 321
101 227
124 324
224 399
312 326
58 182
243 366
81 127
149 438
101 116
232 253
105 369
342 358
270 451
452 482
200 411
207 254
314 399
247 319
226 445
290 372
54 453
20 349
369 405
328 408
209 364
149 465
66 495
303 494
394 438
219 475
240 390
111 397
39 480
104 213
160 199
344 356
470 484
39 369
62 210
228 318
375 441
447 468
67 184
380 465
19 253
419 468
42 166
65 79
84 477
122 136
342 482
86 295
17 492
164 405
56 374
222 423
353 436
460 488
227 463
32 239
341 347
472 486
255 293
184 410
383 420
26 453
245 255
136 285
355 403
193 348
252 385
179 225
307 468
270 288
40 185
154 417
50 78
282 477
71 484
418 495
383 470
224 421
4 419
316 397
46 226
140 163
13 427
16 465
163 258
241 351
55 129
330 384
7 290
154 242
374 411
31 168
34 412
235 261
58 278
168 458
223 367
398 419
83 185
102 119
177 396
35 58
24 265
97 341
7 448
120 178
106 397
58 104
367 486
208 437
249 490
101 182
138 384
116 400
12 425
305 433
432 474
58 219
81 202
13 371
48 413
366 376
147 291
235 303
24 86
260 429
214 345
290 297
149 482
209 319
137 426
15 393
146 296
111 304
223 298
260 288
242 343
299 458
156 369
85 341
213 256
327 408
244 370
39 388
42 120
317 359
407 416
85 198
216 395
186 194
289 449
18 129
39 277
133 208
62 206
84 386
51 379
363 445
259 262
422 424
28 89
47 239
194 369
123 349
198 265
326 338
184 455
203 485
95 147
188 279
117 375
99 212
377 474
251 497
93 494
38 305
421 439
151 242
47 461
60 72
23 52
61 225
154 389
88 129
16 430
126 473
145 334
93 176
385 410
210 242
141 282
70 128
202 280
3 201
116 326
153 244
477 498
121 168
143 353
31 255
69 72
141 363
55 229
40 322
3 342
455 467
206 371
118 342
192 397
70 418
25 35
302 409
45 96
49 101
12 367
1 53
97 369
244 448
31 418
72 81
181 465
1 75
81 165
360 364
159 270
5 363
0 397
76 408
149 292
120 428
52 465
128 481
147 319
241 424
294 434
24 178
137 373
105 329
90 191
54 274
256 325
20 166
280 331
299 409
356 468
15 493
109 258
219 334
243 495
63 465
191 236
29 193
378 485
309 383
117 321
38 145
42 92
80 167
134 388
29 370
269 419
300 441
21 427
165 274
41 284
39 313
370 383
133 308
27 337
320 453
265 324
17 283
127 448
75 109
278 450
189 253
251 300
74 303
271 459
4 182
26 394
178 193
86 478
17 69
40 226
113 412
379 458
207 382
28 323
231 324
142 463
37 155
23 88
61 261
335 474
46 171
122 277
140 148
359 480
16 394
35 438
130 414
25 364
409 425
83 418
439 468
233 497
250 433
348 394
159 440
187 448
153 208
117 143
122 408
196 274
88 443
25 398
79 199
83 128
1 181
441 446
386 457
225 343
79 372
229 295
358 405
106 434
0 331
73 267
291 348
367 425
205 318
158 159
150 385
44 124
120 234
287 407
106 453
72 77
91 443
110 389
129 154
96 339
78 167
67 434
196 214
234 417
54 220
76 444
77 85
43 333
171 400
130 462
157 221
33 471
241 340
43 218
119 367
33 64
241 293
42 286
243 435
190 238
66 392
104 107
195 308
218 255
114 444
132 291
233 407
29 165
51 405
323 408
18 182
146 387
94 469
383 480
351 462
227 244
29 342
308 403
126 276
80 274
298 361
200 480
51 179
71 76
364 409
133 441
231 394
86 395
14 468
373 395
203 429
131 152
278 345
27 91
193 375
302 339
38 377
64 196
283 354
122 454
140 297
144 172
130 499
352 470
387 448
206 393
151 280
178 341
12 66
50 141
69 127
107 452
100 440
92 304
93 105
330 365
116 446
334 365
172 376
279 436
173 209
49 451
267 404
196 374
197 219
272 302
394 429
172 271
139 222
68 328
196 389
97 328
206 218
262 280
67 368
34 347
0 343
153 177
25 132
244 312
138 493
67 257
34 202
110 417
55 352
77 232
356 370
82 318
101 226
25 417
196 202
76 416
433 448
333 463
270 448
381 451
54 299
349 466
132 481
115 299
134 147
247 318
123 124
0 147
57 102
20 350
5 142
78 460
81 280
66 492
284 347
32 292
158 420
161 384
109 458
165 456
39 483
5 31
99 332
299 382
348 449
19 143
184 232
242 380
191 437
216 351
15 251
204 219
167 396
388 463
194 362
412 469
145 182
255 343
240 244
320 480
353 459
448 481
251 468
186 241
164 485
292 306
184 411
113 459
60 310
155 234
175 231
16 308
299 312
127 254
292 385
19 243
95 348
86 211
61 220
262 314
268 410
299 322
187 298
391 476
47 270
40 472
168 173
352 474
116 355
151 316
279 363
230 479
436 485
13 315
141 326
126 156
129 262
40 359
258 418
97 394
46 445
233 346
35 172
36 243
379 429
480 493
82 113
183 220
414 490
35 61
382 452
183 237
44 181
67 364
34 383
128 248
21 99
295 324
79 477
300 478
303 417
238 374
115 489
281 447
135 300
105 195
33 302
125 128
57 416
322 406
459 468
186 260
184 454
261 342
321 491
294 486
149 481
247 258
188 278
11 448
30 316
158 369
53 69
54 422
256 489
114 117
260 289
99 283
186 342
195 268
161 428
300 466
199 300
18 496
57 243
27 455
471 495
213 496
216 396
296 484
204 213
167 291
317 402
66 146
123 495
86 209
218 457
19 280
324 496
5 277
212 303
278 366
179 478
142 214
274 310
203 484
13 155
329 350
166 325
38 310
350 484
335 336
326 449
65 372
122 399
197 351
17 233
37 230
37 50
224 467
481 484
248 473
301 305
193 424
47 445
70 118
97 180
95 449
26 248
47 290
175 473
178 399
141 281
328 480
36 49
74 204
202 281
2 356
59 368
360 445
371 386
63 152
126 184
1 319
37 425
169 493
429 431
360 465
1 168
129 403
239 488
168 423
69 353
206 227
48 205
103 297
125 465
162 349
138 320
22 305
10 281
34 131
110 494
183 358
21 391
295 360
261 424
82 375
287 389
119 442
459 487
91 463
57 339
337 435
348 470
186 425
157 248
105 191
124 397
128 482
147 318
111 113
292 493
149 404
78 362
171 452
119 394
342 431
219 464
111 230
80 122
152 279
390 476
156 295
104 112
11 492
176 451
270 299
327 334
223 265
8 374
100 196
228 401
123 173
56 98
165 384
42 93
213 498
100 171
169 321
87 447
30 455
41 259
170 441
13 437
27 336
320 454
356 396
393 414
17 282
400 430
53 492
455 456
4 32
278 451
143 236
62 378
212 323
213 246
86 364
71 248
56 303
113 258
41 61
23 373
190 228
86 479
38 338
131 204
88 239
273 355
112 213
26 173
338 395
102 496
250 335
287 326
112 292
221 478
116 308
64 391
250 446
73 95
1 490
2 69
26 79
173 236
102 210
139 292
68 454
92 476
40 319
3 437
150 164
267 395
218 222
83 131
35 100
79 94
55 121
44 238
172 443
10 426
328 490
31 496
417 420
272 481
208 495
25 175
45 212
103 418
110 394
92 145
286 412
149 214
300 422
157 299
379 487
196 215
200 274
312 428
257 381
21 268
120 457
206 370
36 163
385 465
82 196
156 404
263 464
11 443
30 485
76 355
42 287
243 434
132 180
100 105
66 393
218 252
76 242
191 259
51 404
199 244
327 451
132 179
265 493
265 278
291 464
15 230
165 353
60 461
191 481
85 110
322 368
363 388
218 385
325 331
98 235
103 290
227 469
302 481
429 487
86 392
108 464
74 320
75 153
207 428
298 392
374 439
302 336
140 347
88 92
142 313
311 386
61 183
174 383
107 153
316 491
145 277
91 303
297 466
61 409
46 55
139 499
107 455
126 353
73 123
341 459
154 156
46 422
12 210
13 359
16 149
40 283
258 334
49 83
361 449
34 489
70 491
129 475
229 346
11 27
174 437
343 454
338 414
96 129
169 218
285 329
31 357
399 411
91 390
271 415
257 296
172 189
300 394
124 326
31 266
253 422
0 118
238 458
21 288
6 60
122 218
162 214
0 229
114 255
132 482
9 377
413 455
256 270
76 135
204 460
243 398
346 380
32 293
128 167
114 417
133 485
134 434
356 358
29 136
218 323
132 151
99 476
320 415
137 255
85 145
123 450
302 467
363 467
15 250
165 297
113 232
244 339
298 330
393 470
74 277
237 327
184 301
41 484
259 445
227 497
51 63
142 362
93 392
365 419
95 206
278 378
207 384
245 253
27 38
264 468
175 230
13 199
288 458
142 277
292 386
224 456
41 134
26 370
248 446
65 280
157 287
257 368
50 76
268 411
108 218
130 468
98 320
335 413
173 274
47 265
70 154
73 134
2 154
168 174
245 384
83 93
230 476
13 314
70 309
182 403
130 246
116 403
7 284
83 202
432 498
70 324
246 250
186 193
365 421
480 494
7 429
139 253
12 325
162 310
35 60
73 369
36 323
187 233
25 246
153 425
177 275
294 445
180 362
309 310
135 328
55 470
367 480
171 317
101 180
253 473
91 482
309 423
147 436
45 429
105 194
437 453
76 453
78 271
228 403
48 366
176 307
105 339
345 412
241 275
313 495
81 490
335 432
52 285
209 334
284 440
323 450
87 293
403 474
354 436
63 268
197 447
289 455
308 421
270 415
41 294
393 398
62 204
246 377
249 459
216 316
108 378
15 222
170 341
136 477
122 170
52 265
17 462
146 234
98 147
151 159
99 214
264 353
50 270
223 382
131 211
4 355
188 384
26 295
154 272
155 201
84 209
111 302
231 290
362 415
37 229
311 458
387 394
28 488
36 37
236 267
74 122
93 142
187 329
304 491
126 302
92 330
74 205
202 262
439 471
22 101
79 124
226 384
192 272
301 466
304 378
68 483
13 350
36 129
392 484
59 224
219 499
121 287
68 370
349 389
21 164
79 146
45 94
48 206
121 392
58 411
7 38
416 419
358 382
31 428
264 348
54 71
201 433
200 241
171 281
7 183
351 396
303 322
309 443
129 382
314 355
78 248
10 120
279 469
33 457
383 477
162 175
111 112
24 180
43 240
336 390
134 201
156 433
11 414
290 331
101 236
152 280
137 452
344 374
105 472
252 409
270 296
185 464
114 406
132 329
260 262
14 431
100 197
137 279
284 412
323 446
161 335
327 478
240 448
38 151
242 306
65 235
32 476
51 296
89 157
289 483
19 198
293 299
41 258
235 476
143 361
350 398
169 230
23 263
80 455
133 323
27 192
320 374
28 191
212 332
29 402
86 365
203 245
142 179
237 271
331 342
265 290
193 361
170 443
71 136
164 318
292 331
421 425
409 433
355 429
140 263
13 15
112 214
3 9
95 407
69 264
35 440
328 398
22 150
61 372
139 470
16 27
4 89
121 330
451 473
170 353
325 432
239 414
3 436
7 356
83 130
103 255
31 98
246 412
35 103
397 411
386 455
44 239
46 357
162 382
148 317
244 469
205 316
116 233
153 353
48 121
183 288
30 185
31 384
181 307
257 451
205 397
6 198
48 456
33 356
418 491
200 275
238 303
115 416
190 434
120 458
157 219
0 26
43 220
302 488
208 264
52 294
76 156
280 425
100 106
33 55
331 341
238 248
366 429
42 431
80 246
99 338
345 396
156 187
161 363
18 180
19 117
203 240
39 334
136 183
265 277
104 267
86 175
356 441
448 471
62 132
157 347
356 417
85 109
32 87
146 163
113 348
259 320
23 299
8 192
155 403
140 453
348 461
17 406
71 223
164 451
38 492
131 154
259 465
99 238
193 373
43 377
110 357
217 383
127 196
171 332
202 237
130 350
113 446
60 131
98 458
83 354
122 452
50 425
142 425
40 111
98 445
145 492
50 56
13 388
16 488
238 488
51 136
383 396
112 153
3 242
178 182
297 465
316 347
245 427
282 423
12 124
178 340
107 454
310 377
37 415
420 489
247 432
371 381
172 378
282 470
102 255
88 409
272 288
158 191
211 341
68 330
215 421
382 430
55 92
115 241
187 204
44 211
337 351
67 370
358 439
106 404
36 447
148 209
21 77
205 288
268 494
225 482
82 429
101 159
67 259
31 356
376 466
110 423
257 303
77 230
149 233
261 495
169 300
300 395
157 270
387 485
159 448
110 278
316 453
58 181
6 61
190 430
120 486
416 487
270 419
147 377
204 382
115 301
78 419
193 438
66 379
320 419
199 437
128 346
147 230
76 128
294 331
132 370
394 437
18 265
146 338
111 398
114 478
42 387
260 478
269 408
218 320
240 264
202 428
241 308
216 289
89 213
59 301
131 461
5 319
29 425
17 481
326 373
175 468
23 335
118 203
217 298
369 402
37 127
75 132
402 428
4 136
151 235
206 401
377 428
69 430
112 143
40 188
98 494
117 434
287 392
236 288
156 272
22 239
64 81
230 299
49 259
88 343
254 324
46 80
139 286
12 96
107 418
328 341
310 325
37 435
330 399
3 383
44 401
154 241
230 460
432 499
107 307
325 392
129 437
225 300
33 254
192 467
174 359
286 381
159 241
73 368
258 470
235 358
367 370
48 178
206 256
34 381
91 372
220 400
336 381
153 345
101 179
305 438
474 487
419 442
149 269
48 400
285 477
36 186
159 420
267 396
312 357
459 470
149 382
428 459
147 149
156 252
134 381
199 227
52 286
401 482
128 294
382 479
209 333
119 198
66 462
284 441
155 354
195 270
40 258
19 60
132 229
299 348
265 476
375 489
32 433
51 463
269 444
15 168
53 357
38 251
296 486
114 341
85 180
90 282
184 347
258 290
4 78
42 153
479 492
27 231
194 332
89 418
334 457
38 421
131 325
95 156
26 437
249 292
377 479
246 383
251 498
21 187
17 94
326 480
184 441
315 432
193 317
271 359
74 488
244 436
41 225
95 434
341 351
193 430
47 447
340 427
69 275
126 476
130 441
203 486
97 202
169 325
391 450
49 303
250 408
69 164
273 423
37 454
420 466
224 307
187 441
206 455
279 393
301 465
49 440
31 248
141 360
373 463
174 272
196 328
34 447
16 222
382 407
358 425
186 226
59 80
315 458
229 256
10 274
291 421
269 480
148 282
153 388
232 414
120 209
236 274
346 415
401 420
184 294
81 154
79 435
82 373
210 318
450 497
367 469
241 476
183 401
77 174
157 246
54 75
128 484
57 450
241 429
294 433
336 391
66 304
159 338
180 312
143 180
91 239
147 177
132 443
260 368
232 456
105 479
214 235
252 410
207 497
132 330
119 170
104 129
87 456
18 337
56 100
240 421
20 391
326 396
86 128
87 441
94 399
39 314
42 234
320 472
265 329
104 447
51 344
145 227
237 381
455 458
353 384
27 195
213 244
198 360
71 250
255 361
75 255
94 169
26 393
27 112
28 303
50 307
13 189
198 251
142 297
23 484
83 329
288 499
108 140
130 490
4 471
16 397
368 414
22 151
283 446
61 371
73 93
182 425
2 67
275 325
266 386
102 208
177 239
107 362
235 305
182 344
55 202
116 468
79 192
337 481
10 473
36 309
55 123
221 326
287 379
12 270
395 414
0 334
135 466
77 368
205 315
82 454
30 190
23 48
91 444
175 334
92 147
148 173
244 342
172 219
135 481
219 445
204 351
253 384
96 453
307 382
43 334
283 303
318 324
162 176
182 314
186 314
115 336
152 454
30 491
199 464
411 457
214 247
52 214
75 351
347 402
42 428
280 473
209 405
20 156
29 162
303 327
224 325
143 430
75 300
278 330
369 437
132 189
27 385
169 324
236 354
51 263
108 300
380 457
19 229
293 462
259 306
202 478
298 340
209 301
191 483
123 425
86 287
184 275
301 447
80 420
133 422
136 406
193 219
212 353
176 434
397 497
37 90
394 457
188 474
154 294
212 464
13 161
89 267
2 402
297 310
154 329
83 357
155 176
359 432
267 278
144 175
243 407
37 188
40 80
224 413
246 422
297 327
47 375
250 353
16 489
70 188
163 362
369 423
74 179
93 245
26 62
301 392
13 276
254 440
310 382
202 351
22 34
112 431
211 487
12 204
31 176
325 403
36 218
97 476
7 331
135 150
174 328
12 163
386 424
79 341
138 281
11 29
159 173
367 462
295 349
44 99
82 426
45 310
260 452
12 385
343 433
57 280
183 424
205 432
190 476
172 191
11 251
54 191
238 456
185 188
70 360
21 302
261 383
428 480
124 439
72 330
8 474
384 409
113 125
137 434
284 295
176 408
105 262
109 310
85 445
53 159
8 304
62 71
90 404
94 436
99 478
65 210
271 366
222 280
242 458
5 318
246 386
249 414
122 148
21 162
192 475
41 490
259 447
46 298
329 473
62 304
249 271
322 453
315 461
12 334
203 330
4 137
23 447
154 314
377 435
140 377
142 283
164 375
93 311
59 395
350 414
17 147
273 297
22 236
169 360
61 330
335 415
248 303
122 328
141 242
420 447
181 428
64 449
301 492
325 486
382 487
1 464
129 283
202 371
349 480
165 253
7 286
64 368
49 492
233 351
35 81
276 333
315 417
262 360
49 125
286 354
414 439
162 308
225 412
11 57
177 273
31 458
36 476
276 419
295 321
377 383
30 246
474 484
183 396
21 465
78 226
81 206
82 444
379 417
125 157
222 428
20 31
404 446
336 412
9 266
232 465
247 366
176 309
124 475
140 458
180 293
91 130
256 381
223 385
365 486
81 488
321 409
30 291
52 287
210 354
199 408
204 498
5 239
189 386
280 482
134 269
119 193
29 249
124 185
231 422
56 73
12 428
403 476
244 371
419 495
62 99
209 477
135 220
167 476
317 431
155 316
249 457
265 300
86 212
207 418
184 348
293 390
42 134
274 349
249 442
212 298
104 467
307 405
353 468
151 153
89 466
217 261
184 442
203 374
169 426
188 386
26 293
193 316
430 451
108 169
300 375
2 346
130 263
198 227
98 499
193 429
13 122
16 418
35 414
112 315
59 260
4 387
26 199
121 195
304 493
50 193
178 394
396 469
182 450
224 308
408 443
463 479
106 184
35 252
93 306
258 389
185 209
68 380
246 255
96 109
168 426
225 335
48 192
49 153
208 222
0 355
291 420
171 482
77 331
22 308
11 37
339 432
215 221
1 79
129 178
77 220
79 434
172 240
45 382
67 474
234 329
72 420
181 334
57 336
241 467
372 479
10 102
266 460
294 459
91 113
241 428
294 438
186 295
190 359
60 119
156 435
