70 223
36 68
9 41
2 67
0 61
15 47
2 48
26 53
22 55
13 45
53 59
18 56
11 67
28 35
17 49
5 47
3 51
9 36
63 67
5 60
35 36
8 15
42 51
33 34
11 42
54 58
9 14
20 53
2 53
17 62
5 24
37 51
44 50
32 48
20 43
28 32
0 30
30 39
29 37
0 1
27 48
14 49
52 67
16 41
21 65
29 51
2 11
26 60
21 62
11 58
43 52
14 21
11 15
18 62
30 45
49 51
22 23
29 40
50 69
14 50
31 54
61 63
51 54
46 52
3 17
67 69
15 26
27 59
38 51
7 15
29 62
17 46
5 56
12 24
59 69
22 59
8 51
34 40
52 69
0 62
41 56
6 58
12 41
29 45
25 42
22 52
5 64
26 33
6 11
13 57
28 60
0 18
7 18
5 46
3 50
54 69
22 29
19 64
24 64
37 40
40 66
30 43
0 59
26 38
40 56
12 46
1 58
42 48
20 33
3 43
9 23
32 49
63 68
3 60
8 39
43 63
39 60
19 58
2 29
1 3
23 31
31 50
11 40
12 51
26 34
25 38
18 48
30 31
27 37
9 18
5 23
33 63
44 48
9 33
26 66
6 43
30 52
11 34
37 56
10 53
41 49
46 53
3 16
17 59
20 27
44 53
6 18
32 46
17 24
43 67
36 53
17 44
46 63
8 26
38 46
11 69
53 54
8 43
32 56
39 56
61 64
45 59
30 35
30 67
12 30
2 25
8 49
16 49
20 55
36 56
53 65
53 60
55 66
21 35
11 64
11 23
25 67
22 64
35 37
9 58
36 52
1 55
52 62
26 41
42 50
14 27
4 23
13 62
54 60
3 58
1 24
33 35
2 31
18 24
8 64
31 48
20 62
29 64
10 50
13 39
2 57
1 39
39 43
27 35
32 60
6 19
34 51
25 68
40 44
21 22
4 50
34 62
50 68
3 8
17 35
15 40
14 32
29 67
51 64
43 47
32 67
21 50
4 30
2 58
