90 400
5 31
61 82
62 64
9 84
25 82
36 68
8 63
63 84
27 68
42 62
6 72
67 74
39 45
20 75
44 56
48 59
12 17
19 65
83 85
14 43
58 65
56 58
14 77
7 22
60 62
34 41
17 57
37 54
67 89
19 70
2 18
47 64
9 40
16 29
40 42
10 47
15 70
50 70
35 61
13 44
77 88
42 74
11 26
21 55
3 60
9 81
24 87
15 79
63 65
48 81
11 39
26 85
9 59
40 55
28 67
18 48
39 54
65 75
27 32
23 62
54 56
18 32
0 78
35 43
0 82
16 33
36 44
2 76
31 52
78 84
12 53
43 49
48 61
18 84
15 44
13 47
45 65
76 88
58 62
23 45
4 75
10 34
50 77
11 43
26 65
46 62
64 81
13 49
44 49
21 88
43 71
14 48
18 79
45 69
26 63
33 72
27 62
1 39
87 88
8 47
5 41
27 84
72 76
34 62
50 68
29 86
27 74
77 86
24 30
6 82
25 31
1 6
25 43
5 18
33 50
30 42
76 81
61 79
18 20
53 89
36 39
17 41
50 89
65 87
55 87
10 24
0 30
13 23
32 84
71 77
51 59
57 76
58 66
19 34
54 62
63 72
5 37
61 72
68 74
18 41
44 52
12 13
43 64
83 89
35 69
57 63
36 79
58 60
0 71
22 46
61 65
3 50
31 63
9 13
38 39
3 67
31 69
76 83
30 83
7 87
47 76
68 71
25 62
9 74
58 79
82 83
32 62
25 74
5 49
51 66
41 49
55 88
20 67
51 52
52 55
61 83
3 32
33 48
25 83
4 59
5 58
29 45
1 65
14 30
15 31
64 71
31 81
33 88
46 74
23 58
81 87
36 66
11 80
36 40
29 64
26 66
8 17
39 43
14 45
14 87
12 67
21 47
32 57
5 44
12 89
36 87
51 89
34 35
7 42
40 79
31 71
44 45
1 62
49 53
12 28
27 28
4 10
5 11
29 30
47 63
25 72
67 85
10 41
31 38
26 84
6 60
3 74
4 68
8 31
74 84
38 54
53 70
43 57
41 64
83 86
12 27
19 59
3 28
25 47
59 65
73 79
34 53
27 71
51 77
42 63
16 85
56 76
41 83
25 48
45 77
2 50
57 58
11 82
28 80
35 55
4 80
64 80
45 53
21 89
25 57
73 75
20 40
4 43
19 21
34 71
25 69
67 75
50 71
31 59
5 69
66 85
33 66
57 68
32 50
14 70
72 88
49 74
65 74
12 21
18 64
8 77
22 77
43 72
14 39
60 85
15 38
33 52
73 77
28 36
15 87
55 60
51 79
2 77
38 47
9 73
13 17
41 81
24 55
41 69
3 7
23 73
2 48
35 66
53 59
1 45
36 78
2 42
3 51
33 39
25 66
36 84
10 35
0 1
26 78
6 70
10 13
65 68
44 50
45 51
16 78
19 75
7 84
19 49
57 65
34 69
52 85
63 69
35 62
6 57
40 89
25 30
15 23
22 86
1 5
21 74
57 74
2 60
0 84
62 66
27 44
8 61
29 46
51 72
17 40
40 64
1 30
0 53
46 69
18 88
1 48
26 40
5 26
55 63
13 65
54 81
49 65
10 28
66 81
27 46
67 87
56 80
15 41
2 14
0 88
62 80
11 86
3 53
6 34
39 80
8 49
26 76
10 11
64 84
28 74
18 74
1 2
25 61
28 30
33 77
27 51
25 39
5 22
23 39
63 71
9 53
3 75
54 69
51 69
66 83
3 81
31 43
25 28
11 17
14 62
47 84
22 78
33 70
68 85
51 55
15 37
