90 3963
32 54
14 74
21 28
4 36
8 63
7 25
63 76
48 86
25 65
33 41
16 47
73 82
1 64
2 78
41 57
78 86
27 46
12 59
15 30
20 75
76 88
41 74
42 88
5 84
45 61
49 58
13 20
39 70
0 55
20 58
60 81
25 49
8 87
45 78
85 87
32 77
14 77
53 62
1 40
57 59
17 20
4 35
8 38
7 22
48 77
11 83
33 34
16 38
36 41
1 89
2 73
78 89
61 63
26 67
29 44
12 50
17 57
37 54
20 82
76 87
42 67
67 88
45 54
49 51
0 14
3 11
23 84
45 71
32 68
33 74
14 84
70 81
1 33
57 60
21 46
4 42
8 45
7 15
48 68
11 72
33 59
16 29
72 74
42 73
36 80
1 82
2 64
41 43
5 53
79 82
26 74
9 50
54 79
12 41
27 89
17 50
37 63
20 89
76 78
77 88
24 28
5 70
45 47
10 19
66 84
49 52
30 86
0 5
8 69
45 64
40 66
85 89
33 67
70 72
1 58
57 69
21 55
4 17
26 34
11 65
12 81
33 60
16 20
37 87
17 64
41 44
22 30
5 62
26 85
9 59
12 32
51 71
17 43
37 56
77 81
42 53
5 79
6 87
10 26
27 52
30 89
13 63
52 79
0 28
17 27
8 76
32 82
33 68
14 38
71 83
1 51
57 78
58 68
21 48
4 24
80 89
26 45
11 70
12 72
33 53
73 78
36 70
37 80
2 82
5 39
61 74
9 60
67 80
30 49
51 76
34 44
17 44
42 60
5 72
6 78
29 54
29 38
30 64
13 56
0 19
29 81
40 88
31 34
25 78
14 41
83 85
71 72
18 84
1 52
57 87
58 79
21 57
4 7
31 69
26 52
46 51
12 71
36 77
37 89
2 45
58 62
22 40
5 32
61 67
62 83
9 37
30 56
51 85
34 39
17 37
37 42
31 32
6 65
10 12
30 75
13 49
18 60
55 65
38 59
27 64
50 54
33 86
14 48
18 79
1 13
57 88
58 86
21 66
4 14
80 87
26 63
40 56
19 20
2 36
22 35
5 41
9 46
30 35
34 62
15 64
42 46
6 56
10 55
49 80
13 42
21 37
18 55
38 50
25 31
84 86
29 74
11 28
14 59
18 70
1 6
58 81
21 75
22 75
43 82
46 61
69 87
19 29
2 63
22 58
5 18
61 85
9 87
30 42
34 57
17 23
0 73
23 25
6 51
10 62
49 73
50 89
13 35
18 46
74 83
55 87
38 53
3 85
31 84
43 58
64 69
65 73
11 21
54 87
18 65
1 31
58 88
21 84
22 66
43 75
46 68
68 81
25 32
15 33
19 34
2 54
22 61
5 27
62 68
9 88
10 86
30 45
34 48
15 86
0 64
37 64
24 70
6 42
10 57
49 66
50 80
31 54
35 51
18 41
75 88
38 44
4 84
43 51
65 66
1 16
22 69
43 64
44 82
83 89
27 86
68 88
69 86
15 46
17 30
2 49
22 52
62 79
9 65
10 81
40 46
47 52
34 75
0 71
44 69
3 50
24 77
23 47
6 45
10 32
50 75
13 85
52 86
35 56
18 32
75 81
38 39
3 67
4 83
8 22
64 83
28 73
52 68
39 60
25 67
7 87
46 86
47 76
68 71
15 55
19 48
2 8
24 37
5 13
9 74
10 88
47 61
30 31
46 84
34 66
35 80
3 59
24 84
23 36
6 36
10 43
54 68
13 78
18 27
74 76
75 86
40 52
3 72
8 29
7 63
28 64
11 56
25 87
14 23
81 82
39 53
22 87
31 66
44 64
7 76
46 89
47 85
12 25
54 57
69 88
15 60
56 67
19 57
2 3
24 44
10 67
47 58
25 58
52 55
35 89
0 85
20 24
3 32
59 79
23 61
6 31
28 40
32 43
13 71
35 38
75 79
38 81
4 65
7 52
65 85
11 49
14 30
53 65
17 72
39 50
44 63
7 69
40 63
47 82
12 16
16 83
56 74
19 62
2 26
27 80
24 51
10 74
27 60
34 84
0 44
56 57
20 39
3 41
59 68
60 78
23 58
6 22
28 39
47 49
32 34
13 64
35 47
38 72
4 72
60 61
8 11
7 45
63 80
28 86
11 54
16 59
53 74
36 54
39 43
44 54
7 66
51 59
48 49
12 15
69 74
16 74
56 81
19 71
2 21
41 86
24 58
29 62
35 71
0 35
20 46
3 46
60 69
23 51
6 9
82 86
28 62
32 57
25 70
38 67
39 83
4 55
8 50
7 42
63 89
48 89
11 47
16 50
53 83
36 61
44 45
9 21
16 65
17 85
56 88
19 76
20 70
42 87
31 56
27 28
52 59
35 76
0 58
29 61
37 73
20 53
3 23
59 82
23 72
28 53
27 72
32 48
14 64
29 83
40 86
39 72
4 62
8 57
7 35
63 70
48 80
11 36
16 41
72 86
1 78
41 55
9 30
27 47
12 61
15 16
19 85
20 77
41 64
64 86
66 72
13 26
39 71
0 49
20 60
3 28
23 65
8 81
45 84
32 55
14 75
17 21
4 37
8 32
7 24
63 79
48 87
29 43
33 40
16 32
73 81
1 71
2 79
41 56
78 87
12 52
15 25
20 84
76 89
41 73
42 89
5 83
45 60
66 67
49 57
13 19
0 8
20 59
3 5
60 82
25 48
8 88
45 77
84 88
85 86
32 78
14 82
53 61
1 47
57 58
21 36
4 44
8 39
7 17
48 78
11 82
25 88
16 39
36 42
1 88
2 70
31 75
61 62
26 64
31 74
12 51
17 56
37 53
20 83
76 80
42 64
45 53
49 50
67 85
0 15
3 10
23 87
45 70
40 65
32 69
33 73
14 85
70 86
1 32
57 67
21 45
4 43
8 46
7 14
48 69
11 75
33 58
16 30
72 75
36 81
1 81
2 65
17 65
41 42
26 75
9 49
12 42
51 65
17 49
37 62
76 79
77 87
24 29
5 69
45 46
10 16
66 85
27 53
30 87
52 78
0 6
8 70
85 88
33 66
70 73
71 85
1 57
57 68
21 54
4 18
26 35
11 64
12 82
33 51
16 21
36 88
37 86
2 88
22 31
5 61
26 82
9 58
12 33
51 70
17 42
37 39
77 80
42 50
5 78
6 84
29 55
10 27
67 70
54 76
13 62
0 29
8 77
32 83
25 79
14 39
71 82
1 50
57 77
58 69
21 63
4 25
26 42
12 73
33 52
73 77
36 71
2 83
5 38
61 73
9 35
30 54
88 89
51 79
34 45
17 35
42 61
31 33
6 79
40 82
67 79
13 55
0 20
55 75
46 60
27 65
50 60
14 46
71 75
18 85
1 11
57 86
58 76
21 56
80 81
26 53
64 72
46 48
12 64
36 78
37 88
2 42
58 63
40 89
22 41
5 47
61 66
62 80
9 36
30 57
51 84
34 36
17 36
37 41
6 70
10 13
30 72
13 48
18 61
55 64
38 56
29 75
50 55
33 85
14 49
18 76
1 12
58 87
21 65
4 15
26 60
46 59
19 23
2 37
48 76
22 32
5 40
9 45
30 32
54 70
34 63
15 67
42 47
6 57
10 52
49 87
13 41
18 52
55 89
38 51
31 85
25 30
64 79
54 86
14 56
18 71
1 5
21 74
22 72
43 85
60 65
46 66
25 33
19 28
2 60
22 59
5 17
61 84
62 66
9 86
30 43
44 73
34 54
15 72
0 74
37 65
24 64
23 24
6 48
10 63
49 72
50 86
13 34
18 47
74 80
55 86
38 42
3 84
43 61
64 70
65 72
11 20
1 30
58 89
21 83
22 67
43 74
44 84
46 69
27 87
68 82
51 58
15 32
19 37
2 55
22 50
5 26
62 69
27 37
10 87
40 45
34 49
15 81
0 65
55 62
24 71
6 43
10 38
49 65
50 81
31 49
52 85
35 50
18 38
38 45
17 29
4 85
29 65
43 50
8 16
11 13
29 85
40 84
1 23
29 64
43 67
44 83
7 89
83 88
46 76
47 70
68 89
69 85
15 41
19 42
2 14
15 77
62 76
9 64
47 55
34 72
0 88
61 75
3 53
24 78
23 46
6 34
29 48
10 33
50 72
13 84
35 59
18 33
75 80
40 78
3 66
8 23
64 84
28 74
25 80
81 83
39 63
31 67
44 74
7 86
46 87
47 79
54 56
15 54
19 51
2 9
29 82
24 38
5 12
9 73
10 89
47 60
25 59
34 67
35 83
3 58
59 73
24 85
23 39
6 37
10 40
50 67
13 77
18 24
74 77
40 53
3 75
8 30
7 62
65 83
28 65
11 59
14 20
53 71
31 43
17 73
39 52
22 84
26 27
7 79
40 62
47 84
12 26
68 79
69 71
31 61
56 68
19 56
24 45
54 83
10 64
27 61
52 70
35 88
0 86
20 25
3 35
59 78
23 60
6 28
28 41
32 44
13 70
35 41
18 19
75 78
38 86
4 66
39 68
7 55
65 84
28 88
11 48
14 31
53 64
39 45
44 56
7 68
48 59
12 17
16 84
56 75
19 65
2 27
24 52
29 63
10 75
34 85
35 65
0 45
56 58
20 32
3 40
59 71
60 79
23 53
6 23
28 32
67 76
32 35
25 71
27 70
35 46
38 73
39 85
4 73
31 82
8 12
7 44
63 83
28 87
11 41
16 60
53 73
36 55
39 42
44 55
9 19
48 50
29 35
25 42
16 75
17 83
56 82
19 70
2 18
41 85
24 59
31 57
52 58
35 70
0 36
37 74
20 47
3 17
60 70
23 50
6 14
82 87
28 63
27 73
32 58
38 64
39 82
4 48
8 51
7 37
63 88
11 46
16 51
72 80
53 82
36 62
44 46
9 20
27 44
16 66
17 84
56 89
19 79
20 71
42 84
27 31
66 78
35 79
0 59
20 54
3 22
59 85
23 75
28 54
32 49
14 65
17 22
4 63
8 58
7 34
63 65
48 81
11 39
16 42
72 87
36 37
1 77
41 54
9 29
12 62
15 19
19 84
20 78
41 71
66 73
13 25
56 60
0 50
20 61
3 31
60 84
23 64
8 82
45 83
32 72
14 72
21 26
4 38
8 33
7 27
63 78
48 72
29 42
25 89
16 33
73 80
36 44
1 70
2 76
41 63
31 72
26 70
54 71
12 53
15 24
20 85
41 72
42 70
5 82
45 59
49 56
13 18
25 60
0 9
3 4
27 67
60 83
23 89
8 89
45 76
40 64
84 89
32 79
14 83
53 60
1 46
21 35
4 45
7 16
48 79
11 85
16 24
73 89
36 43
2 71
17 66
79 87
26 65
9 15
12 44
17 63
70 75
37 52
76 81
42 65
45 52
10 22
27 50
52 77
3 13
23 86
8 64
45 69
47 63
32 70
33 72
70 87
1 39
57 66
21 44
4 20
8 47
7 9
48 70
11 74
12 84
33 57
16 31
72 76
36 82
1 80
5 51
26 72
9 48
12 43
51 64
17 48
37 61
77 86
24 30
5 68
6 82
29 56
66 82
30 84
0 7
8 71
29 33
25 72
70 78
71 84
1 56
57 75
64 78
21 53
4 19
26 32
11 67
12 83
33 50
16 22
29 66
73 75
36 89
37 85
2 89
22 28
5 60
61 79
26 83
9 57
12 34
51 73
17 41
37 38
77 79
42 51
5 77
6 85
10 24
67 73
13 61
0 30
55 77
52 60
8 78
27 78
32 84
14 36
71 77
1 49
57 76
58 66
21 62
4 26
26 43
12 74
73 76
36 64
2 80
5 37
61 72
9 34
30 55
51 78
34 42
17 34
37 47
42 58
6 76
67 78
30 70
13 54
0 21
55 74
29 76
50 61
33 83
14 47
71 74
18 82
1 10
57 85
58 77
21 71
80 82
26 50
46 49
12 65
31 41
36 79
37 71
2 43
58 60
22 46
5 46
61 65
62 81
9 43
30 62
51 87
34 37
15 69
37 40
6 71
30 73
13 47
18 58
55 67
38 57
46 58
81 84
64 73
11 25
50 52
33 84
14 54
18 77
1 3
58 84
21 64
4 8
26 61
46 56
25 34
19 22
2 34
22 33
5 23
62 88
9 44
30 33
34 60
15 66
37 66
42 44
6 62
10 53
49 86
13 40
18 53
74 86
55 88
38 48
25 29
40 71
11 30
14 57
18 68
1 4
21 73
22 73
43 84
46 67
27 84
68 84
51 52
19 31
2 61
22 56
5 16
61 83
62 67
9 85
40 44
30 40
34 55
15 75
0 75
24 65
23 27
6 49
10 60
49 79
50 87
13 33
52 84
18 44
74 81
55 81
38 43
3 87
43 60
64 71
65 79
11 23
79 85
1 29
21 82
22 64
43 77
44 85
29 86
46 74
68 83
51 61
15 35
19 36
2 52
22 51
5 25
62 74
27 36
10 84
67 87
34 78
15 80
0 66
55 57
24 72
6 40
29 49
10 39
49 64
50 78
31 48
35 53
18 39
74 88
40 72
46 82
4 86
8 17
28 76
11 12
25 81
1 22
31 64
43 66
44 76
7 88
46 77
47 65
54 59
69 84
15 40
19 45
24 32
62 77
9 71
47 54
86 87
34 73
15 89
0 89
3 52
24 79
23 41
6 35
10 46
50 73
13 83
35 58
18 30
75 83
40 79
3 69
8 24
64 85
65 89
28 75
27 71
14 18
17 74
39 62
22 82
22 53
44 75
7 81
40 61
47 78
12 28
15 49
19 50
2 6
24 39
5 11
9 72
10 70
27 58
65 67
34 64
35 82
0 80
54 89
3 61
59 72
24 86
23 38
6 26
54 66
10 41
13 76
18 25
40 54
3 74
4 68
8 31
7 57
65 82
28 66
11 58
14 21
53 70
39 55
22 85
44 66
7 78
47 87
12 27
68 72
69 70
15 62
56 69
19 59
48 66
24 46
29 32
10 65
51 53
0 87
20 26
3 34
59 65
23 63
6 29
28 42
67 77
32 45
13 69
35 40
38 87
4 67
31 83
7 54
63 85
28 89
11 51
14 28
53 79
39 44
44 57
7 71
48 60
12 18
25 43
16 85
17 89
56 76
19 64
2 24
41 83
24 53
31 62
10 72
34 82
35 64
0 46
56 59
37 75
20 33
3 43
59 70
60 72
23 52
6 20
69 79
28 33
32 36
67 71
38 78
39 84
4 74
60 63
8 13
7 47
63 82
28 80
11 40
16 61
53 72
36 48
44 48
9 18
48 51
27 45
29 68
69 72
16 76
17 82
56 83
19 73
2 19
41 84
24 60
35 73
0 37
20 40
3 16
60 71
23 77
6 15
82 84
28 56
32 59
52 83
38 65
15 73
4 49
8 52
7 36
11 33
16 52
72 81
53 81
36 63
1 75
44 47
9 27
16 67
15 21
19 78
20 64
42 85
27 30
66 79
13 31
35 78
0 60
20 55
3 25
59 84
23 74
45 89
28 55
32 50
14 70
39 74
4 56
8 59
7 29
63 64
48 82
11 38
16 43
72 88
36 38
1 76
81 85
41 53
31 73
9 28
31 47
12 63
15 18
19 87
20 79
41 70
42 79
66 70
13 24
25 61
0 51
20 62
3 30
60 85
23 67
8 83
45 82
32 73
14 73
77 85
21 25
4 39
8 34
7 26
63 73
48 73
29 41
33 46
16 34
73 87
36 45
1 69
2 77
17 67
41 62
78 85
26 71
15 27
70 74
20 86
41 79
42 71
5 81
45 58
27 51
13 17
52 76
0 10
3 7
23 88
31 38
45 75
32 64
14 80
53 59
1 45
21 34
4 46
29 84
8 41
7 19
48 64
11 84
33 39
16 25
73 88
36 84
2 68
26 78
9 14
12 45
17 62
37 51
76 82
42 78
6 88
29 57
10 23
66 88
30 82
0 1
3 12
23 81
8 65
45 68
32 71
25 73
70 84
1 38
57 65
21 43
4 21
31 88
26 38
7 8
48 71
11 77
12 85
33 56
72 77
36 83
1 87
22 26
5 50
26 73
9 55
52 71
12 36
25 44
17 55
25 64
24 31
5 67
6 83
10 30
66 83
30 85
0 24
27 68
8 72
27 79
33 64
14 34
70 79
71 87
1 63
57 74
21 52
4 28
26 33
11 66
12 76
33 49
16 23
29 37
73 74
37 84
2 86
22 29
5 59
61 78
26 80
9 56
27 34
12 35
51 72
17 40
77 78
42 48
5 76
6 74
10 25
67 72
13 60
39 66
0 31
55 76
8 79
29 77
32 85
33 89
14 37
71 76
18 88
1 48
57 83
58 67
21 61
4 27
26 40
46 47
12 75
36 65
2 81
55 63
5 36
61 71
9 33
80 86
81 89
30 52
51 81
34 43
17 33
37 46
42 59
6 77
30 71
13 53
0 22
55 69
27 88
50 58
33 82
14 44
18 83
1 9
57 84
58 74
21 70
44 65
80 83
43 89
26 51
46 54
12 66
25 35
36 72
37 70
2 40
58 61
22 47
5 45
61 64
62 86
9 42
30 63
51 86
52 72
15 68
37 67
6 68
10 11
30 78
13 46
18 59
55 66
38 62
25 27
64 74
40 70
11 24
50 53
14 55
18 74
1 2
58 85
21 79
4 9
26 58
46 57
27 85
19 25
2 35
17 68
22 38
5 22
61 89
62 89
9 83
40 43
30 38
34 61
17 19
42 45
23 29
6 63
10 50
49 85
13 39
18 50
74 87
38 49
3 81
25 28
64 65
11 17
14 62
18 69
1 27
21 72
22 78
43 87
29 87
46 64
29 80
45 57
68 85
51 55
15 37
19 30
2 58
22 57
5 31
61 82
62 64
9 84
67 84
30 41
34 52
15 74
0 76
24 66
23 26
6 54
29 50
10 61
49 78
50 84
13 32
18 45
55 80
38 40
3 86
43 63
64 88
65 78
11 22
25 82
1 28
21 81
22 65
31 65
43 76
44 86
47 71
46 75
54 58
51 60
15 34
19 39
2 53
22 48
5 24
62 75
27 39
10 85
34 79
15 83
0 67
55 56
59 61
24 73
31 44
6 41
40 87
49 71
50 79
13 89
35 52
18 36
74 89
19 43
40 73
4 87
43 52
8 18
65 71
28 77
11 15
1 21
17 75
22 88
43 69
44 77
40 60
47 64
69 83
15 43
19 44
2 12
24 33
9 70
27 59
34 70
15 88
20 21
3 55
24 80
23 40
6 32
10 47
50 70
13 82
18 31
75 82
40 48
3 68
43 45
8 25
29 70
65 88
28 68
14 19
39 57
22 83
26 30
7 80
46 85
47 73
12 29
16 88
15 48
19 53
2 7
24 40
5 10
9 79
10 71
47 62
34 65
35 85
0 81
20 28
3 60
59 75
24 87
23 33
6 27
28 44
50 65
13 75
74 75
40 55
3 77
4 69
31 80
7 56
65 81
28 67
11 61
14 26
53 69
39 54
44 67
7 73
47 86
12 20
68 73
25 36
15 57
56 70
19 58
2 30
24 47
31 63
10 78
52 57
34 88
0 40
37 76
20 27
3 37
59 64
23 62
6 18
28 43
32 46
13 68
35 43
38 84
4 76
7 49
63 84
40 77
11 50
44 70
14 29
44 71
53 78
39 47
44 58
7 70
48 61
27 42
12 19
69 78
16 86
17 88
56 77
19 67
2 25
41 82
24 54
52 69
10 73
34 83
35 67
0 47
25 66
20 34
3 42
59 89
60 73
23 55
6 21
28 34
32 37
52 82
38 79
39 87
8 14
7 46
28 81
11 43
16 62
53 87
36 49
44 49
9 17
48 52
16 77
17 81
56 84
19 72
2 16
24 61
35 72
0 38
20 41
3 19
60 64
23 76
6 12
82 85
28 57
32 60
38 70
21 22
4 50
8 53
7 39
11 32
16 53
72 82
53 80
36 56
1 74
81 86
41 51
31 78
9 26
78 82
54 61
16 68
15 20
19 81
20 65
42 82
66 76
25 62
0 61
20 48
3 24
59 87
23 69
6 7
45 88
28 48
54 69
32 51
14 71
54 78
21 31
4 57
8 60
7 28
63 67
48 83
11 89
50 63
16 44
72 89
53 89
36 39
1 67
17 76
41 52
78 83
64 68
12 56
15 29
19 86
20 72
41 69
5 87
60 62
66 71
27 48
13 23
52 67
0 52
20 63
60 86
23 66
8 84
45 81
32 74
14 78
21 24
4 32
8 35
7 21
63 72
48 74
29 40
33 45
16 35
73 86
36 46
1 68
2 74
41 61
26 68
40 80
12 55
15 26
20 87
76 84
41 78
42 68
5 80
29 58
49 62
54 73
13 16
0 11
3 6
25 53
45 74
42 75
32 65
25 74
14 81
70 82
53 58
1 44
57 63
21 33
4 47
31 89
8 42
7 18
48 65
11 87
33 38
16 26
36 85
29 39
2 69
79 81
26 79
9 13
12 46
25 45
17 61
37 50
76 83
24 25
5 89
6 89
45 50
10 20
66 89
49 55
30 83
0 2
3 15
23 80
8 66
45 67
28 29
27 76
32 88
33 78
14 88
70 85
71 89
1 37
57 64
21 42
4 22
26 39
7 11
11 76
12 86
33 63
16 17
72 78
1 86
41 47
22 27
5 49
26 86
9 54
27 35
12 37
51 66
17 54
37 59
77 84
42 54
5 66
6 80
10 31
66 80
39 67
0 25
8 73
29 78
33 71
14 35
52 89
71 86
1 62
57 73
21 51
4 29
26 46
11 69
12 77
33 48
37 83
2 87
5 58
61 77
26 81
9 63
30 50
51 75
17 47
42 49
5 75
6 75
67 75
13 59
0 16
55 79
32 86
33 88
14 42
70 71
71 79
18 89
1 55
57 82
58 64
21 60
26 41
12 68
36 66
2 46
39 65
5 35
61 70
26 88
9 32
39 76
30 53
51 80
34 40
17 32
37 45
68 78
42 56
6 66
62 63
30 68
13 52
0 23
55 68
40 69
50 59
33 81
14 45
18 80
1 8
58 75
21 69
80 84
43 88
26 48
46 55
27 82
12 67
36 73
37 69
2 41
17 69
22 44
5 44
62 87
9 41
40 42
30 60
51 89
34 35
15 71
70 76
6 69
49 83
30 79
13 45
54 65
18 56
38 63
17 24
25 26
17 31
11 27
14 52
18 75
58 82
21 78
4 10
43 81
26 59
29 88
44 68
46 62
29 30
19 24
2 32
22 39
5 21
61 88
9 82
49 63
30 39
34 58
15 76
23 28
6 60
29 51
10 51
49 84
54 64
13 38
18 51
60 80
38 54
3 80
43 57
64 66
49 89
11 16
33 87
25 83
14 63
18 66
1 26
21 87
22 79
31 70
43 86
44 88
46 65
68 86
51 54
15 36
19 33
2 59
22 62
5 30
61 81
62 65
27 33
30 46
25 54
34 53
15 85
79 84
24 67
31 45
6 55
10 58
49 77
50 85
31 53
18 42
55 83
38 41
3 89
43 62
64 89
65 77
27 69
54 80
1 19
21 80
22 70
43 79
44 87
83 84
40 59
51 63
15 45
19 38
2 50
22 49
5 7
62 72
27 38
10 82
27 56
34 76
15 82
0 68
55 59
3 49
59 60
24 74
6 46
10 37
49 70
50 76
13 88
35 55
18 37
40 74
4 80
43 55
8 19
64 80
65 70
28 78
27 81
1 20
21 89
22 89
43 68
44 78
46 83
47 67
69 82
15 42
84 85
19 47
2 13
24 34
9 69
47 48
87 89
34 71
20 22
3 54
24 81
23 43
6 33
10 44
50 71
13 81
35 60
18 28
75 85
40 49
3 71
31 81
43 44
8 26
64 87
28 69
14 16
39 56
22 80
26 31
7 83
47 72
12 30
25 37
16 89
15 51
56 64
19 52
2 4
48 58
24 41
5 9
9 78
10 68
47 57
35 84
0 82
37 77
20 29
3 63
59 74
24 88
23 32
6 24
28 45
32 40
13 74
35 37
18 23
38 82
3 76
4 70
7 59
65 80
11 60
14 27
53 68
39 49
44 60
7 72
47 81
12 21
68 74
16 80
15 56
56 71
19 61
2 31
24 48
40 85
10 79
34 89
39 75
0 41
20 36
3 36
59 67
23 57
6 19
28 36
32 47
13 67
52 81
35 42
38 85
39 89
4 77
7 48
63 87
11 53
16 56
53 77
39 46
44 59
7 65
48 62
45 51
69 77
16 87
52 62
56 78
19 66
2 22
41 81
24 55
34 80
35 66
0 32
56 61
20 35
3 45
59 88
60 74
23 54
6 10
28 35
32 38
38 76
39 86
4 52
8 15
7 41
28 82
11 42
25 84
16 63
53 86
36 50
81 87
31 79
44 50
9 16
47 77
48 53
54 60
16 78
17 80
56 85
19 75
2 17
31 42
69 73
25 63
35 75
0 39
20 42
3 18
59 81
42 72
23 79
6 13
31 60
28 58
32 61
38 71
39 79
4 51
8 54
7 38
63 69
11 35
16 54
72 83
36 57
1 73
17 77
41 50
33 79
9 25
16 69
15 23
19 80
20 66
41 67
42 83
66 77
27 49
13 29
52 66
0 62
20 49
3 27
59 86
60 88
23 68
45 87
28 49
47 50
32 52
14 68
53 55
21 30
4 58
8 61
7 31
63 66
48 84
11 88
33 43
16 45
53 88
1 66
41 59
78 80
12 57
15 28
19 89
20 73
41 68
5 86
29 59
66 68
54 72
13 22
0 53
20 56
60 87
25 51
8 85
45 80
31 36
32 75
25 75
14 79
70 88
1 42
21 39
4 33
8 36
7 20
63 75
48 75
11 81
33 44
16 36
73 85
54 81
2 75
41 60
26 69
9 11
52 61
12 48
25 46
17 59
20 80
76 85
41 77
42 69
31 37
45 56
49 61
13 15
0 12
3 9
25 52
45 73
27 77
32 66
14 86
70 83
53 57
1 35
57 62
21 32
4 40
8 43
7 13
40 51
11 86
12 88
33 37
16 27
36 86
2 66
5 55
79 80
26 76
9 12
51 67
12 47
17 60
37 49
24 26
5 88
45 49
10 21
66 86
49 54
30 80
39 64
0 3
3 14
23 83
8 67
29 79
45 66
28 30
32 89
33 77
14 89
52 88
71 88
1 36
57 71
21 41
4 23
26 36
7 10
11 79
12 87
33 62
16 18
72 79
1 85
41 46
22 24
5 48
79 89
26 87
9 53
12 38
51 69
17 53
37 58
77 83
42 55
5 65
6 81
33 47
10 28
66 81
67 69
0 26
8 74
32 80
33 70
14 32
70 77
71 81
1 61
57 72
58 70
21 50
4 30
26 47
11 68
12 78
33 55
27 66
36 68
37 82
2 84
5 57
61 76
9 62
78 84
30 51
54 55
51 74
34 46
17 46
42 62
5 74
6 72
67 74
30 66
13 58
0 17
55 78
55 82
40 68
32 87
14 43
71 78
18 86
1 54
57 81
58 65
21 59
26 54
27 83
12 69
36 67
2 47
17 70
22 42
5 34
61 69
26 89
9 39
40 41
30 58
51 83
34 41
17 39
37 44
42 57
6 67
10 14
27 54
30 69
13 51
52 73
18 62
55 71
17 25
67 89
50 56
33 80
14 50
18 81
1 15
58 72
21 68
4 12
80 85
26 49
29 89
46 52
36 74
37 68
2 38
58 59
22 45
5 43
62 84
9 40
67 82
30 61
51 88
52 74
15 70
40 83
6 58
29 52
49 82
30 76
13 44
18 57
38 60
64 76
11 26
50 51
25 76
14 53
18 72
58 83
21 77
4 11
31 71
43 80
26 56
46 63
19 27
2 33
22 36
5 20
61 87
9 81
30 36
25 55
34 59
15 79
42 43
23 31
6 61
10 48
49 75
13 37
42 77
18 48
74 85
55 85
38 55
3 83
43 56
64 67
65 75
11 19
14 60
18 67
1 25
21 86
22 76
43 73
44 89
64 75
40 58
68 87
51 57
15 39
19 32
2 56
5 29
61 80
62 70
27 32
27 57
30 47
86 88
34 50
15 84
0 78
55 61
24 68
6 52
31 40
10 59
49 76
50 82
31 52
31 39
35 49
18 43
42 74
38 46
3 88
43 49
29 72
65 76
1 18
22 71
43 78
44 80
83 87
46 73
47 69
51 62
15 44
19 41
2 51
22 54
5 6
62 73
9 67
10 83
39 69
34 77
0 69
55 58
3 48
59 63
24 75
23 45
6 47
10 34
49 69
50 77
13 87
35 54
18 34
40 75
3 65
4 81
31 86
43 54
8 20
64 81
65 69
28 79
54 85
21 88
43 71
44 79
7 85
46 80
47 66
68 69
25 38
15 53
19 46
2 10
24 35
5 15
9 68
47 51
87 88
34 68
37 78
20 23
3 57
24 82
23 42
6 38
10 45
50 68
13 80
35 63
18 29
74 78
75 84
38 88
3 70
4 88
43 47
8 27
7 61
28 70
31 51
14 17
39 59
22 81
26 28
7 82
27 40
12 31
68 76
15 50
56 65
19 55
2 5
24 42
5 8
9 77
10 69
47 56
52 53
35 87
0 83
20 30
3 62
59 77
24 89
23 35
6 25
28 46
32 41
13 73
52 80
35 36
18 20
75 77
38 83
3 79
4 71
7 58
65 87
11 63
14 24
53 67
39 48
44 61
7 75
48 56
47 80
12 22
68 75
16 81
15 59
56 72
19 60
2 28
24 49
10 76
34 86
0 42
20 37
3 39
59 66
60 76
23 56
6 16
28 37
13 66
35 45
38 74
4 78
8 9
7 51
63 86
28 84
11 52
25 85
16 57
53 76
36 52
39 41
31 76
44 52
7 64
48 63
47 89
12 13
54 63
69 76
16 72
56 79
19 69
2 23
41 80
24 56
69 81
31 58
34 81
35 69
0 33
56 62
20 44
3 44
60 75
23 49
6 11
82 88
28 60
32 39
45 63
38 77
39 81
4 53
8 48
7 40
28 83
11 45
16 48
53 85
36 51
54 67
17 78
44 51
9 23
48 54
16 79
17 87
56 86
19 74
20 68
41 89
24 63
27 62
52 65
35 74
0 56
20 43
3 21
59 80
60 66
23 78
82 83
28 59
32 62
14 66
54 82
38 68
39 78
4 60
8 55
7 33
63 68
11 34
16 55
72 84
36 58
1 72
41 49
9 24
16 70
15 22
19 83
20 67
41 66
42 80
29 60
66 74
54 75
13 28
0 63
20 50
3 26
60 89
25 41
45 86
28 50
84 87
32 53
25 68
14 69
53 54
21 29
4 59
8 62
7 30
63 77
48 85
29 45
33 42
16 46
73 83
1 65
41 58
78 81
12 58
25 47
15 31
29 34
19 88
20 74
41 75
5 85
45 62
66 69
67 81
13 21
0 54
40 81
20 57
29 67
25 50
8 86
45 79
27 74
32 76
14 76
70 89
53 63
1 41
21 38
4 34
8 37
7 23
63 74
40 50
11 80
33 35
16 37
73 84
36 40
75 87
2 72
78 88
26 66
9 10
12 49
17 58
37 55
20 81
76 86
41 76
42 66
45 55
49 60
13 14
21 27
0 13
3 8
23 85
45 72
32 67
33 75
14 87
70 80
53 56
1 34
57 61
21 47
4 41
8 44
7 12
48 67
11 73
12 89
33 36
16 28
72 73
36 87
1 83
2 67
5 54
79 83
26 77
9 51
12 40
17 51
37 48
20 88
76 77
77 89
24 27
5 71
45 48
10 18
66 87
49 53
30 81
0 4
31 46
23 82
8 68
45 65
28 31
33 76
42 76
1 59
57 70
21 40
4 16
26 37
11 78
12 80
33 61
16 19
1 84
41 45
22 25
5 63
79 88
26 84
9 52
47 75
12 39
51 68
17 52
37 57
77 82
42 52
5 64
6 86
10 29
67 68
30 88
0 27
8 75
40 67
32 81
33 69
14 33
71 80
1 60
57 79
58 71
21 49
4 31
80 88
26 44
11 71
12 79
33 54
73 79
36 69
37 81
2 85
17 71
5 56
33 65
9 61
30 48
51 77
34 47
17 45
42 63
5 73
6 73
27 55
30 67
13 57
0 18
55 73
17 26
50 62
14 40
71 73
18 87
1 53
57 80
58 78
21 58
4 6
26 55
17 18
46 50
12 70
46 72
36 76
52 63
2 44
22 43
5 33
61 68
62 82
9 38
67 83
30 59
51 82
34 38
17 38
37 43
6 64
29 53
10 15
49 88
30 74
13 50
18 63
55 70
38 58
50 57
25 77
14 51
18 78
1 14
57 89
58 73
21 67
4 13
31 68
26 62
46 53
36 75
19 21
2 39
22 34
5 42
62 85
9 47
30 34
52 75
15 65
46 70
31 35
6 59
10 54
49 81
30 77
13 43
18 54
38 61
64 77
11 29
14 58
18 73
1 7
58 80
21 76
22 74
43 83
26 57
40 57
19 26
2 62
22 37
5 19
61 86
9 80
30 37
34 56
15 78
0 72
23 30
6 50
10 49
49 74
50 88
13 36
18 49
74 82
55 84
38 52
3 82
81 88
43 59
29 73
65 74
11 18
14 61
52 56
18 64
1 24
21 85
22 77
43 72
54 88
46 71
68 80
51 56
54 77
15 38
19 35
22 60
5 28
62 71
9 89
30 44
86 89
34 51
15 87
0 79
55 60
24 69
6 53
10 56
49 67
50 83
31 55
35 48
18 40
75 89
38 47
43 48
29 31
54 84
1 17
22 68
43 65
44 81
83 86
46 78
47 68
25 39
15 47
19 40
2 48
22 55
31 50
62 78
9 66
10 80
47 53
34 74
0 70
37 79
3 51
59 62
24 76
23 44
6 44
21 23
10 35
49 68
50 74
13 86
35 57
18 35
40 76
3 64
4 82
8 21
64 82
28 72
14 15
39 61
43 70
44 72
7 84
46 81
27 41
68 70
69 80
15 52
19 49
24 36
5 14
9 75
39 77
40 47
29 46
29 36
34 69
35 81
3 56
29 47
24 83
23 37
6 39
10 42
50 69
13 79
35 62
18 26
74 79
29 69
38 89
3 73
4 89
43 46
8 28
7 60
28 71
11 57
14 22
39 58
22 86
26 29
7 77
46 88
47 74
12 24
68 77
69 89
15 61
56 66
19 54
24 43
9 76
10 66
47 59
52 54
35 86
0 84
20 31
3 33
59 76
23 34
6 30
28 47
32 42
13 72
35 39
18 21
75 76
38 80
3 78
4 64
7 53
65 86
11 62
25 86
14 25
53 66
31 77
44 62
7 74
48 57
47 83
12 23
54 62
16 82
15 58
56 73
19 63
2 29
24 50
10 77
25 57
34 87
0 43
20 38
3 38
59 69
60 77
23 59
6 17
28 38
32 33
13 65
35 44
38 75
4 79
8 10
7 50
63 81
28 85
11 55
16 58
53 75
36 53
17 79
39 40
44 53
7 67
47 88
69 75
16 73
56 80
19 68
2 20
41 87
24 57
27 63
52 64
35 68
0 34
56 63
74 84
20 45
3 47
60 68
23 48
6 8
82 89
28 61
32 56
38 66
39 80
4 54
8 49
7 43
48 88
11 44
16 49
53 84
36 60
9 22
48 55
16 64
17 86
56 87
19 77
20 69
41 88
42 86
27 29
54 74
35 77
0 57
20 52
3 20
59 83
60 67
23 73
28 52
32 63
25 69
14 67
38 69
39 73
4 61
8 56
7 32
63 71
11 37
67 86
16 40
36 59
1 79
41 48
17 28
78 79
9 31
12 60
25 40
16 71
15 17
19 82
20 76
41 65
42 81
31 59
66 75
13 27
0 48
37 72
20 51
3 29
23 70
8 80
45 85
28 51
27 75
