100 3434
32 54
14 74
50 96
4 36
8 63
7 25
63 76
40 49
11 90
73 82
54 92
1 64
12 59
15 30
20 75
76 88
42 88
5 84
6 98
45 61
10 97
67 80
13 20
20 58
59 97
60 81
25 49
32 77
70 94
53 62
1 40
57 59
21 37
8 38
7 22
48 77
11 83
33 34
16 38
36 41
48 86
61 63
29 44
80 82
12 50
17 57
19 96
76 87
77 95
42 67
5 93
45 54
67 89
35 96
0 14
3 11
23 84
8 94
32 68
33 74
70 81
71 93
1 33
44 69
7 15
48 68
11 72
25 95
16 29
73 92
1 82
5 53
26 74
27 72
37 63
20 89
76 78
77 88
24 28
5 70
6 92
45 47
10 19
67 94
0 5
8 69
64 98
45 64
85 89
32 91
14 95
70 72
18 98
1 58
37 98
38 97
80 98
26 34
11 65
12 81
33 60
16 20
37 87
2 91
17 64
41 44
22 30
5 62
79 91
26 85
9 59
12 32
17 43
37 52
77 81
24 99
6 87
27 52
30 89
91 93
40 99
8 76
85 98
32 82
14 38
71 83
18 93
1 51
57 78
4 24
80 89
26 45
29 91
63 96
11 70
73 78
36 70
37 80
2 82
5 39
61 74
26 92
9 60
91 94
51 76
34 44
17 44
42 60
6 78
29 38
30 64
13 56
0 19
55 72
48 99
23 99
50 63
33 93
83 85
71 72
18 84
1 52
57 87
58 79
21 57
4 7
31 69
12 71
36 77
37 89
58 62
22 40
5 32
61 67
62 83
9 37
88 95
51 85
52 77
37 42
6 65
10 12
49 95
30 75
13 49
18 60
55 65
38 59
27 64
32 96
14 48
90 97
18 79
1 13
57 88
58 86
43 93
26 63
46 58
68 99
19 20
22 35
9 46
30 35
34 62
15 64
10 55
49 80
50 94
13 42
55 94
38 50
25 31
8 97
64 78
11 28
14 59
18 70
1 6
57 97
58 81
22 75
44 92
46 61
67 99
2 63
5 18
62 93
27 45
30 42
52 83
17 23
23 25
6 51
10 62
49 73
50 89
13 35
18 46
38 53
3 85
31 84
43 58
64 69
65 73
29 99
33 96
1 31
44 91
7 97
91 92
68 81
15 33
2 54
22 61
5 27
86 94
34 48
15 86
37 64
76 96
24 70
6 42
10 57
49 66
13 92
35 51
18 41
74 90
38 44
3 90
4 84
43 51
64 92
65 66
1 16
58 99
21 93
22 69
43 64
93 94
7 94
83 89
46 79
27 86
68 88
19 43
2 49
62 79
9 65
10 81
40 46
47 52
87 93
34 75
15 95
0 71
37 54
3 50
24 77
25 65
6 45
10 32
31 63
52 86
35 56
18 32
75 81
40 77
3 67
4 83
64 83
28 73
52 68
22 92
25 67
83 94
46 86
47 76
12 98
68 71
69 95
15 55
19 48
41 99
24 37
5 13
9 74
10 88
47 61
30 31
3 59
24 84
23 36
10 43
13 78
18 27
74 76
75 86
40 52
3 72
8 29
7 63
11 56
25 87
14 23
39 53
31 66
79 98
47 85
12 25
68 78
69 88
16 92
17 98
56 67
19 57
2 3
24 44
69 99
27 98
47 58
86 99
25 58
0 85
20 24
3 32
25 83
6 31
28 40
32 43
31 45
35 38
38 81
7 52
11 49
89 95
53 65
70 80
17 72
39 50
44 63
7 69
40 63
88 97
16 83
17 91
19 62
27 80
24 51
62 96
10 74
27 60
0 44
56 57
59 68
60 78
23 58
6 22
82 95
13 64
38 72
39 90
4 72
60 61
7 45
63 80
11 54
90 94
53 74
36 54
22 97
48 49
47 91
12 15
69 74
17 92
56 81
19 71
2 21
41 86
24 58
29 62
87 97
0 35
20 46
3 46
23 51
6 9
82 86
45 98
32 57
25 70
38 67
39 83
7 42
63 89
48 89
29 89
16 50
36 61
44 45
9 21
47 96
17 85
19 76
20 70
41 95
42 87
27 28
35 76
0 58
29 61
20 53
3 23
59 82
25 38
45 91
28 53
32 48
29 83
74 96
39 72
4 62
8 57
7 35
63 70
48 80
11 36
72 86
53 92
54 90
1 78
27 47
17 78
56 95
19 85
20 77
42 94
42 97
66 72
30 98
13 26
34 97
0 49
92 98
20 60
3 28
60 91
23 65
45 84
32 55
14 75
21 27
4 37
8 32
7 24
63 79
11 93
72 93
73 81
2 79
78 87
29 45
52 99
15 25
19 90
20 84
42 89
6 99
91 98
45 60
66 67
67 83
13 19
20 59
46 48
59 96
60 82
23 94
8 88
45 77
84 88
85 86
32 78
14 82
70 95
50 54
1 47
57 58
21 36
4 44
8 39
48 78
11 82
12 92
25 88
16 39
73 90
54 84
77 99
2 70
31 75
79 84
26 64
12 51
93 99
19 99
20 83
76 80
42 64
5 92
6 90
45 53
66 90
49 50
67 85
0 15
3 10
23 87
8 95
45 70
40 65
85 95
14 85
70 86
71 92
39 77
37 99
4 43
8 46
7 14
11 75
12 91
16 30
72 75
2 65
15 31
5 52
79 93
26 75
27 75
12 42
17 49
20 90
76 79
77 87
24 29
5 69
6 93
29 97
45 46
27 53
30 87
52 78
0 6
57 69
8 70
85 88
32 92
14 92
71 85
21 54
80 99
26 35
29 92
11 64
12 82
33 51
16 21
36 88
37 86
2 88
22 31
5 61
79 90
17 21
9 58
67 81
12 33
51 70
17 42
37 39
77 80
42 50
5 78
6 84
29 55
10 27
67 70
30 94
13 62
0 29
59 75
8 77
85 97
32 83
33 91
14 39
71 82
18 90
81 90
21 63
80 90
26 42
12 73
33 52
25 74
73 77
54 57
37 95
2 83
5 38
61 73
26 93
9 35
30 54
51 79
52 71
17 35
42 61
6 79
40 82
67 79
31 93
0 20
92 93
23 98
84 94
50 60
33 92
71 75
57 86
58 76
21 56
80 81
26 53
40 55
12 64
72 96
36 78
37 88
40 89
22 41
5 47
9 36
51 84
34 36
17 36
37 41
6 70
10 13
18 61
55 64
37 56
32 97
33 85
18 76
1 12
57 95
58 87
4 15
43 92
26 60
46 59
89 91
19 23
2 37
48 76
22 32
5 40
61 91
27 87
34 63
17 29
42 47
10 52
49 87
50 95
13 41
18 52
38 51
25 30
8 98
64 79
11 31
54 86
58 94
21 74
44 93
46 66
25 33
73 96
19 28
5 17
61 84
62 66
9 86
30 43
52 92
15 72
0 74
37 65
24 64
23 24
6 48
10 63
49 72
50 86
13 34
18 47
55 86
38 42
3 84
43 61
64 70
65 72
29 98
1 30
58 89
21 83
22 67
44 84
7 96
46 69
15 32
19 37
5 26
9 95
10 87
40 45
52 91
55 62
76 97
24 71
10 38
49 65
50 81
13 91
35 50
18 38
74 91
38 45
15 67
4 85
8 16
64 93
11 13
40 84
29 64
58 96
22 90
43 67
44 83
7 89
83 88
46 76
47 70
68 89
36 98
2 14
22 53
9 64
10 94
47 55
87 92
34 72
0 88
3 53
24 78
6 34
29 48
50 72
13 84
14 98
35 59
75 80
40 78
4 92
8 23
64 84
81 83
39 63
22 93
44 74
7 86
83 97
46 87
47 79
12 99
69 94
15 54
19 51
2 9
41 98
24 38
5 12
9 73
47 60
34 67
35 83
0 95
3 58
59 73
24 85
23 39
6 37
10 40
50 67
13 77
18 24
74 77
3 75
4 91
7 62
65 83
11 59
14 20
53 71
1 97
15 23
39 52
22 84
44 65
7 79
46 94
47 84
42 75
69 71
16 93
15 63
56 68
19 56
24 45
10 64
27 61
86 96
34 90
35 88
0 86
3 35
24 92
23 60
6 28
32 44
13 70
18 19
75 78
40 60
39 92
4 66
7 55
65 84
28 88
29 70
89 94
53 64
39 45
26 98
48 59
47 93
12 17
16 84
17 90
56 75
19 65
42 98
10 75
52 63
0 45
56 58
20 32
3 40
59 71
60 79
25 91
28 32
25 71
35 46
81 98
38 73
39 85
4 73
31 82
8 12
28 87
11 41
16 60
54 73
39 42
44 58
44 55
9 19
47 90
25 42
56 82
2 18
41 85
47 95
52 58
35 70
37 74
59 92
60 70
23 50
6 14
82 87
28 63
32 58
40 42
39 82
11 46
72 80
36 62
44 46
27 44
16 66
17 84
56 89
20 71
5 96
27 31
0 59
20 54
59 85
60 93
25 37
28 54
32 49
14 65
70 98
74 97
17 22
4 63
8 58
7 34
63 65
48 81
11 39
39 99
54 91
12 62
15 19
56 96
19 84
20 78
41 71
42 95
66 73
30 99
13 25
0 50
92 99
3 31
60 84
23 64
8 82
45 83
14 72
39 64
4 38
7 27
63 78
48 72
25 89
16 33
36 44
2 76
41 63
31 72
26 70
54 71
17 70
19 93
41 72
42 70
6 96
45 59
54 64
49 56
13 18
27 92
3 4
27 67
23 89
40 64
32 79
14 83
70 92
1 46
75 99
21 35
4 45
8 40
7 16
48 79
11 85
16 24
1 95
2 71
78 95
79 87
26 65
12 44
17 63
19 98
20 92
76 81
77 93
42 65
5 91
45 52
10 22
67 91
31 97
3 13
57 70
23 86
8 64
45 69
85 94
33 72
14 90
70 87
1 39
57 66
21 44
4 20
8 47
11 74
33 57
72 76
36 82
1 80
2 94
79 92
9 48
12 43
51 64
20 91
77 86
42 72
6 82
66 82
0 7
60 97
8 71
32 93
33 65
14 93
71 84
18 96
1 56
21 53
4 19
31 91
26 32
11 67
16 22
73 75
37 85
2 89
22 28
5 60
26 83
9 57
12 34
25 51
17 41
37 38
20 98
5 77
6 85
10 24
67 73
30 95
13 61
0 30
55 77
27 78
14 36
71 77
58 66
4 26
43 97
26 43
63 98
40 54
12 74
73 76
36 64
37 94
2 80
5 37
61 72
26 90
27 37
30 55
88 90
51 78
34 42
17 34
37 47
42 58
6 76
67 78
13 54
0 21
92 94
3 96
95 96
84 98
50 61
33 83
14 47
18 82
1 10
58 77
69 92
26 50
46 49
12 65
2 43
58 60
22 46
61 65
62 81
9 43
34 37
15 69
37 40
6 71
49 93
30 73
13 47
18 58
38 57
48 96
81 84
64 73
11 25
32 98
33 84
18 77
1 3
57 94
58 84
4 8
43 95
48 98
19 22
2 34
22 33
31 49
61 90
62 88
9 44
30 33
34 60
15 66
42 44
50 92
13 40
18 53
74 86
55 88
17 96
4 96
25 29
8 99
40 71
11 30
14 57
3 93
53 98
18 68
1 4
58 95
21 73
46 67
68 84
51 52
37 73
2 61
5 16
61 83
9 85
30 40
52 93
15 75
0 75
24 65
10 60
49 79
50 87
13 33
52 84
18 44
74 81
55 81
38 43
3 87
43 60
64 71
11 23
98 99
21 82
22 64
43 77
44 85
7 99
68 83
15 35
19 36
22 51
5 25
27 36
67 87
34 78
15 80
76 98
50 78
13 90
35 53
18 39
75 90
40 72
3 92
4 86
8 17
64 94
28 76
11 12
1 22
81 92
21 91
43 66
44 76
68 90
16 96
15 40
36 99
19 45
2 15
24 32
9 71
10 95
27 96
47 54
87 95
34 73
15 89
24 79
23 41
6 35
40 88
50 73
13 83
35 58
18 30
4 93
8 24
65 89
28 75
14 18
39 62
22 82
44 75
7 81
83 96
46 84
47 78
15 49
5 11
27 50
10 70
47 63
34 64
35 82
54 89
97 98
3 61
24 86
25 72
81 91
10 41
50 64
13 76
89 99
18 25
38 92
4 68
29 69
65 82
11 58
14 21
53 70
1 96
39 55
22 85
44 66
7 78
46 95
47 87
68 72
69 70
16 94
15 62
10 65
86 97
51 53
0 87
3 34
59 65
24 93
25 81
6 29
82 98
28 42
13 69
81 99
38 87
39 95
4 67
63 85
28 89
11 51
14 28
26 99
7 71
48 60
47 92
12 18
69 79
17 89
56 76
41 83
42 99
31 62
52 56
35 64
0 46
20 33
3 43
60 72
23 52
6 20
82 93
32 36
67 71
38 78
4 74
29 35
7 47
63 82
28 80
29 94
16 61
2 96
9 18
48 51
16 76
40 70
56 83
19 73
41 84
24 60
9 99
87 99
39 69
0 37
20 40
3 16
59 95
60 71
23 77
82 84
45 96
32 59
38 65
21 23
4 49
42 76
7 36
63 91
16 52
72 81
53 81
36 63
9 27
47 98
17 75
19 78
20 64
41 93
42 85
27 30
13 31
35 78
3 25
59 84
23 74
45 89
28 55
32 50
14 70
4 56
63 64
48 82
11 38
25 90
72 88
53 90
54 88
81 85
31 73
9 28
12 63
17 76
56 97
31 58
20 79
41 70
42 92
66 70
13 24
25 61
0 51
60 85
23 67
8 83
64 96
40 95
32 73
14 73
70 90
21 25
4 39
8 34
7 26
63 73
11 95
72 95
36 45
1 69
17 67
41 62
26 71
12 54
17 69
19 92
20 86
76 91
5 81
6 97
27 51
13 17
0 10
55 97
3 7
59 98
8 90
45 75
84 90
13 98
14 80
70 93
53 59
21 34
4 46
8 41
48 64
29 34
12 94
33 39
16 25
36 84
1 94
2 68
78 92
9 14
12 45
15 96
37 51
76 82
77 92
6 88
45 51
66 88
67 90
30 82
17 19
0 1
23 81
85 93
32 71
33 79
70 84
1 38
57 65
21 43
4 21
48 71
33 56
72 77
36 83
1 87
2 95
22 26
5 50
79 95
27 77
12 36
25 44
77 85
42 73
31 39
6 83
10 30
66 83
30 85
0 24
60 98
8 72
27 79
32 94
14 34
70 79
1 63
21 52
4 28
26 33
11 66
33 49
29 37
73 74
36 90
37 84
22 29
5 59
61 78
26 80
9 56
51 72
17 40
0 96
20 99
77 78
42 48
5 76
6 74
67 72
30 92
13 60
39 66
0 31
55 76
95 97
8 79
29 77
65 98
14 37
52 90
1 48
57 83
58 67
21 61
4 27
80 92
26 40
12 75
36 65
37 93
2 81
61 71
80 86
81 89
52 65
17 33
6 77
49 91
30 71
0 22
55 69
3 99
50 58
33 82
57 84
58 74
21 70
80 83
43 89
46 54
12 66
25 35
72 98
37 70
2 40
61 64
62 86
9 42
30 63
51 86
15 68
10 11
49 92
30 78
13 46
18 59
55 66
38 62
25 27
64 74
28 96
32 99
18 74
1 2
57 93
58 85
21 79
26 58
46 57
93 98
17 68
22 38
5 22
62 89
9 83
40 43
30 38
51 95
34 61
15 77
70 77
42 45
23 29
10 50
49 85
50 93
13 39
18 50
74 87
55 91
38 49
3 81
25 28
64 65
11 17
53 97
1 27
58 92
21 72
67 88
43 87
44 95
46 64
29 80
45 57
68 85
51 55
15 37
37 72
2 58
22 57
5 31
27 46
67 84
30 41
86 90
15 74
0 76
24 66
23 26
6 54
49 78
50 84
31 74
74 94
55 80
40 66
3 86
43 63
64 88
65 78
25 82
69 98
81 93
21 81
22 65
43 76
7 98
47 71
46 75
68 92
51 60
15 34
19 39
94 98
22 48
5 24
27 39
10 85
27 97
34 79
55 56
24 73
31 44
6 41
49 71
31 51
35 52
18 36
74 89
75 93
40 73
3 95
4 87
8 18
65 71
28 77
11 15
1 21
15 21
21 90
22 88
7 91
83 90
47 64
68 91
69 83
15 43
19 44
2 12
24 33
71 96
9 70
47 49
34 70
0 90
20 21
3 55
31 55
23 40
81 97
93 96
50 70
31 56
35 61
18 31
75 82
40 48
3 68
4 94
43 45
64 86
28 68
89 93
21 99
26 30
7 80
83 99
46 85
47 73
12 29
47 99
16 88
19 53
2 7
41 96
24 40
5 10
9 79
10 71
34 65
35 85
0 81
20 28
3 60
44 99
24 87
23 33
6 27
28 44
50 65
31 33
18 22
74 75
38 93
3 77
4 69
65 81
28 67
11 61
14 26
53 69
44 56
44 67
46 92
68 73
25 36
16 95
15 57
19 58
2 30
24 47
34 88
0 40
20 27
3 37
24 94
25 80
6 18
28 43
32 46
13 68
35 43
40 62
4 76
7 49
28 90
14 29
53 78
26 96
7 70
27 42
12 19
16 86
56 77
24 54
10 73
52 57
0 47
3 42
59 89
60 73
23 55
6 21
82 90
28 34
49 99
32 37
52 82
57 81
8 14
7 46
63 93
28 81
29 93
16 62
90 93
39 97
2 97
44 49
9 17
51 97
17 81
56 84
19 72
24 61
67 97
87 98
35 72
0 38
20 41
3 19
59 94
60 64
25 34
6 12
82 85
45 95
32 60
38 70
21 22
4 50
7 39
63 90
48 92
11 32
16 53
72 82
53 80
36 56
41 51
31 78
9 26
16 68
56 91
19 81
20 65
42 82
66 76
13 30
25 62
20 48
59 87
60 95
25 43
6 7
28 48
84 85
32 51
14 71
70 96
21 31
8 60
7 28
48 83
27 93
16 44
72 89
53 89
36 39
15 18
78 83
12 56
15 29
56 98
20 72
41 69
42 93
60 62
66 71
13 23
0 52
20 63
60 86
23 66
8 84
45 81
84 92
32 74
14 78
70 91
1 43
21 24
4 32
7 21
63 72
48 74
11 94
33 45
16 35
54 80
1 68
78 90
26 68
12 55
15 26
19 95
20 87
41 78
42 68
5 80
29 58
66 94
49 62
13 16
0 11
55 96
3 6
45 74
49 89
32 65
13 97
14 81
70 82
53 58
1 44
57 63
21 33
4 47
8 42
7 18
29 33
33 38
16 26
73 95
29 39
88 96
78 93
26 79
17 61
37 50
20 94
76 83
77 91
24 25
31 36
6 89
10 20
66 89
67 93
30 83
31 99
3 15
23 80
8 66
45 67
28 29
27 76
85 92
32 88
33 78
14 88
70 85
1 37
57 64
21 42
4 22
26 39
7 11
11 76
12 86
16 17
36 92
1 86
2 92
41 47
22 27
5 49
79 94
9 54
27 35
51 66
17 54
37 59
42 54
66 80
30 90
0 25
60 99
8 73
29 78
32 95
14 35
52 89
71 86
18 94
57 73
21 51
4 29
11 69
36 91
37 83
2 87
5 58
61 77
26 81
27 69
51 75
17 47
42 49
6 75
13 59
0 16
55 79
65 97
32 86
33 88
14 42
70 71
71 79
18 89
1 55
57 82
21 60
80 93
43 99
26 41
12 68
25 92
36 66
39 65
5 35
61 70
26 88
27 90
30 53
88 92
51 80
52 66
17 32
37 45
42 56
25 96
6 66
62 63
49 90
13 52
0 23
55 68
15 60
50 59
33 81
14 45
1 8
57 91
58 75
80 84
26 48
46 55
27 82
68 96
72 99
36 73
15 27
5 44
61 95
62 87
27 83
30 60
51 89
34 35
17 25
70 76
6 69
30 79
13 45
54 65
17 20
55 93
38 63
17 24
25 26
64 75
28 97
11 27
14 52
18 75
57 92
58 82
21 78
4 10
43 81
26 59
29 88
44 68
37 78
93 97
61 88
62 94
9 82
49 63
30 39
51 94
34 58
15 76
93 95
29 51
50 90
13 38
18 51
74 84
55 90
38 54
3 80
43 57
11 16
33 99
18 66
1 26
58 93
21 87
31 70
44 88
46 65
51 54
19 33
2 59
22 62
5 30
61 81
9 91
30 46
86 91
34 53
0 77
24 67
6 55
10 58
49 77
50 85
74 95
38 41
43 62
64 89
65 77
1 19
21 80
22 70
78 99
43 79
44 87
83 84
40 59
68 93
15 45
19 38
2 50
94 99
22 49
5 7
9 92
10 82
34 76
15 82
55 59
3 49
59 60
6 46
78 94
49 70
50 76
13 88
35 55
18 37
75 92
40 74
3 94
8 19
64 80
65 70
11 14
54 96
1 20
21 89
44 78
7 90
83 93
46 83
47 67
69 82
16 98
15 42
19 47
61 99
9 69
47 48
87 89
34 71
0 91
44 98
23 43
6 33
13 81
14 97
35 60
18 28
38 91
3 71
31 81
8 26
28 69
21 98
22 80
26 31
7 83
83 98
46 90
47 72
12 30
69 91
16 89
15 51
56 64
19 52
2 4
46 96
24 41
31 60
9 78
10 68
47 57
34 94
0 82
37 77
20 29
59 74
24 88
25 78
6 24
28 45
13 74
35 37
38 82
4 70
7 59
65 80
11 60
14 27
53 68
7 72
46 93
27 43
91 95
16 80
15 56
56 71
2 31
24 48
10 79
66 96
29 95
34 89
35 93
3 36
59 67
23 57
81 82
82 96
28 36
13 67
38 85
39 89
7 48
28 91
29 67
16 56
39 46
44 59
48 62
16 87
56 78
19 66
2 22
94 95
41 81
24 55
34 80
35 66
3 45
59 88
60 74
23 54
6 10
82 91
28 35
32 38
39 86
8 15
63 92
28 82
11 42
25 84
16 63
53 86
36 50
81 87
44 50
9 16
47 77
48 53
54 60
51 96
16 78
17 80
2 17
41 90
9 97
31 42
69 73
25 63
0 39
59 81
60 65
23 79
6 13
28 58
38 71
39 79
4 51
8 54
7 38
63 69
48 93
11 35
16 54
72 83
53 95
36 57
17 77
16 69
17 73
19 80
41 67
42 83
66 77
34 98
20 49
3 27
59 86
60 88
23 68
45 87
28 49
32 52
70 97
21 30
4 58
8 61
7 31
63 66
48 84
29 46
33 43
72 90
53 88
54 94
12 57
52 96
15 28
56 99
19 89
20 73
45 63
10 99
66 68
13 22
0 53
20 56
23 93
45 80
84 93
32 75
14 79
70 88
1 42
4 33
7 20
63 75
11 81
33 44
73 85
36 47
41 60
78 91
26 69
9 11
12 48
20 80
41 77
66 95
49 61
13 15
0 12
3 9
23 90
8 92
13 96
14 86
70 83
53 57
1 35
21 32
4 40
8 43
48 66
29 32
12 88
33 37
16 27
73 94
1 92
5 55
79 80
27 32
12 47
17 60
20 95
24 26
5 88
6 94
45 49
66 86
49 54
30 80
0 3
3 14
23 83
29 79
45 66
28 30
85 91
32 89
14 89
70 74
71 88
1 36
38 99
21 41
4 23
80 96
26 36
7 10
29 57
12 87
33 62
72 79
1 85
2 93
31 38
26 87
9 53
12 38
17 53
37 58
77 83
24 97
5 65
6 81
33 47
10 28
67 69
0 26
40 97
32 80
33 70
51 91
71 81
1 61
57 72
58 70
21 50
4 30
26 47
11 68
12 78
25 93
27 66
54 58
31 52
61 76
26 94
9 62
78 84
30 51
54 55
34 46
17 46
0 98
42 62
6 72
67 74
30 66
13 58
0 17
17 99
55 82
23 97
65 96
40 68
32 87
33 95
71 78
18 86
1 54
37 96
21 59
43 98
26 54
12 69
36 67
37 91
2 47
15 24
5 34
61 69
26 89
9 39
40 41
30 58
88 93
51 83
52 67
17 39
37 44
6 67
10 14
27 54
30 69
52 73
55 71
15 71
90 99
18 81
57 90
58 72
21 68
80 85
43 91
46 52
36 74
37 68
58 59
22 45
61 94
9 40
29 43
30 61
51 88
52 74
15 70
29 86
40 83
6 58
29 52
49 82
13 44
18 57
55 92
64 76
28 98
11 26
50 51
57 99
58 83
21 77
4 11
43 80
26 56
46 63
19 27
2 33
59 99
22 36
5 20
61 87
62 95
9 81
25 55
34 59
15 79
42 43
23 31
6 61
10 48
49 75
50 91
13 37
42 77
18 48
74 85
55 85
38 55
3 83
43 56
64 67
65 75
11 19
33 98
14 60
18 67
1 25
58 90
22 76
43 73
44 89
46 70
11 96
51 57
15 39
19 32
2 56
22 63
5 29
61 80
62 70
9 90
27 57
30 47
52 88
55 61
24 68
31 40
10 59
49 76
13 94
39 56
18 43
74 92
42 74
38 46
3 88
43 49
64 90
65 76
1 18
78 96
43 78
44 80
7 92
83 87
46 73
68 94
51 62
15 44
19 41
2 51
22 54
5 6
62 73
9 67
10 83
40 93
34 77
15 93
55 58
44 97
24 75
23 45
6 47
10 34
13 87
75 95
40 75
3 65
4 81
31 86
43 54
8 20
64 81
28 79
54 97
21 88
22 94
43 71
44 79
7 85
46 80
12 96
68 69
69 81
16 99
15 53
19 46
2 10
24 35
5 15
61 98
9 68
47 51
87 88
3 57
77 98
23 42
10 45
50 68
13 80
35 63
18 29
74 78
75 84
38 88
3 70
4 88
8 27
7 61
65 94
22 81
26 28
46 91
27 40
69 90
16 90
15 50
24 42
5 8
9 77
47 56
34 95
20 30
81 88
28 46
32 41
13 73
52 80
35 36
75 77
38 83
4 71
65 87
28 93
14 24
53 67
39 48
44 61
29 82
46 98
47 80
12 22
68 75
16 81
52 61
19 60
24 49
62 98
10 76
66 97
35 92
0 42
60 76
23 56
6 16
28 37
13 66
35 45
7 51
63 86
11 52
54 74
39 41
22 99
31 76
44 52
7 64
48 63
47 89
54 63
16 72
17 94
2 23
25 56
52 59
35 69
0 33
20 44
3 44
60 75
23 49
6 11
82 88
40 92
49 97
32 39
38 77
39 81
4 53
7 40
63 95
28 83
11 45
16 48
53 85
36 51
15 16
44 51
9 23
89 98
48 54
51 99
16 79
56 86
19 74
41 89
24 63
5 99
27 62
35 74
0 56
20 43
3 21
59 80
23 78
82 83
32 62
38 68
63 68
48 94
29 84
72 84
53 94
54 68
41 49
9 24
15 22
56 93
41 66
42 80
66 74
54 75
13 28
34 99
0 63
92 96
96 99
60 89
23 71
45 86
28 50
84 87
25 68
53 54
21 29
4 59
7 30
29 41
48 85
11 91
33 42
72 91
73 83
54 95
52 97
17 65
20 74
76 95
41 75
5 85
66 69
49 59
53 87
0 54
40 81
20 57
23 92
8 86
27 74
32 76
14 76
70 89
21 38
95 99
7 23
63 74
40 50
11 80
33 35
73 84
36 40
1 90
78 88
9 10
27 33
19 97
76 86
41 76
42 66
5 94
45 55
66 92
49 60
35 97
0 13
55 98
3 8
25 59
45 72
33 75
52 95
53 56
1 34
57 61
8 44
7 12
29 63
12 89
72 73
73 93
36 87
2 67
5 54
9 51
12 40
37 48
20 88
76 77
77 89
24 27
5 71
6 95
45 48
91 99
66 87
30 81
0 4
31 46
23 82
64 97
45 65
28 31
14 94
70 75
71 91
1 59
31 48
38 96
44 70
80 97
26 37
29 56
33 61
16 19
36 94
2 90
41 45
5 63
79 88
26 84
9 52
47 75
12 39
17 52
77 82
24 98
6 86
39 75
67 68
30 88
40 98
8 75
40 67
85 99
32 81
33 69
18 92
1 60
57 79
58 71
80 88
63 97
11 71
12 79
36 69
37 81
2 85
61 75
26 95
27 71
30 48
17 45
0 99
6 73
67 77
31 83
55 73
17 26
23 96
50 62
33 94
71 73
18 87
1 53
57 80
21 58
4 6
26 55
29 90
46 50
12 70
36 76
37 90
2 44
61 68
62 82
9 38
30 59
88 94
51 82
52 76
17 38
37 43
6 64
29 53
10 15
49 88
13 50
18 63
55 70
40 80
60 96
50 57
33 87
14 51
90 96
1 14
57 89
58 73
46 72
31 68
43 90
68 98
36 75
19 21
2 39
97 99
5 42
61 93
62 85
30 34
25 48
15 65
31 35
6 59
10 54
49 81
31 65
18 54
55 95
8 96
64 77
28 99
11 29
14 58
21 76
22 74
43 83
26 57
19 26
2 62
22 37
5 19
62 92
9 80
51 73
30 37
34 56
15 78
0 72
50 53
75 96
6 50
10 49
49 74
50 88
13 36
74 82
3 82
65 74
33 97
14 61
18 64
1 24
58 91
21 85
22 77
43 72
46 71
68 80
15 38
2 57
22 60
5 28
62 71
9 89
30 44
34 51
15 87
55 60
44 96
24 69
6 53
10 56
49 67
13 93
74 93
75 89
40 69
3 91
31 87
43 48
64 91
65 67
1 17
58 98
21 94
22 68
78 97
44 81
7 95
46 78
47 68
68 95
15 47
36 96
2 48
48 56
22 55
31 50
62 78
9 66
47 53
34 74
15 92
0 70
3 51
59 62
24 76
23 44
6 44
50 74
13 86
35 57
18 35
40 76
3 64
4 82
64 82
28 72
14 15
39 61
22 95
43 70
7 84
83 95
46 81
27 41
12 97
19 49
2 11
24 36
5 14
61 97
27 49
10 91
40 47
47 50
29 36
0 93
37 53
3 56
77 97
24 83
23 37
6 39
50 69
13 79
52 87
35 62
74 79
75 87
38 89
3 73
4 89
43 46
8 28
7 60
65 93
28 71
11 57
1 99
21 96
22 86
79 99
26 29
7 77
47 74
12 24
69 89
16 91
15 61
19 54
24 43
9 76
10 66
47 59
34 92
35 86
3 33
59 76
24 90
25 76
81 95
28 47
32 42
35 39
18 21
75 76
40 58
4 64
7 53
65 86
11 62
25 86
14 25
53 66
39 51
44 62
7 74
48 57
12 23
54 62
16 82
15 58
56 73
19 63
2 29
62 99
10 77
25 57
34 87
35 95
0 43
20 38
3 38
59 69
60 77
25 85
82 94
40 91
32 33
13 65
35 44
38 75
39 91
4 79
8 10
63 81
28 85
29 65
16 58
53 75
36 53
15 17
39 40
44 53
47 88
69 75
16 73
17 93
19 68
2 20
41 87
27 63
52 64
35 68
0 34
56 63
20 45
3 47
57 67
23 48
45 99
28 61
49 96
4 54
8 49
29 66
11 44
16 49
53 84
9 22
48 55
47 97
51 98
16 64
56 87
20 69
42 86
5 98
27 29
67 98
0 57
20 52
59 83
23 73
45 92
28 52
32 63
25 69
14 67
81 96
38 69
4 61
31 92
8 56
63 71
48 95
11 37
67 86
16 40
72 85
53 93
54 69
1 79
41 48
78 79
69 97
12 60
16 71
17 79
19 82
20 76
41 65
31 59
66 75
13 27
20 51
3 29
60 90
25 40
8 80
45 85
28 51
