241 640
130 231
192 219
214 221
0 175
110 231
106 230
5 178
86 211
184 206
222 223
10 180
218 231
169 238
49 197
7 174
162 238
184 189
74 199
188 202
210 219
14 184
56 194
84 214
211 231
194 202
34 182
129 234
198 204
192 200
37 194
185 201
8 175
100 224
214 227
104 227
218 238
228 233
181 182
4 178
40 192
213 221
82 212
146 230
213 234
214 232
94 218
233 235
1 176
98 227
66 204
123 233
70 206
215 226
135 227
198 199
192 207
151 220
186 192
219 237
181 191
212 232
213 230
214 220
217 227
189 198
166 228
167 238
55 197
162 220
177 192
43 195
12 184
153 224
67 201
182 200
120 228
177 188
160 237
48 194
130 234
185 219
215 225
183 204
181 184
184 201
185 189
61 200
124 234
38 190
212 221
112 224
11 180
39 191
231 233
214 234
91 212
217 223
24 184
157 237
211 224
128 234
5 176
139 232
4 175
213 232
51 197
217 237
3 178
212 228
222 231
112 231
79 209
221 233
69 199
92 213
181 198
24 191
111 231
45 195
194 200
126 234
192 202
185 207
32 190
188 200
218 236
33 191
77 204
152 221
40 194
212 227
222 238
173 238
103 228
78 206
93 218
229 233
230 233
191 199
119 232
211 238
15 188
59 199
177 185
2 175
95 220
133 235
134 235
197 199
190 200
185 186
212 234
213 228
65 199
75 207
88 213
7 180
141 236
177 198
195 207
189 190
210 229
47 192
117 221
182 206
191 204
142 236
45 190
19 190
177 178
211 221
105 230
121 230
72 202
6 176
183 206
62 202
219 228
224 233
36 194
213 237
217 234
181 185
1 174
212 223
28 192
184 186
29 192
42 184
188 207
46 191
218 223
118 232
80 212
194 207
154 237
183 199
3 174
197 201
198 201
145 236
214 236
218 227
196 219
222 232
232 233
212 230
222 229
140 234
44 195
175 177
115 231
51 185
211 235
81 211
73 206
169 232
192 204
87 212
186 197
214 231
215 239
29 184
218 234
190 199
212 237
222 236
188 204
30 192
65 204
69 206
177 195
148 232
132 235
21 185
91 218
85 213
66 200
60 201
177 191
156 237
148 236
116 232
127 227
149 236
121 232
163 238
164 224
114 231
151 237
23 191
190 206
217 231
186 191
222 234
189 194
11 179
233 237
182 204
191 206
183 189
143 224
26 191
27 190
138 235
82 213
156 230
217 220
71 201
211 223
0 174
183 200
134 224
197 206
9 176
227 233
213 235
214 235
211 236
217 232
218 230
31 192
190 219
222 224
124 220
188 201
153 237
214 238
68 204
182 199
183 186
92 218
106 221
218 221
211 228
25 185
117 232
97 221
57 195
198 207
158 237
87 217
185 202
77 207
89 217
8 180
109 230
113 227
145 228
109 228
181 194
195 200
52 188
219 222
211 237
197 204
73 204
102 228
96 224
63 200
98 220
192 206
184 219
186 195
214 229
218 232
219 234
137 235
213 231
214 223
142 221
13 182
187 215
103 224
93 214
190 202
152 237
219 224
193 215
20 190
105 220
107 224
149 234
62 199
219 227
35 184
190 204
86 217
184 200
99 227
213 224
223 233
61 201
189 192
18 186
88 217
212 220
64 201
16 184
12 182
132 220
191 200
147 231
131 232
119 227
141 220
177 182
83 214
34 194
97 224
127 234
171 235
72 206
32 192
183 202
23 182
198 202
158 232
184 207
185 199
217 238
218 228
76 202
219 221
89 214
108 227
222 230
174 177
146 236
14 185
147 236
46 195
136 228
157 231
211 230
25 191
170 234
155 237
165 238
192 201
185 200
186 198
214 224
104 228
21 190
50 197
182 186
74 207
36 185
99 221
37 188
172 238
209 229
181 192
195 202
41 195
19 182
33 192
63 202
95 221
114 228
219 236
181 190
213 229
182 189
189 197
161 236
203 215
122 231
189 191
182 201
177 179
83 211
20 184
48 195
192 199
183 207
168 231
54 191
184 202
213 238
217 235
167 230
108 230
38 194
188 206
191 202
143 236
172 236
188 189
131 234
177 180
135 235
211 227
161 237
59 200
80 211
194 206
165 227
176 177
168 238
197 202
126 224
9 180
58 189
217 236
233 236
212 229
222 228
101 220
43 185
17 188
182 219
56 197
116 220
49 182
181 197
195 199
22 190
211 232
15 182
217 228
194 201
159 237
185 206
100 227
214 230
52 197
218 237
137 230
213 220
212 236
173 237
102 221
113 231
13 185
75 201
54 197
78 207
128 228
94 217
209 219
110 220
195 204
85 214
81 213
177 184
155 228
217 229
159 234
64 202
6 179
101 228
219 238
138 231
190 201
139 235
212 235
213 227
217 224
186 190
188 219
189 195
233 238
133 221
177 197
122 232
47 195
182 207
191 207
27 191
60 199
194 219
195 219
217 221
71 206
181 183
211 220
150 236
144 227
154 227
164 238
208 215
183 201
53 190
219 231
197 207
184 204
213 236
212 224
215 216
222 235
76 207
222 227
16 188
17 185
144 236
42 195
136 235
50 184
84 212
218 220
211 229
58 200
194 204
123 222
197 200
198 206
214 237
218 224
125 234
220 233
212 231
213 223
79 210
188 199
44 188
181 188
68 202
115 230
181 195
191 219
195 201
22 188
211 234
118 224
194 199
205 215
215 240
70 200
57 197
28 182
185 204
186 194
214 228
111 221
218 235
197 219
90 211
212 238
222 237
125 221
41 182
177 194
120 232
53 197
182 202
195 206
2 176
35 194
220 222
177 190
160 235
170 238
129 230
140 235
150 235
30 185
166 238
96 220
31 188
190 207
184 199
90 218
221 222
217 230
186 188
18 189
55 192
171 238
163 221
10 178
233 234
67 204
191 201
218 229
26 188
39 194
177 183
107 230
