33 102
14 17
5 31
10 17
7 12
13 17
2 22
18 19
2 5
16 19
13 32
14 18
5 18
12 17
7 28
22 28
12 28
2 27
28 31
10 13
4 16
2 32
7 22
12 22
2 17
2 28
5 14
10 14
5 27
9 19
15 16
6 16
11 16
12 27
16 21
2 12
14 22
1 16
16 29
16 32
14 28
19 28
14 19
5 17
10 19
16 23
12 18
7 31
10 32
17 27
2 7
9 13
5 10
5 7
19 27
7 17
16 26
13 22
12 32
5 13
27 31
17 28
22 27
2 13
3 16
8 16
12 14
7 27
17 31
16 25
13 28
18 28
2 14
9 27
27 28
7 13
12 19
23 27
9 12
5 9
9 22
5 19
0 16
23 32
16 24
22 31
2 9
5 12
10 12
9 28
10 27
9 17
16 30
5 22
10 22
2 31
16 20
2 10
5 28
10 28
13 14
13 27
14 32
