76 391
26 47
27 46
33 55
30 41
41 63
28 41
34 52
33 41
30 51
34 46
53 64
30 66
51 60
52 63
56 58
27 39
57 59
36 67
28 32
2 47
32 35
22 42
55 56
59 61
30 58
36 41
34 41
61 63
35 52
36 55
2 49
45 54
47 64
21 68
26 49
0 36
33 74
37 74
57 60
36 74
58 59
22 45
30 61
8 51
41 43
35 61
43 45
17 50
54 67
26 30
50 51
14 53
27 31
45 64
46 63
27 53
25 37
28 54
26 34
22 36
39 75
22 30
74 75
31 34
40 55
41 54
28 67
66 73
25 46
26 45
29 48
27 32
33 53
39 64
33 47
30 49
41 59
7 49
31 52
35 49
42 60
43 49
45 59
49 56
25 55
26 52
53 60
27 57
1 46
28 34
58 62
32 37
6 47
34 39
31 61
37 42
36 49
37 52
35 72
25 34
37 66
32 60
48 70
33 57
8 53
31 58
5 51
27 74
16 53
51 64
43 47
37 61
39 59
27 55
47 56
26 32
27 45
30 42
28 46
34 57
31 35
27 67
36 39
68 75
20 63
51 59
52 60
27 34
30 45
55 63
33 45
30 55
36 46
34 42
37 47
35 51
36 52
28 66
50 61
71 74
52 59
57 63
4 47
58 60
22 46
48 65
36 51
22 27
45 50
39 60
50 52
68 71
26 61
46 56
60 66
57 64
30 31
34 66
26 39
32 62
22 33
25 74
40 46
31 36
28 57
36 58
42 54
38 48
14 57
66 74
21 73
25 41
26 46
27 47
39 71
34 55
32 43
39 50
45 62
49 59
35 68
58 64
26 41
56 57
26 67
53 63
36 66
28 39
32 34
31 42
35 47
30 53
60 61
49 64
37 45
26 66
43 53
39 43
13 52
37 55
49 60
32 67
53 56
27 61
54 55
40 41
31 57
11 47
35 58
36 61
18 56
25 26
39 62
28 31
46 62
26 74
47 63
28 53
33 61
30 39
34 58
9 52
37 57
64 66
41 64
66 72
30 46
28 42
34 53
31 47
35 40
34 47
41 56
31 53
30 67
13 57
45 60
56 61
71 73
51 63
52 56
26 55
46 50
32 36
55 59
36 42
35 55
40 74
12 51
30 74
37 53
49 50
50 57
35 73
0 37
28 74
37 67
32 59
22 34
48 69
33 58
5 52
22 28
39 56
20 64
26 31
27 30
26 57
64 74
33 66
46 60
27 52
25 36
28 55
32 50
22 37
27 42
33 51
28 45
37 39
19 61
24 48
51 56
25 45
26 42
33 52
28 30
39 67
34 51
55 60
33 46
6 53
36 45
10 56
34 45
49 63
15 47
26 53
32 64
22 55
53 59
1 45
34 74
58 63
22 41
3 51
33 39
30 57
4 52
31 60
37 41
35 57
37 51
55 64
50 55
32 71
46 59
27 49
63 74
47 50
28 58
40 45
30 32
31 37
36 57
43 46
41 50
31 67
11 57
25 30
25 42
47 59
28 49
62 66
33 49
28 47
63 66
35 39
27 66
35 53
7 53
12 57
45 63
66 68
15 58
32 75
34 49
32 33
31 43
30 52
36 47
41 60
31 49
37 46
16 58
36 53
17 59
22 26
45 56
50 58
73 75
52 64
26 51
46 54
3 47
27 58
23 48
28 61
61 64
54 66
37 49
18 59
25 27
39 63
30 47
50 53
19 51
26 58
27 51
47 60
28 52
34 67
32 63
27 41
34 61
9 53
10 50
37 58
25 28
46 64
28 51
