DELETED 130
9 24 34 37 42 64 67 70 77 81 86 92 104 118 120 123 132 143 150 152 154 163 170 171 180 182 183 184 186 190 193 195 213 214 220 222 232 239 244 250 259 263 266 268 269 270 274 279 280 293 305 311 317 322 324 331 333 334 338 341 342 343 349 354 370 373 379 382 386 388 390 393 420 422 427 431 434 442 449 450 452 456 462 470 471 475 476 478 483 485 489 490 495 502 508 511 516 525 526 531 533 534 538 546 549 555 556 567 568 570 577 578 579 589 623 624 627 638 642 643 645 650 661 675 678 682 690 693 694 698 
UNDELETABLE_VERTICES 0

RESOLVED_TERMINALS 0

TOTAL_TERMINALS_DEGREE 134
