DELETED 200
24 25 32 40 47 51 56 59 61 77 79 83 86 90 96 105 112 113 116 137 139 140 142 146 155 161 176 179 191 192 195 196 202 205 206 210 211 215 226 237 244 245 248 251 261 269 270 282 285 288 294 304 312 315 318 320 332 336 342 378 381 383 388 396 397 402 419 423 434 438 452 470 485 490 506 518 535 542 543 546 547 553 554 557 560 563 567 568 574 579 590 594 596 598 599 601 605 606 609 613 617 634 637 655 657 661 667 670 675 679 683 689 691 695 706 721 733 737 738 750 754 756 768 770 778 788 796 798 799 812 814 816 817 821 822 829 835 839 840 846 847 848 850 853 860 864 877 885 886 887 888 890 899 904 905 917 927 930 939 940 943 946 948 957 962 964 977 978 980 985 989 1002 1005 1006 1010 1024 1027 1036 1038 1048 1049 1050 1061 1072 1073 1074 1083 1085 1099 1102 1105 1111 1113 1126 1127 1129 1131 1158 1177 1184 
UNDELETABLE_VERTICES 995
0 1 2 3 4 5 6 7 8 9 10 11 12 13 14 15 16 17 18 19 20 21 22 23 26 27 28 29 30 31 33 34 36 37 38 39 41 42 43 44 45 46 48 49 50 52 53 54 55 57 58 60 62 63 64 65 66 67 68 69 70 71 72 73 74 75 76 78 80 81 82 84 85 87 88 89 91 92 93 94 95 97 98 100 101 102 103 104 106 107 108 109 110 111 114 115 117 118 119 120 121 122 123 124 125 126 127 128 129 130 131 132 133 134 135 136 138 141 143 144 145 147 148 149 150 151 152 153 154 156 157 158 159 160 162 163 164 165 166 167 168 169 170 171 172 173 174 175 177 178 180 181 182 183 184 185 186 187 188 189 193 194 197 198 199 200 201 203 204 207 208 209 212 213 214 216 217 218 219 220 221 222 223 224 225 227 228 229 230 231 232 233 234 235 236 238 239 240 241 242 243 246 247 249 250 252 253 254 255 256 257 258 259 260 262 263 264 265 266 267 268 271 272 273 274 275 276 277 278 279 280 281 283 284 286 287 289 290 291 292 293 295 296 297 298 299 300 301 302 303 305 306 307 308 309 310 311 313 314 316 317 319 321 322 323 324 325 326 327 328 329 330 331 333 334 335 337 338 339 340 341 343 344 345 346 347 348 349 350 351 352 353 354 355 356 357 358 359 360 361 362 363 364 365 366 367 368 369 370 371 372 373 374 375 376 377 379 380 382 384 385 386 387 389 390 391 392 393 394 395 398 399 400 401 403 404 405 406 407 408 409 410 411 412 413 414 415 416 417 418 420 421 422 424 425 426 427 428 429 430 431 432 433 435 436 437 439 440 441 442 443 444 445 446 447 448 449 450 451 453 454 455 456 457 458 459 460 461 462 463 464 465 466 467 468 469 471 472 473 474 475 476 477 478 479 480 481 482 483 484 486 487 488 489 491 492 493 494 495 496 497 498 499 500 501 502 503 504 505 507 508 509 510 511 512 513 514 515 516 517 519 520 521 522 523 524 525 526 527 528 529 530 531 532 533 534 536 537 538 539 540 541 544 545 548 549 550 551 552 555 556 558 559 561 562 564 565 566 569 570 571 572 573 575 576 577 578 580 581 582 583 584 585 586 587 588 589 591 592 593 595 597 600 602 603 604 607 608 610 611 612 614 615 616 618 619 620 621 622 623 624 625 626 627 628 629 630 631 632 633 635 636 638 639 640 641 642 643 644 645 646 647 648 649 650 651 652 653 654 656 658 659 660 662 663 664 665 666 668 669 671 672 673 674 676 677 678 680 681 682 684 685 686 687 688 690 692 693 694 696 697 698 699 700 701 702 703 704 705 707 708 709 710 711 712 713 714 715 716 717 718 719 720 722 723 724 725 726 727 728 729 730 731 732 734 735 736 739 740 741 743 744 745 746 747 748 749 751 752 753 755 757 758 759 760 761 762 763 764 765 766 767 769 771 772 773 774 776 777 779 780 781 782 783 784 785 786 787 789 790 791 792 793 794 795 797 800 801 802 803 804 805 806 807 808 809 810 811 813 815 818 819 820 823 824 825 826 827 828 830 831 832 833 834 836 837 838 841 842 843 844 845 849 851 852 854 855 856 857 858 859 861 862 863 865 866 867 868 869 870 871 872 873 874 875 876 878 879 880 881 882 883 884 889 891 892 893 894 895 896 897 898 900 901 902 903 906 907 908 909 910 911 912 913 914 915 916 918 919 920 921 922 923 924 925 926 928 929 931 932 933 934 935 936 937 938 941 942 944 945 947 949 950 951 952 953 954 955 956 958 959 960 961 963 965 966 967 968 969 970 971 972 973 974 975 976 979 981 982 983 984 986 987 988 990 991 992 993 994 995 996 997 998 999 1000 1001 1003 1004 1007 1008 1009 1011 1012 1013 1014 1015 1016 1017 1018 1019 1020 1021 1022 1023 1025 1026 1028 1029 1030 1031 1032 1033 1034 1035 1037 1039 1040 1041 1042 1043 1044 1045 1046 1047 1051 1052 1053 1054 1055 1056 1057 1058 1059 1060 1062 1063 1064 1065 1066 1067 1068 1069 1070 1071 1075 1076 1077 1078 1079 1080 1081 1082 1084 1086 1087 1088 1089 1090 1091 1092 1093 1094 1095 1096 1097 1098 1100 1101 1103 1104 1106 1107 1108 1109 1110 1112 1114 1115 1116 1117 1118 1119 1120 1121 1122 1123 1124 1125 1128 1130 1132 1133 1134 1135 1136 1137 1138 1139 1140 1141 1142 1143 1144 1145 1146 1147 1148 1149 1150 1151 1152 1153 1154 1155 1156 1157 1159 1160 1161 1162 1163 1164 1165 1166 1167 1168 1169 1170 1171 1172 1173 1174 1175 1176 1178 1179 1180 1181 1182 1183 1185 1186 1187 1188 1189 1190 1191 1192 1193 1194 1195 1196 1197 1198 1199 
RESOLVED_TERMINALS 5
35 99 190 742 775 
TOTAL_TERMINALS_DEGREE 0
