DELETED 200
9 20 26 32 35 42 43 44 45 58 63 65 67 68 71 72 73 77 81 90 94 95 114 121 128 131 146 154 159 161 165 167 169 179 181 191 195 199 203 210 212 236 243 246 250 253 260 271 274 276 296 303 306 312 314 315 319 341 345 347 353 358 361 364 366 368 371 378 383 385 407 409 416 422 423 438 442 447 450 459 461 462 464 469 474 475 476 485 486 489 497 498 499 501 504 505 507 510 515 521 524 539 548 549 551 552 553 558 559 567 572 575 576 588 591 595 603 604 605 607 611 618 626 628 630 632 645 648 656 662 689 692 701 710 712 716 725 732 735 736 738 744 745 749 751 757 760 762 768 770 773 774 778 779 790 802 809 818 819 825 835 837 839 852 854 857 860 861 862 866 867 868 872 890 892 904 906 907 910 922 924 927 929 930 931 932 933 935 936 938 946 949 953 954 959 961 972 976 985 986 
UNDELETABLE_VERTICES 796
0 1 2 3 4 5 6 7 8 10 11 12 13 14 15 16 17 18 19 21 22 23 24 25 27 28 29 30 31 33 34 36 37 38 39 40 41 46 47 48 49 50 51 52 53 54 55 56 57 59 60 61 62 64 66 69 70 74 75 76 78 79 80 82 83 84 85 86 87 88 89 91 92 93 96 97 98 99 100 101 102 103 104 105 106 107 108 109 110 111 112 113 115 116 117 118 119 120 122 123 124 125 126 127 129 130 132 133 134 135 136 137 138 139 140 141 142 143 144 145 147 148 149 150 151 152 153 155 156 157 158 160 162 163 164 166 168 170 171 172 173 174 175 176 177 178 180 182 183 184 185 186 187 188 189 190 192 193 194 196 197 198 200 201 202 204 205 206 207 208 209 211 213 214 215 216 217 218 219 220 221 222 223 224 225 226 227 228 229 230 231 232 233 234 235 237 238 239 240 241 242 244 245 247 248 249 251 252 254 255 256 257 258 259 261 262 263 264 265 266 267 268 269 270 272 273 275 277 278 279 280 281 282 283 284 285 286 287 288 289 290 291 292 293 294 295 297 298 299 300 301 302 304 305 307 308 309 310 311 313 316 317 318 320 321 322 323 324 325 326 327 328 329 330 331 332 333 334 335 336 337 338 339 340 342 343 344 346 348 349 350 351 352 354 355 356 357 359 360 362 363 365 367 369 370 372 373 374 375 376 377 379 380 381 382 384 386 387 388 389 390 391 392 393 394 395 396 397 398 399 400 401 402 403 404 405 406 408 410 411 412 413 414 415 417 418 419 420 421 424 425 426 427 428 429 430 431 432 433 434 435 436 437 439 440 441 443 444 445 446 448 449 451 452 453 454 455 456 457 458 460 463 465 466 467 468 470 471 472 473 477 478 479 480 481 482 483 484 487 488 490 491 492 493 494 495 496 500 502 503 506 508 509 511 512 513 514 516 517 518 519 520 522 523 525 526 527 528 529 530 531 532 533 534 535 536 537 538 540 541 542 543 544 545 546 547 550 554 555 556 557 560 561 562 563 564 565 566 568 570 571 573 574 577 578 579 580 581 582 583 584 585 586 587 589 590 592 593 594 596 597 598 599 600 601 602 606 608 609 610 612 613 614 615 616 617 619 620 621 622 623 624 625 627 629 631 633 634 635 636 637 638 639 640 641 642 643 644 646 647 650 651 652 653 654 655 657 658 659 660 661 663 664 665 666 667 668 669 670 671 672 673 674 675 676 677 678 679 680 681 682 683 684 685 686 687 688 690 691 693 694 695 696 697 698 699 700 702 703 704 705 706 707 708 709 711 713 714 715 717 718 719 720 721 722 723 724 726 727 728 729 730 731 733 734 737 739 740 741 742 743 746 748 750 752 753 754 755 756 758 759 761 763 764 765 766 767 769 771 772 775 776 777 780 781 782 783 784 785 786 787 788 789 791 792 793 794 795 796 797 798 799 800 801 803 804 805 806 807 808 810 811 812 813 814 815 816 817 820 821 822 823 824 826 827 828 829 830 831 832 833 834 836 838 840 841 842 843 844 845 846 848 849 850 851 853 855 856 858 859 863 864 865 869 870 871 873 874 875 876 877 878 879 880 881 882 883 884 885 886 887 888 889 891 893 894 895 896 897 898 899 900 901 902 903 905 908 909 911 912 913 914 915 916 917 918 919 920 921 923 925 926 928 934 937 939 940 941 942 943 944 945 947 948 950 951 952 955 956 957 958 960 962 963 964 965 966 967 968 969 970 971 973 974 975 977 978 979 980 981 982 983 984 987 988 989 990 991 992 993 994 995 996 997 998 999 
RESOLVED_TERMINALS 4
569 649 747 847 
TOTAL_TERMINALS_DEGREE 0
