DELETED 43
11 22 34 49 80 88 110 171 203 257 258 261 266 284 291 327 328 343 362 404 445 459 469 477 497 520 524 615 685 703 705 707 756 785 789 800 823 829 834 842 853 883 930 
UNDELETABLE_VERTICES 0

RESOLVED_TERMINALS 0

TOTAL_TERMINALS_DEGREE 245
