DELETED 40
3 14 25 29 35 43 61 68 76 78 83 101 116 128 153 154 155 158 180 182 188 201 202 203 221 235 238 250 257 266 269 279 281 288 293 315 332 334 335 347 
UNDELETABLE_VERTICES 0

RESOLVED_TERMINALS 0

TOTAL_TERMINALS_DEGREE 113
