DELETED 23
120 148 154 158 197 220 223 273 278 355 458 517 522 525 544 577 754 758 910 932 951 1042 1049 
UNDELETABLE_VERTICES 993
0 1 2 3 4 5 6 7 8 10 11 13 14 17 18 19 20 21 22 23 24 26 27 29 31 33 34 35 36 37 38 39 40 41 42 43 46 47 48 50 51 52 54 55 56 57 58 59 60 61 62 63 64 65 67 69 70 71 72 73 74 75 77 78 79 80 83 84 85 86 87 89 90 91 92 93 94 96 97 98 99 100 101 102 104 106 107 108 109 111 112 113 115 116 117 118 119 122 123 125 126 127 129 130 131 133 134 135 136 138 139 141 142 143 145 147 149 150 153 155 156 159 160 161 162 163 164 165 167 169 170 171 172 173 174 175 176 177 178 180 181 183 184 185 186 187 190 191 192 193 194 198 200 202 203 204 206 207 208 209 210 211 212 214 216 217 219 222 224 225 228 229 230 231 233 234 235 237 238 239 241 242 243 244 245 246 247 248 249 250 251 252 253 254 256 259 260 261 264 265 266 267 268 269 270 271 272 274 275 277 279 281 283 284 285 286 287 289 291 292 293 294 295 296 297 298 299 300 301 302 303 305 306 307 308 309 310 311 313 314 315 316 318 320 321 322 323 324 325 327 328 329 330 331 332 333 335 336 337 338 340 341 342 344 345 346 347 348 349 351 352 353 354 356 357 360 364 365 366 367 368 369 370 371 372 373 374 375 376 377 378 379 380 381 382 383 384 385 386 387 388 391 392 393 395 396 399 400 401 403 405 406 407 408 410 411 412 413 414 415 417 418 419 420 421 422 424 425 426 427 428 429 430 431 432 433 439 440 441 442 443 444 445 446 447 448 449 451 452 453 454 455 456 457 460 461 462 463 464 467 469 471 472 474 475 476 477 479 480 482 483 484 485 486 488 489 492 493 494 495 496 497 498 501 502 503 504 505 506 507 508 509 510 512 513 515 519 520 521 523 524 527 528 531 532 533 534 535 536 537 538 539 540 541 542 545 548 550 551 553 554 555 557 561 563 564 567 568 569 570 572 573 575 576 578 579 580 581 582 583 584 587 588 589 591 592 595 596 597 599 600 601 602 603 604 605 606 607 608 609 610 612 614 615 617 618 620 621 622 624 625 626 627 628 629 631 632 633 634 635 636 638 639 641 643 644 646 647 648 649 650 653 655 656 657 658 659 660 661 662 664 666 668 669 670 672 674 675 676 677 678 679 680 681 683 684 685 686 687 688 689 690 691 692 693 694 695 696 697 699 700 701 702 705 706 707 708 709 710 711 712 713 714 715 716 718 720 722 723 724 726 727 728 729 730 731 732 733 734 735 736 739 740 742 744 745 746 747 748 749 750 751 752 753 755 756 757 760 761 762 763 765 766 768 769 770 771 772 775 776 777 778 779 780 781 783 784 786 788 790 792 793 794 795 796 797 798 799 800 801 802 803 805 807 808 809 810 811 813 816 817 818 819 820 821 822 823 824 825 826 827 828 831 835 836 837 838 839 843 846 847 848 849 850 852 853 854 855 856 857 860 861 862 863 864 865 866 868 869 871 873 874 875 876 878 879 880 881 883 884 885 886 888 889 890 891 892 893 894 895 898 900 902 903 905 906 908 911 913 914 915 916 918 919 921 922 923 925 926 927 928 929 930 933 934 935 936 937 939 941 942 944 945 948 950 952 953 954 955 956 957 958 959 960 961 962 964 965 966 967 969 970 972 973 974 975 976 977 979 980 981 983 984 985 987 988 990 991 994 996 997 998 1000 1002 1003 1004 1005 1006 1007 1008 1009 1010 1011 1012 1013 1014 1015 1016 1019 1020 1021 1022 1023 1025 1026 1027 1028 1029 1030 1031 1033 1034 1035 1036 1038 1039 1040 1041 1043 1046 1047 1048 1051 1053 1055 1056 1057 1061 1062 1063 1065 1066 1067 1068 1069 1071 1072 1073 1074 1075 1076 1077 1078 1079 1080 1081 1083 1084 1085 1087 1088 1089 1092 1093 1094 1095 1096 1100 1101 1102 1104 1105 1106 1108 1109 1110 1111 1112 1113 1114 1115 1117 1118 1119 1121 1123 1124 1125 1126 1127 1128 1129 1131 1132 1133 1134 1135 1136 1137 1138 1139 1140 1141 1143 1144 1146 1147 1148 1149 1150 1151 1152 1154 1157 1158 1159 1160 1161 1162 1163 1165 1166 1167 1168 1169 1170 1171 1174 1176 1178 1179 1181 1182 1183 1184 1187 1189 1190 1191 1192 1194 1195 1196 1197 1198 1199 1200 1202 1204 1205 1206 1207 1208 1210 1211 1212 1213 1215 1216 1217 1218 1220 1221 1222 1224 1225 1226 1227 1228 1231 1232 1233 1234 1235 1236 1237 1238 1241 1242 1243 1244 1247 1248 1249 1250 1251 1253 1254 1256 1257 1258 1260 1261 1262 1264 1265 1266 1267 1268 1269 1271 1272 1273 1275 1276 1278 1280 1281 1282 1283 1284 1285 1286 1287 1288 1289 1291 1293 1294 1295 1296 1297 1301 1302 1304 1305 1306 1307 1308 1309 1310 1311 1313 
RESOLVED_TERMINALS 25
9 76 128 137 168 282 304 389 530 560 585 637 719 743 759 767 791 806 920 931 1086 1091 1145 1153 1270 
TOTAL_TERMINALS_DEGREE 11
